,precision,recall,rocauc,prauc,wrocauc,wprauc,balacc,microf1,microf2,mcc,tss,coverage,lr,lrap,conf,cvblock
0,0.4954128563404083,0.21862348914146423,0.6215789318084717,0.11587618291378021,0.6601517796516418,0.32381749153137207,0.6028642058372498,0.30337080359458923,0.3953148126602173,0.0904533788561821,0.2057284116744995,25.928327645051194,0.1315030116846124,0.472146924351297,Lombrics_valid_4_grid0,0
1,0.4699570834636688,0.2250770777463913,0.6363306045532227,0.10671894252300262,0.6728274822235107,0.330757737159729,0.6057239770889282,0.30437806248664856,0.3859711289405823,0.129790797829628,0.21144795417785645,24.677419354838708,0.1309477007191053,0.4772824093804576,Lombrics_valid_4_grid0,1
2,0.5138121843338013,0.17111314833164215,0.6156836152076721,0.12014614790678024,0.6606499552726746,0.3247952163219452,0.5810193419456482,0.25672876834869385,0.366863876581192,0.09600478410720825,0.1620386838912964,24.334586466165412,0.1232309581151267,0.45780424032034583,Lombrics_valid_4_grid0,2
3,0.4964200556278229,0.19678334891796112,0.6308462023735046,0.1221289187669754,0.6714744567871094,0.3325346112251282,0.5925680994987488,0.28184282779693604,0.38053420186042786,0.05267849564552307,0.18513619899749756,25.55823293172691,0.1337806628084555,0.46639946851075814,Lombrics_valid_4_grid0,3
4,0.454332560300827,0.18798449635505676,0.6385790109634399,0.11736073344945908,0.6588618159294128,0.32623612880706787,0.5878066420555115,0.2659355700016022,0.3540146052837372,0.13951745629310608,0.17561328411102295,23.875968992248062,0.1280128858154287,0.4584585171307682,Lombrics_valid_4_grid0,4
5,0.41555285453796387,0.2769230902194977,0.6175692677497864,0.13520625233650208,0.6622841954231262,0.3459588289260864,0.6271842122077942,0.3323615491390228,0.37773361802101135,0.04187459871172905,0.2543684244155884,26.962457337883958,0.1398822435580397,0.4323634444961908,Lombrics_valid_4_grid1,0
6,0.3442367613315582,0.22713257372379303,0.6318416595458984,0.11218645423650742,0.6564087271690369,0.2980966567993164,0.6019512414932251,0.27368420362472534,0.3120587468147278,0.04298758506774902,0.2039024829864502,24.5,0.13820682930864814,0.40711414757529285,Lombrics_valid_4_grid1,1
7,0.4365941882133484,0.22171112895011902,0.616661787033081,0.10980146378278732,0.661375105381012,0.32367128133773804,0.6028380393981934,0.29408174753189087,0.36570560932159424,0.016894279047846794,0.20567607879638672,24.469924812030076,0.13112591341781069,0.4458331595498272,Lombrics_valid_4_grid1,2
8,0.4080996811389923,0.24787133932113647,0.609454870223999,0.12571503221988678,0.6513753533363342,0.33038464188575745,0.6134476661682129,0.3084166944026947,0.3613792955875397,0.05996812507510185,0.22689533233642578,27.096385542168676,0.14286144830837297,0.43954658596864593,Lombrics_valid_4_grid1,3
9,0.36408567428588867,0.21414728462696075,0.6438876986503601,0.10087994486093521,0.6411412358283997,0.29935601353645325,0.5968261957168579,0.2696766257286072,0.31936416029930115,0.10007642209529877,0.19365239143371582,26.007751937984494,0.1498769924738016,0.4073535747866636,Lombrics_valid_4_grid1,4
10,0.30737364292144775,0.3004048466682434,0.6048904657363892,0.09861632436513901,0.5893657803535461,0.27162081003189087,0.6306019425392151,0.30384930968284607,0.3059541583061218,0.07117422670125961,0.2612038850784302,26.761092150170647,0.15024742074397204,0.4025342804922518,Lombrics_valid_4_grid2,0
11,0.2854330837726593,0.29804727435112,0.6184884309768677,0.09521710872650146,0.6128054261207581,0.27532824873924255,0.6289938688278198,0.29160383343696594,0.28786978125572205,0.018687909469008446,0.25798773765563965,25.286290322580644,0.1438334039172383,0.3816904688194704,Lombrics_valid_4_grid2,1
12,0.2983333468437195,0.32934683561325073,0.575446367263794,0.0927567258477211,0.5747634768486023,0.2784877419471741,0.6429668068885803,0.31307390332221985,0.30405980348587036,0.04719817265868187,0.28593361377716064,28.477443609022558,0.16381321922119965,0.39385343132623096,Lombrics_valid_4_grid2,2
13,0.30261969566345215,0.316934734582901,0.5754531025886536,0.09860383719205856,0.5729668736457825,0.2766300439834595,0.6371602416038513,0.30961185693740845,0.3053783178329468,-0.08285234123468399,0.27432048320770264,29.216867469879517,0.1621366548692836,0.379324097564845,Lombrics_valid_4_grid2,3
14,0.30104711651802063,0.3343023359775543,0.607981264591217,0.10297338664531708,0.6020599603652954,0.28304722905158997,0.6458864212036133,0.3168044090270996,0.30715811252593994,0.03961606323719025,0.29177284240722656,25.87984496124031,0.14880497456502856,0.4039027652303882,Lombrics_valid_4_grid2,4
15,0.20060789585113525,0.3740890622138977,0.5731326937675476,0.08837810903787613,0.5630340576171875,0.262247771024704,0.6438812613487244,0.26116448640823364,0.2211161106824875,-0.014325462281703949,0.28776252269744873,36.003412969283275,0.21544335151599722,0.3477504636842474,Lombrics_valid_4_grid3,0
16,0.18393923342227936,0.34840700030326843,0.5321946144104004,0.07603993266820908,0.5790315270423889,0.27169129252433777,0.632709264755249,0.24076703190803528,0.20311564207077026,0.07642129808664322,0.26541852951049805,37.58064516129032,0.23998415736349876,0.33070094149760004,Lombrics_valid_4_grid3,1
17,0.1397802233695984,0.2925482988357544,0.44549140334129333,0.06888425350189209,0.5052841305732727,0.24145950376987457,0.5958229899406433,0.1891731172800064,0.15608127415180206,0.039389513432979584,0.19164597988128662,40.53007518796993,0.2714884928548759,0.25000179172601505,Lombrics_valid_4_grid3,2
18,0.1775210052728653,0.3197729289531708,0.5204452276229858,0.0795859843492508,0.5626023411750793,0.27916964888572693,0.6166650056838989,0.2283012419939041,0.1948576122522354,0.051656920462846756,0.23333001136779785,43.24096385542169,0.2868133521932087,0.30749389205247935,Lombrics_valid_4_grid3,3
19,0.18168316781520844,0.3556201457977295,0.5006541013717651,0.06515970826148987,0.5504527688026428,0.2642286419868469,0.6339266300201416,0.24049803614616394,0.20138278603553772,0.07613474875688553,0.2678532600402832,39.724806201550386,0.2589589129869245,0.3302806890521548,Lombrics_valid_4_grid3,4
20,0.48663100600242615,0.1473684161901474,0.5424612760543823,0.0794292688369751,0.5861455202102661,0.2772425413131714,0.5691826343536377,0.22622747719287872,0.3332113027572632,0.08269447833299637,0.1383652687072754,30.5358361774744,0.16757335226320247,0.4318858428361233,Lombrics_valid_4_grid4,0
21,0.5708501935005188,0.14491264522075653,0.5628308653831482,0.10205987095832825,0.6212207078933716,0.2991918623447418,0.5695318579673767,0.23114752769470215,0.3595104515552521,0.040757808834314346,0.13906371593475342,24.77016129032258,0.13585431521309416,0.46978726281769473,Lombrics_valid_4_grid4,1
22,0.5263158082962036,0.15639375150203705,0.5341565012931824,0.07972763478755951,0.5935908555984497,0.27404800057411194,0.5742525458335876,0.24113474786281586,0.3572930097579956,0.008559252135455608,0.1485050916671753,28.36466165413534,0.15987958893872017,0.4435855958456975,Lombrics_valid_4_grid4,2
23,0.5771604776382446,0.17691579461097717,0.5293111205101013,0.09243796020746231,0.6068587899208069,0.31412267684936523,0.5846766829490662,0.2708182632923126,0.39736509323120117,0.005306869279593229,0.16935336589813232,28.57831325301205,0.16033876253140766,0.4617252404818263,Lombrics_valid_4_grid4,3
24,0.5216216444969177,0.18701550364494324,0.566681444644928,0.0793565958738327,0.6158605813980103,0.2864771783351898,0.5888087749481201,0.27532097697257996,0.38415607810020447,0.09871453791856766,0.17761754989624023,27.04263565891473,0.1532103125236347,0.4304247425072692,Lombrics_valid_4_grid4,4
25,0.597484290599823,0.1538461595773697,0.4779449701309204,0.0740056186914444,0.5546717643737793,0.27259448170661926,0.5739220380783081,0.24468772113323212,0.3789390027523041,0.049960341304540634,0.1478440761566162,30.546075085324233,0.1665996875860688,0.447153092528362,Lombrics_valid_4_grid5,0
26,0.4255874752998352,0.16752313077449799,0.5713130831718445,0.0796712189912796,0.5932457447052002,0.2678210437297821,0.577691912651062,0.24041298031806946,0.3253493010997772,0.03265418857336044,0.15538382530212402,28.342741935483872,0.16040065987951874,0.4321552796415896,Lombrics_valid_4_grid5,1
27,0.585616409778595,0.15731370449066162,0.5226022005081177,0.09074539691209793,0.5915955305099487,0.28188377618789673,0.5755375027656555,0.24800580739974976,0.3791574239730835,0.09649114310741425,0.15107500553131104,27.958646616541355,0.14912178742667495,0.45516179277431856,Lombrics_valid_4_grid5,2
28,0.6179401874542236,0.17596971988677979,0.5902652740478516,0.11767106503248215,0.6439090371131897,0.33512404561042786,0.5848108530044556,0.27393224835395813,0.4113224446773529,0.08055298775434494,0.16962170600891113,26.365461847389557,0.13845689970129485,0.4728532548043358,Lombrics_valid_4_grid5,3
29,0.4657210409641266,0.19089147448539734,0.5682203769683838,0.09108052402734756,0.5835542678833008,0.27968114614486694,0.589445948600769,0.27079036831855774,0.3616006076335907,0.02547263726592064,0.17889189720153809,27.085271317829456,0.15279526382670908,0.41702952741523486,Lombrics_valid_4_grid5,4
30,0.28492501378059387,0.29230770468711853,0.5428732633590698,0.09116456657648087,0.5617594122886658,0.2746514081954956,0.6249122023582458,0.2885691523551941,0.2863715887069702,0.04986248165369034,0.2498244047164917,29.41638225255973,0.16889788086307359,0.3778682227614279,Lombrics_valid_4_grid6,0
31,0.22094926238059998,0.2774922847747803,0.5008828639984131,0.08378775417804718,0.5468720197677612,0.2543852627277374,0.6124811768531799,0.24601365625858307,0.23033611476421356,-0.03303355351090431,0.22496235370635986,29.653225806451612,0.1872525928827576,0.32545355443441004,Lombrics_valid_4_grid6,1
32,0.24379025399684906,0.24379025399684906,0.5087428689002991,0.08265762776136398,0.538969099521637,0.24869686365127563,0.6007040739059448,0.24379025399684906,0.24379025399684906,0.020937735214829445,0.20140814781188965,29.462406015037594,0.1733918718843932,0.36310607552314395,Lombrics_valid_4_grid6,2
33,0.2606557309627533,0.3008514642715454,0.5467928647994995,0.08958767354488373,0.5526766180992126,0.2656930088996887,0.6255306005477905,0.27931487560272217,0.26781201362609863,-0.044418565928936005,0.25106120109558105,29.662650602409638,0.1765812671846367,0.37642581853430873,Lombrics_valid_4_grid6,3
34,0.25632911920547485,0.3139534890651703,0.5435076951980591,0.08780932426452637,0.5483309030532837,0.24413655698299408,0.6320219039916992,0.2822299897670746,0.26609721779823303,0.006888142321258783,0.26404380798339844,28.507751937984494,0.17556420585815286,0.3838236521765403,Lombrics_valid_4_grid6,4
35,0.20500245690345764,0.3384615480899811,0.5309129953384399,0.07109484821557999,0.52848881483078,0.26226112246513367,0.6312255263328552,0.2553451359272003,0.22255350649356842,-0.05869248881936073,0.26245105266571045,40.94539249146758,0.24289654365166502,0.3587061946112029,Lombrics_valid_4_grid7,0
36,0.2018413543701172,0.29290851950645447,0.5391963720321655,0.07784050703048706,0.584446132183075,0.2700466215610504,0.6153611540794373,0.23899370431900024,0.2152242809534073,0.07542619854211807,0.2307223081588745,32.86290322580645,0.20316294350867162,0.3331184072277978,Lombrics_valid_4_grid7,1
37,0.24923266470432281,0.3735050559043884,0.529728353023529,0.0997004359960556,0.5394147634506226,0.24814237654209137,0.6552237868309021,0.2989690899848938,0.26699990034103394,-0.007201258093118668,0.3104475736618042,33.0,0.18817228874692135,0.3935376897284456,Lombrics_valid_4_grid7,2
38,0.23529411852359772,0.41627246141433716,0.5210880637168884,0.083699069917202,0.5564894676208496,0.28376418352127075,0.6686683893203735,0.30064913630485535,0.2577017843723297,0.026619676500558853,0.33733677864074707,37.4136546184739,0.21284830096948282,0.39876043816425305,Lombrics_valid_4_grid7,3
39,0.20994152128696442,0.3478682041168213,0.5387516617774963,0.0848032683134079,0.5378564596176147,0.24934174120426178,0.6380680799484253,0.2618526518344879,0.22802335023880005,0.0837986171245575,0.2761361598968506,34.41472868217054,0.20707087293611565,0.3630433754838177,Lombrics_valid_4_grid7,4
