,precision,recall,rocauc,prauc,wrocauc,wprauc,balacc,microf1,microf2,mcc,tss,coverage,lr,lrap,conf,cvblock
0,0.1679345816373825,0.7149797677993774,0.7444146871566772,0.18491657078266144,0.7336654663085938,0.38145554065704346,0.7549155950546265,0.2719852328300476,0.19827549159526825,0.02244068868458271,0.5098311901092529,24.880546075085324,0.15489351112175012,0.3261305641680669,Lombrics_valid_4_grid0,0
1,0.12422360479831696,0.6988694667816162,0.7309706807136536,0.15401045978069305,0.7323271632194519,0.3662255108356476,0.7171719074249268,0.2109508365392685,0.14867287874221802,0.04695604369044304,0.4343438148498535,30.822580645161292,0.21265996133205542,0.29507097180528,Lombrics_valid_4_grid0,1
2,0.1538776308298111,0.6918123364448547,0.7355533838272095,0.18829531967639923,0.7399153709411621,0.39198777079582214,0.7393065690994263,0.2517576217651367,0.1822146773338318,0.04712584242224693,0.47861313819885254,26.30827067669173,0.16861580554036926,0.32850354633551987,Lombrics_valid_4_grid0,2
3,0.17078189551830292,0.7067171335220337,0.7442049384117126,0.23075254261493683,0.7437667846679688,0.4050763249397278,0.753253698348999,0.27508744597435,0.20131516456604004,0.0256484467536211,0.506507396697998,25.61847389558233,0.15946558841981404,0.32386642272890137,Lombrics_valid_4_grid0,3
4,0.1371096819639206,0.663759708404541,0.730419397354126,0.19896581768989563,0.7137895226478577,0.37330108880996704,0.7174326181411743,0.22727271914482117,0.16297106444835663,0.04846356809139252,0.43486523628234863,28.07751937984496,0.1861970957317217,0.319055124257627,Lombrics_valid_4_grid0,4
5,0.16241081058979034,0.7004048824310303,0.7373031377792358,0.19534429907798767,0.7326953411102295,0.38380369544029236,0.7456117868423462,0.2636793255805969,0.19188962876796722,0.023917069658637047,0.4912235736846924,25.764505119453926,0.16328728190982028,0.30692257640112186,Lombrics_valid_4_grid1,0
6,0.12320059537887573,0.6772867441177368,0.7267105579376221,0.14892661571502686,0.7185124754905701,0.35179603099823,0.7092497944831848,0.20847831666469574,0.1473020613193512,0.023743316531181335,0.41849958896636963,29.608870967741936,0.20559349860877948,0.26782279578397045,Lombrics_valid_4_grid1,1
7,0.15817297995090485,0.6881324648857117,0.7338284254074097,0.19206160306930542,0.7384994029998779,0.38733047246932983,0.7414367198944092,0.2572214603424072,0.18697194755077362,0.034986354410648346,0.48287343978881836,26.022556390977442,0.16783953390891945,0.3217597241015647,Lombrics_valid_4_grid1,2
8,0.16155017912387848,0.7019867300987244,0.7350171804428101,0.2110062688589096,0.7330291271209717,0.39238232374191284,0.7447060942649841,0.2626548707485199,0.1909516602754593,0.014063699170947075,0.48941218852996826,26.63855421686747,0.17206292260983233,0.30053534119441017,Lombrics_valid_4_grid1,3
9,0.14065586030483246,0.6899224519729614,0.7260710597038269,0.18036875128746033,0.7178328037261963,0.3640735447406769,0.7294785976409912,0.23367245495319366,0.1672932356595993,0.039525263011455536,0.4589571952819824,28.058139534883722,0.18605688172523874,0.3009354107067985,Lombrics_valid_4_grid1,4
10,0.17449665069580078,0.6947368383407593,0.7345051169395447,0.20093131065368652,0.7137277722358704,0.36407366394996643,0.7522028684616089,0.27893370389938354,0.20523370802402496,0.022381966933608055,0.5044057369232178,22.95221843003413,0.14690956330780153,0.3060234620042096,Lombrics_valid_4_grid2,0
11,0.15138281881809235,0.6413155198097229,0.71974116563797,0.1570156067609787,0.6891273260116577,0.3307780623435974,0.724150538444519,0.24494601786136627,0.17868392169475555,0.006805798504501581,0.4483010768890381,24.592741935483872,0.17033119329570912,0.26407137036443024,Lombrics_valid_4_grid2,1
12,0.16026221215724945,0.6522539258003235,0.7191383242607117,0.17577746510505676,0.6875491738319397,0.33966538310050964,0.7303548455238342,0.2573035955429077,0.1887345165014267,0.02354237623512745,0.46070969104766846,24.105263157894736,0.16539926430501745,0.273555915597599,Lombrics_valid_4_grid2,2
13,0.17284847795963287,0.6745505928993225,0.7381507754325867,0.2244282066822052,0.7109323143959045,0.37036019563674927,0.7431043982505798,0.2751833200454712,0.20305290818214417,0.026200611144304276,0.48620879650115967,23.72690763052209,0.1564841294893835,0.288007943603852,Lombrics_valid_4_grid2,3
14,0.14785905182361603,0.6424418687820435,0.7158926129341125,0.15317368507385254,0.6416558623313904,0.3005007803440094,0.7197820544242859,0.2403915822505951,0.17476801574230194,0.00028187877614982426,0.4395641088485718,25.151162790697676,0.1699906594475431,0.25442361809923686,Lombrics_valid_4_grid2,4
15,0.1431957334280014,0.5870445370674133,0.693056046962738,0.156731516122818,0.5799928307533264,0.2729177474975586,0.6918154358863831,0.23023180663585663,0.16870667040348053,0.005282850470393896,0.3836308717727661,28.5358361774744,0.18505842915601486,0.2682693169398251,Lombrics_valid_4_grid3,0
16,0.1437641680240631,0.651593029499054,0.6993222236633301,0.14521850645542145,0.6044149994850159,0.27327069640159607,0.7216194868087769,0.23555637896060944,0.1703110635280609,0.0032476456835865974,0.4432389736175537,28.387096774193548,0.18346549715252083,0.2973210321100695,Lombrics_valid_4_grid3,1
17,0.14694948494434357,0.6182152628898621,0.6931489706039429,0.1665910929441452,0.6372506618499756,0.31336334347724915,0.7085404396057129,0.2374558299779892,0.17338354885578156,0.060131777077913284,0.4170808792114258,28.646616541353385,0.18340653246061553,0.2993314933085109,Lombrics_valid_4_grid3,2
18,0.1586395800113678,0.6575213074684143,0.7144070267677307,0.21558630466461182,0.6674940586090088,0.33476221561431885,0.727027416229248,0.2556086778640747,0.1870189905166626,0.07576682418584824,0.4540548324584961,26.285140562248998,0.16091213010076968,0.34226575241581625,Lombrics_valid_4_grid3,3
19,0.13895460963249207,0.6259689927101135,0.6875855326652527,0.14141730964183807,0.5944176316261292,0.260794997215271,0.7067139148712158,0.2274247407913208,0.16456080973148346,-0.031796324998140335,0.41342782974243164,29.476744186046513,0.19748717096964302,0.2506379670721182,Lombrics_valid_4_grid3,4
20,0.1392054706811905,0.692307710647583,0.7186084389686584,0.14766550064086914,0.7006933689117432,0.3523944318294525,0.7221971750259399,0.23180155456066132,0.16567841172218323,0.00796595960855484,0.4443943500518799,27.86348122866894,0.19161369007006823,0.2520695203197237,Lombrics_valid_4_grid4,0
21,0.06350019574165344,0.5097635984420776,0.5605545043945312,0.0715763047337532,0.5668251514434814,0.2455083429813385,0.5530664324760437,0.11293260753154755,0.07697799801826477,0.00897660106420517,0.1061328649520874,51.318548387096776,0.414494575443328,0.12438729465478379,Lombrics_valid_4_grid4,1
22,0.139337956905365,0.6660533547401428,0.7129182815551758,0.150373637676239,0.7226295471191406,0.3674890100955963,0.7177392244338989,0.2304631471633911,0.1655159741640091,0.012593671679496765,0.43547844886779785,26.458646616541355,0.18365209012279324,0.2681308034109179,Lombrics_valid_4_grid4,2
23,0.14913341403007507,0.7000945806503296,0.717332124710083,0.18981416523456573,0.716610848903656,0.36889520287513733,0.7335205078125,0.24588800966739655,0.17699116468429565,0.008346541784703732,0.467041015625,27.3855421686747,0.1868804303473787,0.2671465357433145,Lombrics_valid_4_grid4,3
24,0.12907958030700684,0.682170569896698,0.700457751750946,0.1414550542831421,0.6858774423599243,0.3459039330482483,0.7149835824966431,0.21708296239376068,0.15406163036823273,0.021867889910936356,0.42996716499328613,28.93798449612403,0.19760320364860073,0.2863792856465685,Lombrics_valid_4_grid4,4
25,0.1440068483352661,0.6809716820716858,0.7051898241043091,0.17575474083423615,0.6999028921127319,0.3484812080860138,0.7232815027236938,0.23773851990699768,0.17096970975399017,0.02730252407491207,0.4465630054473877,28.928327645051194,0.18852622664491006,0.2807739408898465,Lombrics_valid_4_grid5,0
26,0.060330770909786224,0.5323740839958191,0.5518805980682373,0.07726411521434784,0.5522070527076721,0.24618938565254211,0.5435969829559326,0.1083795428276062,0.07333578914403915,0.023339712992310524,0.08719396591186523,53.21774193548387,0.44304408886398816,0.12065863489955496,Lombrics_valid_4_grid5,1
27,0.14454397559165955,0.6531738638877869,0.7148043513298035,0.15862372517585754,0.7129637598991394,0.36025720834732056,0.7182600498199463,0.23670613765716553,0.17120811343193054,0.024923233315348625,0.4365200996398926,26.94736842105263,0.18181037785488832,0.29006201921462527,Lombrics_valid_4_grid5,2
28,0.14672821760177612,0.6915799379348755,0.7215276956558228,0.203460693359375,0.7196431159973145,0.37697508931159973,0.7284627556800842,0.2420930564403534,0.1741720288991928,0.021458491683006287,0.45692551136016846,27.457831325301203,0.18516857450947982,0.2764169072966225,Lombrics_valid_4_grid5,3
29,0.13164016604423523,0.6579457521438599,0.7091358304023743,0.15683512389659882,0.6926883459091187,0.34851184487342834,0.7100656032562256,0.21938610076904297,0.15671159327030182,0.029916448518633842,0.42013120651245117,28.53488372093023,0.19301468216941137,0.2723478646810132,Lombrics_valid_4_grid5,4
30,0.12432513386011124,0.6712550520896912,0.6773033738136292,0.14279207587242126,0.6223233342170715,0.3035729229450226,0.6987289190292358,0.20979373157024384,0.1485290378332138,0.009228670038282871,0.3974578380584717,31.610921501706486,0.2129928858660503,0.25967155045779194,Lombrics_valid_4_grid6,0
31,0.08858447521924973,0.5981500744819641,0.5995289087295532,0.10084503889083862,0.546636164188385,0.24170100688934326,0.6338706016540527,0.1543152630329132,0.10677724331617355,-0.014769510366022587,0.26774120330810547,38.104838709677416,0.2594243611289581,0.2946285813485717,Lombrics_valid_4_grid6,1
32,0.13609124720096588,0.647654116153717,0.7096671462059021,0.173014834523201,0.6789382696151733,0.32516732811927795,0.7086169719696045,0.2249201387166977,0.16162359714508057,0.010318467393517494,0.417233943939209,26.51127819548872,0.18878770371451853,0.25578246110792624,Lombrics_valid_4_grid6,2
33,0.1283099353313446,0.6830652952194214,0.7003309726715088,0.17465795576572418,0.6584980487823486,0.33338356018066406,0.7061550617218018,0.2160382866859436,0.15319329500198364,0.12073568254709244,0.4123101234436035,30.895582329317268,0.20353955017990225,0.31995089324404385,Lombrics_valid_4_grid6,3
34,0.11863488703966141,0.6366279125213623,0.6949149370193481,0.14205162227153778,0.628156840801239,0.28504636883735657,0.6887344717979431,0.20000000298023224,0.14169254899024963,0.0065281265415251255,0.37746894359588623,29.608527131782946,0.21067408493022055,0.23050696982470076,Lombrics_valid_4_grid6,4
35,0.1354166716337204,0.7052631378173828,0.6867961883544922,0.1467164158821106,0.6037153601646423,0.28566214442253113,0.7222508192062378,0.2272075116634369,0.1615176498889923,-0.028584573417901993,0.4445016384124756,28.109215017064848,0.1749330923657231,0.3123589577059857,Lombrics_valid_4_grid7,0
36,0.08660154789686203,0.6104830503463745,0.5474292635917664,0.07833664864301682,0.547238290309906,0.2490331530570984,0.6323949098587036,0.15168538689613342,0.10454434156417847,0.062012266367673874,0.2647898197174072,44.935483870967744,0.29334457039919387,0.3310019673640671,Lombrics_valid_4_grid7,1
37,0.12773224711418152,0.6881324648857117,0.6646237373352051,0.1421913355588913,0.6139971017837524,0.2896163761615753,0.7123827934265137,0.21546882390975952,0.15258455276489258,0.05339255928993225,0.42476558685302734,30.090225563909776,0.18112102617982553,0.34578501135428535,Lombrics_valid_4_grid7,2
38,0.13255293667316437,0.7284768223762512,0.6825715899467468,0.1422678679227829,0.5940061807632446,0.2897137701511383,0.7251624464988708,0.22429363429546356,0.15848186612129211,-0.016446838155388832,0.4503248929977417,29.120481927710845,0.17873304888444091,0.328186171145112,Lombrics_valid_4_grid7,3
39,0.10581506043672562,0.645348846912384,0.6268373131752014,0.11220534145832062,0.5759366154670715,0.2723325490951538,0.6732637882232666,0.1818181723356247,0.1270604282617569,-0.03008272685110569,0.3465275764465332,33.97286821705426,0.2319422923308055,0.24929708002513046,Lombrics_valid_4_grid7,4
