,precision,recall,rocauc,prauc,wrocauc,wprauc,balacc,microf1,microf2,mcc,tss,coverage,lr,lrap,conf,cvblock
0,0.45236051082611084,0.42672064900398254,0.7031744122505188,0.15522006154060364,0.7230755686759949,0.37975868582725525,0.6984020471572876,0.4391666650772095,0.44698894023895264,0.13451214134693146,0.3968040943145752,19.50853242320819,0.09233329238645265,0.5253912107432251,Lombrics_valid_4_grid0,0
1,0.4425162672996521,0.4193216860294342,0.700466513633728,0.18461069464683533,0.7282229065895081,0.38108310103416443,0.6954799890518188,0.4306068420410156,0.43767431378364563,0.06813594698905945,0.3909599781036377,19.56451612903226,0.0930672802948433,0.5175333134734939,Lombrics_valid_4_grid0,1
2,0.5555555820465088,0.23459061980247498,0.584614098072052,0.12439439445734024,0.6675610542297363,0.34216755628585815,0.6120362281799316,0.3298835754394531,0.4361957013607025,0.06087351217865944,0.22407245635986328,27.090225563909776,0.14046557380315577,0.4935672775028368,Lombrics_valid_4_grid0,2
3,0.48462483286857605,0.3727530837059021,0.6541259288787842,0.16209624707698822,0.7225154638290405,0.3897232115268707,0.6748121976852417,0.4213904142379761,0.4571826457977295,0.16387662291526794,0.3496243953704834,21.393574297188756,0.10570436887842215,0.5302506349960581,Lombrics_valid_4_grid0,3
4,0.43670886754989624,0.4011628031730652,0.6926525831222534,0.19268454611301422,0.7023789286613464,0.3729780316352844,0.6864049434661865,0.418181836605072,0.4291044771671295,0.10397541522979736,0.37280988693237305,21.174418604651162,0.10658986384239219,0.521338194023841,Lombrics_valid_4_grid0,4
5,0.42172524333000183,0.4275303781032562,0.6898665428161621,0.1629592776298523,0.7157104015350342,0.3780920207500458,0.6967905759811401,0.4246079623699188,0.4228736460208893,0.12577545642852783,0.3935811519622803,19.791808873720136,0.09402688026228627,0.5192590227409052,Lombrics_valid_4_grid1,0
6,0.42374518513679504,0.45118191838264465,0.6866689324378967,0.15944983065128326,0.7199652194976807,0.3692619800567627,0.7091201543807983,0.43703335523605347,0.4289622902870178,0.08893752098083496,0.4182403087615967,20.18951612903226,0.09832038775550363,0.5102726150378272,Lombrics_valid_4_grid1,1
7,0.4902839958667755,0.3017479181289673,0.5994303822517395,0.12154767662286758,0.6637699604034424,0.33699899911880493,0.6420830488204956,0.3735763132572174,0.4358224868774414,0.03990298882126808,0.2841660976409912,28.89097744360902,0.1457053715740633,0.48399027704685715,Lombrics_valid_4_grid1,2
8,0.45598194003105164,0.3822138011455536,0.6298342943191528,0.1515539139509201,0.7001973390579224,0.3736201226711273,0.6778037548065186,0.41585177183151245,0.43903499841690063,0.11267771571874619,0.3556075096130371,24.674698795180724,0.12708069836253416,0.5081240678247931,Lombrics_valid_4_grid1,3
9,0.41322314739227295,0.4360465109348297,0.7017688155174255,0.18415147066116333,0.7018126249313354,0.3752818703651428,0.7010592818260193,0.42432817816734314,0.41759464144706726,0.1536245346069336,0.4021185636520386,20.197674418604652,0.10171511505032188,0.5136979332619706,Lombrics_valid_4_grid1,4
10,0.37163814902305603,0.3692307770252228,0.6185415983200073,0.1251656413078308,0.6154736876487732,0.3043576776981354,0.6665388345718384,0.3704305589199066,0.37115418910980225,0.007041166070848703,0.33307766914367676,24.56655290102389,0.12692366585011547,0.46477935899257034,Lombrics_valid_4_grid2,0
11,0.39071348309516907,0.35457348823547363,0.6495488882064819,0.157862588763237,0.6521797180175781,0.3139139413833618,0.6624437570571899,0.3717672824859619,0.382907897233963,-0.007492909673601389,0.3248875141143799,22.745967741935484,0.11965789604685435,0.48217708311140234,Lombrics_valid_4_grid2,1
12,0.3114071488380432,0.34406623244285583,0.5051825046539307,0.07776305824518204,0.5394597053527832,0.24467281997203827,0.6507132053375244,0.32692307233810425,0.31743335723876953,0.06372863799333572,0.30142641067504883,28.296992481203006,0.15719471666995738,0.4206978190090797,Lombrics_valid_4_grid2,2
13,0.34656083583831787,0.3718070089817047,0.5313076376914978,0.11066808551549911,0.5736982822418213,0.2824563980102539,0.6654519438743591,0.35874032974243164,0.35133200883865356,-0.015046018175780773,0.33090388774871826,28.14457831325301,0.15664533350116128,0.4385516073083865,Lombrics_valid_4_grid2,3
14,0.3832644522190094,0.3594961166381836,0.5926619172096252,0.12519222497940063,0.6118032932281494,0.2977472245693207,0.6638990640640259,0.3709999918937683,0.37826263904571533,0.011493806727230549,0.32779812812805176,24.453488372093023,0.13352911624822908,0.46793167480477743,Lombrics_valid_4_grid2,4
15,0.34350037574768066,0.38299596309661865,0.5852215886116028,0.11136380583047867,0.5894383192062378,0.29191604256629944,0.670303225517273,0.3621745705604553,0.35073408484458923,-0.0280744731426239,0.3406064510345459,34.55290102389078,0.18666011945855399,0.4147736428783537,Lombrics_valid_4_grid3,0
16,0.2919200658798218,0.34532374143600464,0.567905843257904,0.09560108184814453,0.5655827522277832,0.2540455162525177,0.6501766443252563,0.3163841664791107,0.30123722553253174,0.055587004870176315,0.3003532886505127,30.713709677419356,0.1798914375682958,0.40097754497211824,Lombrics_valid_4_grid3,1
17,0.17457805573940277,0.3045078217983246,0.5023368000984192,0.0671689510345459,0.5379675030708313,0.24604329466819763,0.6119084358215332,0.22192424535751343,0.19086609780788422,0.06554786115884781,0.2238168716430664,37.5187969924812,0.23830851354481092,0.2968403604657213,Lombrics_valid_4_grid3,2
18,0.28843337297439575,0.3727530837059021,0.5860487222671509,0.10805363208055496,0.556620180606842,0.26638808846473694,0.6595494151115417,0.3252166509628296,0.30210089683532715,-0.05631924048066139,0.3190988302230835,30.72690763052209,0.1737371548865263,0.3937231691733898,Lombrics_valid_4_grid3,3
19,0.3017543852329254,0.3333333432674408,0.6216807961463928,0.11054810881614685,0.5539361834526062,0.25402146577835083,0.6455346941947937,0.31675875186920166,0.3075822591781616,-0.004463455639779568,0.2910693883895874,32.310077519379846,0.19156622879059917,0.3786510745683204,Lombrics_valid_4_grid3,4
20,0.43652743101119995,0.43157893419265747,0.6525560617446899,0.13019749522209167,0.7018413543701172,0.36683031916618347,0.6996589303016663,0.43403905630111694,0.43552863597869873,0.13904809951782227,0.3993178606033325,22.515358361774744,0.1120206459081445,0.5159929626335279,Lombrics_valid_4_grid4,0
21,0.44594594836235046,0.3730729818344116,0.5756006240844727,0.11104889959096909,0.6718044877052307,0.32679951190948486,0.6740937232971191,0.4062674939632416,0.42917948961257935,0.04625079780817032,0.3481874465942383,24.745967741935484,0.12337437191062041,0.4970118037748737,Lombrics_valid_4_grid4,1
22,0.4592476487159729,0.2695492208003998,0.5236055850982666,0.08294589072465897,0.5897749662399292,0.2841391861438751,0.6258805394172668,0.33971017599105835,0.40258312225341797,0.05838242173194885,0.2517610788345337,31.263157894736842,0.16236906446991373,0.4624883049523793,Lombrics_valid_4_grid4,2
23,0.4832664132118225,0.3415326476097107,0.5222591757774353,0.09295322000980377,0.6469948887825012,0.3409229815006256,0.660112738609314,0.40022173523902893,0.4462299048900604,0.09379315376281738,0.32022547721862793,27.329317269076306,0.14842192264878643,0.4938248490805638,Lombrics_valid_4_grid4,3
24,0.42825111746788025,0.3701550364494324,0.5532656311988831,0.102812759578228,0.6237279176712036,0.30749908089637756,0.6715381741523743,0.397089421749115,0.41521739959716797,0.11791233718395233,0.34307634830474854,25.468992248062015,0.13639868093451823,0.4953869646339384,Lombrics_valid_4_grid4,4
25,0.4363188147544861,0.4299595057964325,0.6688193082809448,0.16215118765830994,0.6996262073516846,0.3706740736961365,0.6988961100578308,0.4331158399581909,0.4350319504737854,0.1023699939250946,0.3977922201156616,22.061433447098977,0.11058571429998883,0.5007680849654013,Lombrics_valid_4_grid5,0
26,0.4203979969024658,0.34737923741340637,0.5270806550979614,0.08456811308860779,0.6226537227630615,0.30122941732406616,0.6608330011367798,0.3804164230823517,0.4034375548362732,0.021722014993429184,0.32166600227355957,28.012096774193548,0.15130801819700931,0.4691261341470881,Lombrics_valid_4_grid5,1
27,0.4122137427330017,0.3477461040019989,0.49473071098327637,0.08750534057617188,0.5991370677947998,0.2977815568447113,0.6599777340888977,0.37724554538726807,0.3974763751029968,-0.0038440097123384476,0.3199554681777954,29.834586466165412,0.16093786859628448,0.4633378843767083,Lombrics_valid_4_grid5,2
28,0.44405996799468994,0.3642384111881256,0.5680927634239197,0.09812415391206741,0.6556243300437927,0.3455975353717804,0.6688160300254822,0.40020790696144104,0.4254143536090851,0.10053443908691406,0.33763206005096436,26.413654618473895,0.1375762509663519,0.4957364742900914,Lombrics_valid_4_grid5,3
29,0.4023372232913971,0.4670542776584625,0.6981518268585205,0.1714971661567688,0.7148682475090027,0.3728773593902588,0.7145189642906189,0.4322870075702667,0.41380494832992554,0.115903839468956,0.4290379285812378,19.197674418604652,0.09555776827739974,0.51790114913177,Lombrics_valid_4_grid5,4
30,0.41396263241767883,0.34089067578315735,0.5523900985717773,0.09367818385362625,0.6028332114219666,0.28572696447372437,0.6564717888832092,0.37388989329338074,0.39694514870643616,-0.0027260310016572475,0.31294357776641846,25.580204778156997,0.1336146652828332,0.48175717853237293,Lombrics_valid_4_grid6,0
31,0.4044288992881775,0.35662898421287537,0.5441646575927734,0.08384446799755096,0.6067773699760437,0.2856753170490265,0.6642163991928101,0.3790278732776642,0.39387062191963196,0.039975687861442566,0.3284327983856201,25.548387096774192,0.14139202282801483,0.4662328521293509,Lombrics_valid_4_grid6,1
32,0.29844698309898376,0.4066237211227417,0.46002310514450073,0.060519713908433914,0.508361279964447,0.2395181953907013,0.6765266060829163,0.34423673152923584,0.3152189254760742,-0.014870830811560154,0.3530532121658325,29.781954887218046,0.16473450740645504,0.4183202527142386,Lombrics_valid_4_grid6,2
33,0.37224265933036804,0.383159875869751,0.5111461281776428,0.08932976424694061,0.5734860301017761,0.2911595404148102,0.6727291941642761,0.3776223361492157,0.3743760287761688,-0.011559510603547096,0.34545838832855225,26.228915662650603,0.14405608580840007,0.4688698111306081,Lombrics_valid_4_grid6,3
34,0.3561387062072754,0.3682170510292053,0.5239427089691162,0.07875137776136398,0.5704949498176575,0.26549509167671204,0.665870189666748,0.36207717657089233,0.35849055647850037,0.11114661395549774,0.3317403793334961,26.07751937984496,0.1400009487831376,0.4714675722873816,Lombrics_valid_4_grid6,4
35,0.3423728942871094,0.40890687704086304,0.6360777616500854,0.1292206346988678,0.6219190955162048,0.3050624430179596,0.6817112565040588,0.3726937174797058,0.3538892865180969,0.08712644129991531,0.3634225130081177,23.62457337883959,0.11888486312295624,0.460697791171537,Lombrics_valid_4_grid7,0
36,0.3070469796657562,0.376156210899353,0.6257035732269287,0.10766436904668808,0.5808457732200623,0.2615450620651245,0.6652894020080566,0.3381062150001526,0.3187597692012787,0.008815803565084934,0.3305788040161133,23.447580645161292,0.12981250056150265,0.434466558942734,Lombrics_valid_4_grid7,1
37,0.24505548179149628,0.4673413038253784,0.46664488315582275,0.0632910430431366,0.49896517395973206,0.23246128857135773,0.6933251619338989,0.32151898741722107,0.2708178162574768,0.014897319488227367,0.38665032386779785,32.17293233082707,0.18165324530673807,0.4155413049492578,Lombrics_valid_4_grid7,2
38,0.31740105152130127,0.40208137035369873,0.584492564201355,0.13489697873592377,0.5494022965431213,0.2692334055900574,0.6758143901824951,0.35475796461105347,0.3313581943511963,-0.09642735123634338,0.35162878036499023,25.783132530120483,0.14274249008573445,0.4218496468806971,Lombrics_valid_4_grid7,3
39,0.34125766158103943,0.4312015473842621,0.6387158632278442,0.12681230902671814,0.6059378385543823,0.3013242781162262,0.6927962899208069,0.380993127822876,0.3561139404773712,0.04854509234428406,0.38559257984161377,22.53875968992248,0.12618911245805942,0.4609428191905642,Lombrics_valid_4_grid7,4
