,precision,recall,rocauc,prauc,wrocauc,wprauc,balacc,microf1,microf2,mcc,tss,coverage,lr,lrap,conf,cvblock
0,0.4593128263950348,0.21166667342185974,0.6890039443969727,0.140936017036438,0.6905940771102905,0.32850199937820435,0.5988345742225647,0.2897889316082001,0.37221571803092957,0.084267258644104,0.1976691484451294,23.494880546075084,0.12059740064802434,0.45288947992567713,Lombrics_valid_4_grid0,0
1,0.458984375,0.2301665097475052,0.6100749969482422,0.11992624402046204,0.7023204565048218,0.3429587185382843,0.6074207425117493,0.30658841133117676,0.3828608989715576,0.14167700707912445,0.21484148502349854,25.556451612903224,0.13157168362822308,0.4747124201347983,Lombrics_valid_4_grid0,1
2,0.36519259214401245,0.23378995060920715,0.6316413879394531,0.09963399171829224,0.6444451212882996,0.30399090051651,0.6054182052612305,0.28507792949676514,0.32828930020332336,0.0961945429444313,0.21083641052246094,28.165413533834588,0.1621790671240001,0.39406800817702725,Lombrics_valid_4_grid0,2
3,0.5146443247795105,0.23699422180652618,0.6819799542427063,0.16481953859329224,0.6923684477806091,0.3783116936683655,0.6121006608009338,0.3245382606983185,0.41694915294647217,0.13540486991405487,0.22420132160186768,23.028112449799195,0.11419617457443194,0.49935592264899054,Lombrics_valid_4_grid0,3
4,0.3903999924659729,0.23968565464019775,0.5825986266136169,0.11540506780147552,0.6568450927734375,0.31698793172836304,0.6097356677055359,0.2970176637172699,0.3467879593372345,0.02111887000501156,0.21947133541107178,26.926356589147286,0.1475691968050712,0.4217159701508932,Lombrics_valid_4_grid0,4
5,0.3699136972427368,0.25,0.6852559447288513,0.13875967264175415,0.668332576751709,0.3195144236087799,0.613038957118988,0.2983590364456177,0.33753377199172974,0.03988911584019661,0.22607791423797607,24.208191126279864,0.1265625426915901,0.41573875370343644,Lombrics_valid_4_grid1,0
6,0.35483869910240173,0.25857001543045044,0.6758959889411926,0.11629904806613922,0.6851646900177002,0.327789306640625,0.6160069704055786,0.29915016889572144,0.3302476704120636,0.09429635852575302,0.23201394081115723,24.532258064516128,0.13842797819686067,0.41763729991516046,Lombrics_valid_4_grid1,1
7,0.3454759120941162,0.2684931457042694,0.6722549200057983,0.14251267910003662,0.6554501056671143,0.3110491931438446,0.619881272315979,0.30215826630592346,0.32673928141593933,0.07706715166568756,0.239762544631958,27.206766917293233,0.15488633003884086,0.40420176625278487,Lombrics_valid_4_grid1,2
8,0.36055275797843933,0.27649325132369995,0.6175442934036255,0.13180860877037048,0.6513379812240601,0.3363628387451172,0.6242129802703857,0.3129771053791046,0.33988630771636963,0.05595188960433006,0.24842596054077148,28.337349397590362,0.1543376830105483,0.4113911841403876,Lombrics_valid_4_grid1,3
9,0.36827194690704346,0.25540274381637573,0.6199102401733398,0.11055213212966919,0.6654210686683655,0.32449856400489807,0.6158698797225952,0.3016241192817688,0.33836543560028076,0.10039132088422775,0.23173975944519043,23.86046511627907,0.13486562207338315,0.42431228328150244,Lombrics_valid_4_grid1,4
10,0.26713287830352783,0.31833332777023315,0.6049842834472656,0.1038426086306572,0.5810220241546631,0.25303545594215393,0.6346359848976135,0.29049429297447205,0.27601155638694763,0.02593505010008812,0.26927196979522705,28.013651877133107,0.1581929216550994,0.3710089856549839,Lombrics_valid_4_grid2,0
11,0.31630823016166687,0.345739483833313,0.658344566822052,0.12708573043346405,0.6558418273925781,0.30745357275009155,0.6517632007598877,0.3303696811199188,0.32178667187690735,0.1816709190607071,0.3035264015197754,23.943548387096776,0.13423343589333683,0.43203855750824643,Lombrics_valid_4_grid2,1
12,0.29457974433898926,0.34246575832366943,0.6422427296638489,0.1029549092054367,0.5938549637794495,0.2802852988243103,0.6480730175971985,0.3167229890823364,0.3030547797679901,0.05029488354921341,0.296146035194397,27.6203007518797,0.1534419911934862,0.4012357337029065,Lombrics_valid_4_grid2,2
13,0.3186318576335907,0.3410404622554779,0.6466862559318542,0.12458182871341705,0.6047511696815491,0.297272264957428,0.6496489644050598,0.32945555448532104,0.32287484407424927,0.03630886599421501,0.29929792881011963,26.72289156626506,0.15101474423614797,0.40978851970206615,Lombrics_valid_4_grid2,3
14,0.27756059169769287,0.34872299432754517,0.621426522731781,0.10951006412506104,0.6076828241348267,0.2814740240573883,0.6498496532440186,0.3090988099575043,0.28937071561813354,0.0002540073764976114,0.2996993064880371,23.852713178294575,0.13805046481185204,0.39368356217222317,Lombrics_valid_4_grid2,4
15,0.2711409330368042,0.33666667342185974,0.6054674386978149,0.12298145890235901,0.595924437046051,0.27234533429145813,0.6429131627082825,0.3003717362880707,0.2821229100227356,0.044734932482242584,0.28582632541656494,37.14675767918089,0.22136767786345948,0.3504437173554198,Lombrics_valid_4_grid3,0
16,0.197265625,0.29676786065101624,0.5772282481193542,0.09496504068374634,0.5628924369812012,0.2488599568605423,0.6142760515213013,0.23699648678302765,0.21144451200962067,0.12561526894569397,0.22855210304260254,39.49596774193548,0.25903564443115734,0.3170457427013489,Lombrics_valid_4_grid3,1
17,0.2144102305173874,0.3369863033294678,0.6275296211242676,0.11444520205259323,0.570658802986145,0.2672923803329468,0.6336244344711304,0.2620738446712494,0.23123198747634888,0.012789614498615265,0.26724886894226074,38.943609022556394,0.2438636064525447,0.3471922080064247,Lombrics_valid_4_grid3,2
18,0.2796420454978943,0.3612716794013977,0.5972937345504761,0.09645725041627884,0.5698115825653076,0.27162525057792664,0.6540022492408752,0.3152585029602051,0.292877197265625,0.08253145962953568,0.3080044984817505,36.59036144578313,0.2160426892595689,0.37735764122300536,Lombrics_valid_4_grid3,3
19,0.2661570608615875,0.37622788548469543,0.5967574119567871,0.11462771147489548,0.6023762226104736,0.2785121202468872,0.6601003408432007,0.3117623031139374,0.2826985716819763,-0.020768845453858376,0.32020068168640137,35.34108527131783,0.20864102673333534,0.38175418369785435,Lombrics_valid_4_grid3,4
20,0.4754464328289032,0.17749999463558197,0.5171130299568176,0.08250091224908829,0.5943383574485779,0.26159170269966125,0.5832493305206299,0.25849515199661255,0.3559492230415344,0.08299209922552109,0.16649866104125977,32.4641638225256,0.17721772244242842,0.4172607126564352,Lombrics_valid_4_grid4,0
21,0.49462366104125977,0.1802154779434204,0.547348141670227,0.10330232232809067,0.6053662300109863,0.28851720690727234,0.5849071741104126,0.2641780376434326,0.36667996644973755,0.03165411576628685,0.1698143482208252,28.43951612903226,0.16304555392104764,0.4274313178958985,Lombrics_valid_4_grid4,1
22,0.5526315569877625,0.21095889806747437,0.6654239296913147,0.11219023168087006,0.6772647500038147,0.3364204168319702,0.6006566286087036,0.305353581905365,0.41741952300071716,0.09742435812950134,0.20131325721740723,24.424812030075188,0.1309419796208549,0.4736686373677565,Lombrics_valid_4_grid4,2
23,0.5337423086166382,0.16763006150722504,0.5821225643157959,0.09233346581459045,0.6154012680053711,0.3013630509376526,0.5796242356300354,0.25513195991516113,0.3714773952960968,0.10869523882865906,0.1592484712600708,28.377510040160644,0.1523256805095264,0.4625518337027831,Lombrics_valid_4_grid4,3
24,0.4433497488498688,0.17681728303432465,0.49557846784591675,0.07556860148906708,0.5799329876899719,0.2694615125656128,0.5824133157730103,0.25280898809432983,0.3406510055065155,-0.010716323740780354,0.1648266315460205,27.94573643410853,0.16350626474693228,0.41468530548133137,Lombrics_valid_4_grid4,4
25,0.4497816562652588,0.17166666686534882,0.5611693859100342,0.08563487976789474,0.5988482236862183,0.2628299593925476,0.5799347162246704,0.24849216639995575,0.3397097587585449,-0.020598482340574265,0.15986943244934082,28.283276450511945,0.15263992816426414,0.4112696618306826,Lombrics_valid_4_grid5,0
26,0.4812680184841156,0.16356512904167175,0.5526570081710815,0.09373755753040314,0.6109976172447205,0.2806051969528198,0.5768033266067505,0.2441520392894745,0.34661683440208435,0.12045931816101074,0.15360665321350098,29.016129032258064,0.1697516210617706,0.422144406251474,Lombrics_valid_4_grid5,1
27,0.4335378408432007,0.19360730051994324,0.6182641386985779,0.09019067883491516,0.6159854531288147,0.2932209372520447,0.5896596908569336,0.2676767408847809,0.3474270701408386,0.10429045557975769,0.1793193817138672,28.413533834586467,0.15733729125661272,0.4452448523307869,Lombrics_valid_4_grid5,2
28,0.5474860072135925,0.18882466852664948,0.610903263092041,0.09480565786361694,0.6168142557144165,0.3033078610897064,0.5899458527565002,0.28080230951309204,0.3967611491680145,0.06404456496238708,0.1798917055130005,28.044176706827308,0.15678485584750998,0.4476679939741926,Lombrics_valid_4_grid5,3
29,0.4988066852092743,0.20530451834201813,0.5390104055404663,0.09345496445894241,0.6132635474205017,0.29371798038482666,0.5970813632011414,0.29088377952575684,0.3878990411758423,-0.0005125521565787494,0.19416272640228271,26.81782945736434,0.1492399704976425,0.44922833677199997,Lombrics_valid_4_grid5,4
30,0.24919302761554718,0.3216666579246521,0.5492833256721497,0.09291838854551315,0.55857914686203,0.24040277302265167,0.6336108446121216,0.28082939982414246,0.26095184683799744,-0.011012964881956577,0.26722168922424316,29.61433447098976,0.16715436161946676,0.3617572777027353,Lombrics_valid_4_grid6,0
31,0.2553626000881195,0.24485798180103302,0.5461909174919128,0.09828255325555801,0.5654332041740417,0.2584216296672821,0.6022630333900452,0.25,0.25319018959999084,0.031106799840927124,0.20452606678009033,29.258064516129032,0.18105674222271212,0.33845095147527426,Lombrics_valid_4_grid6,1
32,0.2557319104671478,0.26484018564224243,0.6288281083106995,0.09978160262107849,0.5554149150848389,0.25457963347435,0.6106529235839844,0.2602063715457916,0.25750309228897095,-0.04018792137503624,0.22130584716796875,29.672932330827066,0.17864538540778047,0.35113426086702065,Lombrics_valid_4_grid6,2
33,0.260326623916626,0.26107898354530334,0.5718583464622498,0.09661386162042618,0.5615832209587097,0.2712583541870117,0.6093098521232605,0.2607022821903229,0.2604767382144928,-0.0008509932667948306,0.218619704246521,31.052208835341364,0.1887208943794793,0.35145372936988434,Lombrics_valid_4_grid6,3
34,0.25172755122184753,0.2504911720752716,0.5139710903167725,0.0829077735543251,0.5581495761871338,0.2656179964542389,0.6051373481750488,0.2511078417301178,0.25147929787635803,-0.002039161277934909,0.21027469635009766,30.472868217054263,0.19117577690277812,0.33666929882249885,Lombrics_valid_4_grid6,4
35,0.21520189940929413,0.3774999976158142,0.5913826823234558,0.08276475965976715,0.570825457572937,0.24280567467212677,0.6500813961029053,0.27413010597229004,0.2354469895362854,0.04135316610336304,0.30016279220581055,29.7098976109215,0.16641647774618504,0.36469280517755676,Lombrics_valid_4_grid7,0
36,0.2841614782810211,0.35847207903862,0.5786081552505493,0.11631275713443756,0.5909482836723328,0.27847734093666077,0.6537312269210815,0.31702035665512085,0.29645228385925293,0.01769736036658287,0.3074624538421631,29.56451612903226,0.17034058572134878,0.37726294853465536,Lombrics_valid_4_grid7,1
37,0.2440699189901352,0.35707762837409973,0.6512036919593811,0.1253211796283722,0.5774226188659668,0.2677556276321411,0.6473065614700317,0.28995180130004883,0.2605624496936798,0.03208327293395996,0.2946131229400635,28.56015037593985,0.1587168345843735,0.38537759181918513,Lombrics_valid_4_grid7,2
38,0.2348484843969345,0.3285163640975952,0.5659406781196594,0.07525357604026794,0.5776121616363525,0.2782573997974396,0.6336268186569214,0.2738955616950989,0.24905052781105042,0.04959200695157051,0.2672536373138428,35.907630522088354,0.2091492371296701,0.3474832873605359,Lombrics_valid_4_grid7,3
39,0.23685918748378754,0.3585461676120758,0.5373067259788513,0.09084626287221909,0.5750396847724915,0.2699223458766937,0.6480761170387268,0.2852676808834076,0.2541074752807617,0.02296297810971737,0.2961522340774536,32.55813953488372,0.19331274984966065,0.3473334979574393,Lombrics_valid_4_grid7,4
