,precision,recall,rocauc,prauc,wrocauc,wprauc,balacc,microf1,microf2,mcc,tss,coverage,lr,lrap,conf,cvblock
0,0.36514315009117126,0.5886639952659607,0.7306604385375977,0.17246000468730927,0.7217430472373962,0.3729712665081024,0.7646968364715576,0.45071297883987427,0.39515167474746704,0.023188523948192596,0.5293936729431152,18.85665529010239,0.09101266631866017,0.527336193358902,Lombrics_valid_4_grid0,0
1,0.33718806505203247,0.5693730711936951,0.7194927334785461,0.1852717250585556,0.723686933517456,0.36950427293777466,0.7546418309211731,0.4235473871231079,0.3671305477619171,0.02061937190592289,0.5092836618423462,19.383064516129032,0.09620761639119282,0.514093202501296,Lombrics_valid_4_grid0,1
2,0.37271541357040405,0.5252990126609802,0.6953887939453125,0.1676541268825531,0.7157445549964905,0.3694838881492615,0.7378751039505005,0.436044305562973,0.39570340514183044,-0.018080933019518852,0.475750207901001,20.0,0.09914934073448473,0.5150859159230905,Lombrics_valid_4_grid0,2
3,0.37597402930259705,0.5477766990661621,0.7064109444618225,0.18699972331523895,0.7258651256561279,0.3886106312274933,0.74736487865448,0.445899099111557,0.40113621950149536,0.007606403902173042,0.49472975730895996,19.59437751004016,0.09694409305574264,0.5236859827969589,Lombrics_valid_4_grid0,3
4,0.3465527892112732,0.5503876209259033,0.7088396549224854,0.17100751399993896,0.703228235244751,0.3631311058998108,0.7467612028121948,0.42530888319015503,0.37427517771720886,-0.012700900435447693,0.49352240562438965,19.906976744186046,0.10175928320291613,0.51527998389397,Lombrics_valid_4_grid0,4
5,0.35599806904792786,0.5935222506523132,0.7280994057655334,0.16648900508880615,0.7202788591384888,0.37354686856269836,0.7656723260879517,0.4450516104698181,0.38697075843811035,0.012820358388125896,0.5313446521759033,19.07508532423208,0.09221154877505419,0.522646286063845,Lombrics_valid_4_grid1,0
6,0.3303624391555786,0.5714285969734192,0.7130725383758545,0.15619723498821259,0.710895299911499,0.3535916805267334,0.7546212077140808,0.4186747074127197,0.36080464720726013,-0.003145549912005663,0.5092424154281616,19.649193548387096,0.10068766581876595,0.5130334401415435,Lombrics_valid_4_grid1,1
7,0.35635697841644287,0.5363385677337646,0.6735374331474304,0.14802195131778717,0.7143722176551819,0.3665478825569153,0.7410231232643127,0.42820417881011963,0.38199448585510254,-0.04049099609255791,0.4820462465286255,20.3796992481203,0.10120596903348628,0.5152954092371869,Lombrics_valid_4_grid1,2
8,0.35614779591560364,0.556291401386261,0.702505350112915,0.17631784081459045,0.712668240070343,0.37309524416923523,0.7488069534301758,0.4342688024044037,0.3837619125843048,-0.005847752559930086,0.49761390686035156,20.136546184738958,0.09936565157299035,0.519138193236721,Lombrics_valid_4_grid1,3
9,0.33974358439445496,0.5649224519729614,0.6953510642051697,0.17569926381111145,0.6918341517448425,0.3566622734069824,0.7523826360702515,0.42430853843688965,0.3691742420196533,0.01680809259414673,0.5047652721405029,19.655038759689923,0.10154913155052354,0.5112582230495668,Lombrics_valid_4_grid1,4
10,0.3472222089767456,0.5060728788375854,0.6973918080329895,0.14614754915237427,0.6536358594894409,0.31842944025993347,0.7254879474639893,0.4118615984916687,0.37048009037971497,0.0020791967399418354,0.4509758949279785,20.81569965870307,0.10492482863077826,0.4946738463475198,Lombrics_valid_4_grid2,0
11,0.3364361822605133,0.5200411081314087,0.6930179595947266,0.1514357626438141,0.6820193529129028,0.3290433883666992,0.7324864864349365,0.40855875611305237,0.3619973957538605,-0.024253802374005318,0.46497297286987305,20.52016129032258,0.10602267964908044,0.49655536610431483,Lombrics_valid_4_grid2,1
12,0.3644501268863678,0.5243790149688721,0.696971595287323,0.17573314905166626,0.7011217474937439,0.35300207138061523,0.7365643382072449,0.43002641201019287,0.3881247341632843,-0.0026323578786104918,0.47312867641448975,19.203007518796994,0.09629316519302106,0.5104542851436267,Lombrics_valid_4_grid2,2
13,0.3642195165157318,0.4834437072277069,0.674112856388092,0.16146235167980194,0.6552353501319885,0.3310946226119995,0.7171027064323425,0.4154471457004547,0.38311588764190674,-0.001331650884822011,0.43420541286468506,21.771084337349397,0.11055686709918998,0.49896144200865444,Lombrics_valid_4_grid2,3
14,0.3316326439380646,0.5038759708404541,0.6952028870582581,0.14864489436149597,0.670515239238739,0.32641997933387756,0.7241159677505493,0.40000003576278687,0.3559693396091461,0.0,0.44823193550109863,20.635658914728683,0.10800569448057333,0.4994394490101284,Lombrics_valid_4_grid2,4
15,0.30054643750190735,0.44534412026405334,0.6393799781799316,0.13072948157787323,0.55570387840271,0.25781622529029846,0.6926617622375488,0.35889071226119995,0.3214494287967682,-0.01960868202149868,0.38532352447509766,24.866894197952217,0.13389768276684968,0.4010757705236526,Lombrics_valid_4_grid3,0
16,0.25765764713287354,0.4409044086933136,0.6282640695571899,0.13416525721549988,0.5624811053276062,0.261284202337265,0.6863518953323364,0.3252463936805725,0.28101661801338196,-0.04256448894739151,0.37270379066467285,25.044354838709676,0.1372506722354632,0.41728330060745966,Lombrics_valid_4_grid3,1
17,0.3041144907474518,0.46918123960494995,0.638084352016449,0.1393124759197235,0.5925406217575073,0.280952513217926,0.7045055627822876,0.3690303862094879,0.3271327614784241,0.01778455637395382,0.4090111255645752,23.31578947368421,0.12611826321410186,0.44219294158187594,Lombrics_valid_4_grid3,2
18,0.3294406831264496,0.5070955753326416,0.6713425517082214,0.16889357566833496,0.6154475212097168,0.31036198139190674,0.7234362959861755,0.3994038701057434,0.3542630672454834,0.032880302518606186,0.4468725919723511,22.586345381526105,0.11775530548456938,0.4535737252440411,Lombrics_valid_4_grid3,3
19,0.29192546010017395,0.4554263651371002,0.6559232473373413,0.13816538453102112,0.5957865715026855,0.2768107056617737,0.6974487900733948,0.3557910621166229,0.31450745463371277,0.058666858822107315,0.39489758014678955,23.406976744186046,0.1275664906966771,0.45956801064149577,Lombrics_valid_4_grid3,4
20,0.3546541929244995,0.552226722240448,0.6851851940155029,0.14320865273475647,0.7071402072906494,0.36064907908439636,0.7470173835754395,0.4319189488887787,0.3819872736930847,0.0,0.4940347671508789,20.576791808873722,0.10130227450450947,0.5151272240199389,Lombrics_valid_4_grid4,0
21,0.3388429880142212,0.5477903485298157,0.6834855079650879,0.1611824482679367,0.7106193900108337,0.3573547303676605,0.745202362537384,0.41869598627090454,0.36682724952697754,-0.024597054347395897,0.49040472507476807,20.149193548387096,0.10392376583922935,0.5103920443635066,Lombrics_valid_4_grid4,1
22,0.34885090589523315,0.5446181893348694,0.6619316339492798,0.1477310061454773,0.686059832572937,0.3402530550956726,0.7438223361968994,0.4252873361110687,0.37587299942970276,-0.02178264781832695,0.48764467239379883,21.289473684210527,0.1083679227711666,0.5015313105398268,Lombrics_valid_4_grid4,2
23,0.3631746172904968,0.5411542057991028,0.6315585970878601,0.13169622421264648,0.6827976703643799,0.3499467372894287,0.7428944110870361,0.4346504509449005,0.38874539732933044,0.0497170090675354,0.48578882217407227,24.072289156626507,0.12892073059188344,0.5070281552184581,Lombrics_valid_4_grid4,3
24,0.3339449465274811,0.5290697813034058,0.6485212445259094,0.15078996121883392,0.6687480211257935,0.3397538363933563,0.7356244325637817,0.4094488322734833,0.3605388104915619,-0.016126682981848717,0.4712488651275635,21.926356589147286,0.11891297829130879,0.4980279826378559,Lombrics_valid_4_grid4,4
25,0.3543572425842285,0.5959514379501343,0.7200354337692261,0.1856168657541275,0.7149353623390198,0.3650552034378052,0.766535222530365,0.4444444477558136,0.3856229782104492,0.05079953745007515,0.53307044506073,18.64505119453925,0.09121333865750264,0.5214840128425882,Lombrics_valid_4_grid5,0
26,0.3333333432674408,0.5549845695495605,0.6894165873527527,0.14791150391101837,0.6956721544265747,0.34312182664871216,0.7476959228515625,0.41650596261024475,0.3622702658176422,-0.020260047167539597,0.495391845703125,19.943548387096776,0.10251671696144514,0.5065878423337722,Lombrics_valid_4_grid5,1
27,0.3550295829772949,0.5519779324531555,0.6827016472816467,0.13170231878757477,0.6939111351966858,0.3359079658985138,0.7478889226913452,0.4321209788322449,0.38231170177459717,-0.026390517130494118,0.49577784538269043,20.357142857142858,0.10435961972817862,0.5020690519216624,Lombrics_valid_4_grid5,2
28,0.35304877161979675,0.5477766990661621,0.6932574510574341,0.15499092638492584,0.6962065100669861,0.35325464606285095,0.7446048259735107,0.42936593294143677,0.38007089495658875,0.0,0.4892096519470215,21.120481927710845,0.10785564646068405,0.5144145084376204,Lombrics_valid_4_grid5,3
29,0.3264486491680145,0.5513566136360168,0.6798476576805115,0.14357005059719086,0.6845129132270813,0.3417902886867523,0.7445112466812134,0.4100901186466217,0.35544726252555847,0.04874664545059204,0.48902249336242676,20.569767441860463,0.10908936536752935,0.5051822009248393,Lombrics_valid_4_grid5,4
30,0.34526991844177246,0.5230769515037537,0.6934164762496948,0.13915568590164185,0.6746033430099487,0.337173730134964,0.7328176498413086,0.4159691035747528,0.3704553246498108,-0.004388176370412111,0.4656352996826172,21.017064846416382,0.10647271624021777,0.49630508395809064,Lombrics_valid_4_grid6,0
31,0.3295530378818512,0.5077081322669983,0.6765384674072266,0.13967576622962952,0.6820857524871826,0.3211883008480072,0.7261269092559814,0.3996763825416565,0.354426771402359,-0.013316653668880463,0.4522538185119629,20.766129032258064,0.10934847148143584,0.48923062692928754,Lombrics_valid_4_grid6,1
32,0.34491634368896484,0.49310028553009033,0.6537071466445923,0.14380867779254913,0.659448504447937,0.3329223394393921,0.7203062772750854,0.4059068560600281,0.3669724762439728,0.05502568557858467,0.4406125545501709,21.330827067669173,0.11303408620346106,0.48723199724005467,Lombrics_valid_4_grid6,2
33,0.34359297156333923,0.5175023674964905,0.6481388807296753,0.12956920266151428,0.6577186584472656,0.32980161905288696,0.7299093008041382,0.41298604011535645,0.36835020780563354,0.05270104110240936,0.45981860160827637,23.19277108433735,0.1280030916791116,0.49286786230577395,Lombrics_valid_4_grid6,3
34,0.3119950294494629,0.48643410205841064,0.6459213495254517,0.14155080914497375,0.6206570267677307,0.3024025559425354,0.7138286828994751,0.38015902042388916,0.33610066771507263,0.005759318824857473,0.4276573657989502,22.007751937984494,0.11995840813180995,0.48439281312064075,Lombrics_valid_4_grid6,4
35,0.2970544099807739,0.48178136348724365,0.6451289653778076,0.1365630030632019,0.6050777435302734,0.2935800850391388,0.7078793048858643,0.3675107955932617,0.321725994348526,0.11542311310768127,0.4157586097717285,21.49146757679181,0.11501033125808674,0.4492344231742688,Lombrics_valid_4_grid7,0
36,0.30145278573036194,0.5118191242218018,0.6425557732582092,0.13459007441997528,0.6127660274505615,0.2805746793746948,0.7240715622901917,0.37942859530448914,0.3284527063369751,-0.05218371003866196,0.4481431245803833,21.108870967741936,0.11405707805762304,0.47478364721564587,Lombrics_valid_4_grid7,1
37,0.27129679918289185,0.4599815905094147,0.6048732399940491,0.12546515464782715,0.5466300845146179,0.2547760307788849,0.6953684687614441,0.341296911239624,0.29554319381713867,0.06743058562278748,0.3907369375228882,22.537593984962406,0.12773672832284888,0.4162489404118346,Lombrics_valid_4_grid7,2
38,0.3000563979148865,0.503311276435852,0.6668752431869507,0.17727330327033997,0.6336978673934937,0.32185977697372437,0.7174041271209717,0.3759717345237732,0.326420396566391,-0.032032061368227005,0.43480825424194336,20.76706827309237,0.11222500904558663,0.46389129027038994,Lombrics_valid_4_grid7,3
39,0.29891955852508545,0.48255813121795654,0.6567243933677673,0.15126784145832062,0.6109820604324341,0.2925048768520355,0.7102712988853455,0.36916232109069824,0.3235446512699127,0.07973300665616989,0.4205425977706909,21.724806201550386,0.11757747709182195,0.4603744983683943,Lombrics_valid_4_grid7,4
