,precision,recall,rocauc,prauc,wrocauc,wprauc,balacc,microf1,microf2,mcc,tss,coverage,lr,lrap,conf,cvblock
0,0.1697203516960144,0.7125505805015564,0.7662697434425354,0.20399533212184906,0.7482953667640686,0.38420432806015015,0.7553421258926392,0.2741433084011078,0.2002275437116623,0.03396730124950409,0.5106842517852783,24.784982935153582,0.15174181768113057,0.34551619798127586,Lombrics_valid_4_grid0,0
1,0.14276272058486938,0.6813880205154419,0.7643595337867737,0.161172553896904,0.7453730702400208,0.37185201048851013,0.7334743738174438,0.2360655665397644,0.16957135498523712,0.04497414827346802,0.4669487476348877,25.592741935483872,0.17275163673989888,0.2976400596956736,Lombrics_valid_4_grid0,1
2,0.1463799625635147,0.7046533823013306,0.7173988819122314,0.1718883216381073,0.7426697015762329,0.3884629011154175,0.7409725189208984,0.24240444600582123,0.17394159734249115,0.02974538318812847,0.4819450378417969,27.74812030075188,0.1818235631458865,0.3005748300214834,Lombrics_valid_4_grid0,2
3,0.1525869071483612,0.729468584060669,0.7691771388053894,0.21271951496601105,0.7530484795570374,0.38656774163246155,0.7491482496261597,0.25238174200057983,0.18125510215759277,0.03913583606481552,0.49829649925231934,26.02008032128514,0.1666587227129832,0.3231012227753349,Lombrics_valid_4_grid0,3
4,0.17096920311450958,0.7016728520393372,0.748550534248352,0.2202809602022171,0.7355432510375977,0.3881974220275879,0.7534176111221313,0.27494537830352783,0.20144078135490417,0.03188678249716759,0.5068352222442627,24.56201550387597,0.15578158911503967,0.3382710689386975,Lombrics_valid_4_grid0,4
5,0.1585654467344284,0.7052631378173828,0.7689923644065857,0.20299996435642242,0.7419880628585815,0.3733867108821869,0.744266152381897,0.2589179277420044,0.18765889108181,0.03319104388356209,0.48853230476379395,25.66552901023891,0.16165279848647682,0.3233080942067803,Lombrics_valid_4_grid1,0
6,0.14364640414714813,0.6561514139175415,0.7616183161735535,0.16801506280899048,0.736070990562439,0.37122687697410583,0.7255681157112122,0.2356940507888794,0.1702406108379364,0.047240156680345535,0.4511362314224243,26.262096774193548,0.17595691715543427,0.2941998468566074,Lombrics_valid_4_grid1,1
7,0.1422455757856369,0.6942070126533508,0.7163370251655579,0.17151857912540436,0.7351910471916199,0.376008003950119,0.733664870262146,0.236111119389534,0.16914249956607819,0.011985944584012032,0.467329740524292,28.142857142857142,0.18669608536236104,0.275860078614819,Lombrics_valid_4_grid1,2
8,0.15086379647254944,0.7256038784980774,0.7663142681121826,0.20981784164905548,0.7531113624572754,0.38551241159439087,0.7462786436080933,0.24979211390018463,0.1792619526386261,0.022637179121375084,0.4925572872161865,25.538152610441767,0.16603351104747593,0.31953526049754905,Lombrics_valid_4_grid1,3
9,0.16994349658489227,0.6988847851753235,0.7445736527442932,0.22661422193050385,0.7313288450241089,0.3853897154331207,0.751704216003418,0.2734048366546631,0.2002556473016739,0.018485302105545998,0.5034084320068359,25.368217054263567,0.1628717037364754,0.32049574460369273,Lombrics_valid_4_grid1,4
10,0.18638676404953003,0.7117409110069275,0.7664274573326111,0.20093779265880585,0.748170018196106,0.37760770320892334,0.7659098505973816,0.295412540435791,0.21866759657859802,0.01625247113406658,0.5318197011947632,22.51877133105802,0.1375826702331982,0.3355675177134909,Lombrics_valid_4_grid2,0
11,0.1589089035987854,0.6677181720733643,0.7741774320602417,0.17380784451961517,0.7485676407814026,0.3838483989238739,0.7412440776824951,0.25672122836112976,0.18748155236244202,0.030373016372323036,0.48248815536499023,23.302419354838708,0.15722421998612476,0.30307107221946467,Lombrics_valid_4_grid2,1
12,0.16828703880310059,0.6904083490371704,0.7186800241470337,0.1810213327407837,0.7450818419456482,0.3859997093677521,0.7527393102645874,0.27061232924461365,0.1982763260602951,0.03857453539967537,0.5054786205291748,23.515037593984964,0.15533785635129824,0.3148306923390254,Lombrics_valid_4_grid2,2
13,0.17407847940921783,0.7072463631629944,0.7651044130325317,0.20683231949806213,0.7537184357643127,0.3880777359008789,0.7578849792480469,0.27938932180404663,0.2049846053123474,0.0325944721698761,0.5157699584960938,23.132530120481928,0.1486083333664526,0.3294548599734389,Lombrics_valid_4_grid2,3
14,0.17938292026519775,0.6970260143280029,0.7471705079078674,0.21192847192287445,0.7344444394111633,0.38135144114494324,0.7572144269943237,0.2853338122367859,0.21067415177822113,0.019354969263076782,0.5144288539886475,23.108527131782946,0.14913591146928892,0.3222399785656698,Lombrics_valid_4_grid2,4
15,0.19063325226306915,0.7020242810249329,0.7608556151390076,0.19056418538093567,0.7466438412666321,0.37422463297843933,0.7647089958190918,0.2998443841934204,0.2231430560350418,0.028682004660367966,0.5294179916381836,22.235494880546074,0.1373893204700104,0.3347284412624889,Lombrics_valid_4_grid3,0
16,0.15672573447227478,0.6603575348854065,0.7692525386810303,0.17272229492664337,0.7467983961105347,0.3813113570213318,0.737067699432373,0.25332796573638916,0.1849343329668045,0.02954782173037529,0.4741353988647461,23.22983870967742,0.15617634442662706,0.29991595210051275,Lombrics_valid_4_grid3,1
17,0.1709238439798355,0.6799620389938354,0.7132404446601868,0.17649435997009277,0.7411255836486816,0.3818475902080536,0.7506042718887329,0.27317818999290466,0.2010219395160675,0.03497282415628433,0.5012085437774658,23.349624060150376,0.15356285991589866,0.3082572779692192,Lombrics_valid_4_grid3,2
18,0.17704425752162933,0.6840579509735107,0.7660777568817139,0.20984263718128204,0.7503566741943359,0.3885378837585449,0.7513078451156616,0.28128722310066223,0.20785626769065857,0.028492240235209465,0.5026156902313232,22.6425702811245,0.14533411943897612,0.3201790538331987,Lombrics_valid_4_grid3,3
19,0.1830032616853714,0.678438663482666,0.7433024048805237,0.1934422254562378,0.732530951499939,0.3796943426132202,0.752497673034668,0.28825274109840393,0.21430249512195587,0.019158869981765747,0.5049953460693359,22.635658914728683,0.14357332818381732,0.33027100527525427,Lombrics_valid_4_grid3,4
20,0.1395840048789978,0.695546567440033,0.7392216920852661,0.18339601159095764,0.7116535902023315,0.3540472090244293,0.7236290574073792,0.23250776529312134,0.16614443063735962,0.0227299053221941,0.4472581148147583,27.197952218430036,0.1801400852846482,0.2888918538038664,Lombrics_valid_4_grid4,0
21,0.1310301274061203,0.6540483832359314,0.74248868227005,0.15267997980117798,0.7147600650787354,0.3504321277141571,0.7133564949035645,0.21832221746444702,0.15597572922706604,0.034279417246580124,0.4267129898071289,25.81048387096774,0.1789932236197407,0.2707012960414973,Lombrics_valid_4_grid4,1
22,0.12837369740009308,0.7046533823013306,0.6874761581420898,0.14135220646858215,0.7111515998840332,0.34151625633239746,0.7226751446723938,0.21718132495880127,0.1534770131111145,0.04926014691591263,0.4453502893447876,30.157894736842106,0.2073581193892817,0.27270389963779557,Lombrics_valid_4_grid4,2
23,0.1487828642129898,0.7381642460823059,0.747190535068512,0.1921122670173645,0.732984721660614,0.36900854110717773,0.748589277267456,0.2476499229669571,0.17705677449703217,0.017264951020479202,0.4971785545349121,25.819277108433734,0.1725303140415903,0.2806103212995218,Lombrics_valid_4_grid4,3
24,0.14740636944770813,0.6840148568153381,0.7198206186294556,0.19639773666858673,0.7211020588874817,0.3739185631275177,0.7287291288375854,0.24254406988620758,0.17483846843242645,0.04104740172624588,0.4574582576751709,26.189922480620154,0.17778855767871832,0.29981766667018467,Lombrics_valid_4_grid4,4
25,0.14314280450344086,0.695546567440033,0.7364314198493958,0.18149247765541077,0.703910231590271,0.34077322483062744,0.7272162437438965,0.23742398619651794,0.17017315328121185,0.02230641432106495,0.45443248748779297,28.242320819112628,0.1854695793154745,0.27202957387750876,Lombrics_valid_4_grid5,0
26,0.12828947603702545,0.6561514139175415,0.7327788472175598,0.16095483303070068,0.7131474018096924,0.3515114486217499,0.7112390995025635,0.21461738646030426,0.1528887152671814,0.029582997784018517,0.42247819900512695,27.455645161290324,0.1879667341637587,0.273570293847967,Lombrics_valid_4_grid5,1
27,0.11341273784637451,0.6239316463470459,0.6473447680473328,0.12936660647392273,0.6693419814109802,0.3184139132499695,0.6797922849655151,0.1919369101524353,0.13560371100902557,0.028292518109083176,0.3595845699310303,36.838345864661655,0.2616827199467109,0.2396114903058039,Lombrics_valid_4_grid5,2
28,0.1455351710319519,0.6975845694541931,0.7369174957275391,0.2057049423456192,0.7152437567710876,0.35723018646240234,0.7319381237030029,0.24082720279693604,0.17290098965168,0.01683374121785164,0.46387624740600586,26.734939759036145,0.17921824879413786,0.2882663171367579,Lombrics_valid_4_grid5,3
29,0.14979439973831177,0.7109665274620056,0.7191430926322937,0.21230708062648773,0.7164508104324341,0.37417882680892944,0.7399430871009827,0.24745270609855652,0.1778739094734192,0.019291244447231293,0.47988617420196533,26.697674418604652,0.1773951679345925,0.2944766537804058,Lombrics_valid_4_grid5,4
30,0.14276304841041565,0.7020242810249329,0.7235282063484192,0.14937171339988708,0.7073503732681274,0.3445413410663605,0.728954553604126,0.2372741997241974,0.169820174574852,-0.00034792214864864945,0.45790910720825195,26.986348122866893,0.1812660013754756,0.271832952851785,Lombrics_valid_4_grid6,0
31,0.12392564117908478,0.6519452929496765,0.7340866327285767,0.13718031346797943,0.7249023914337158,0.3531053364276886,0.7051955461502075,0.2082633525133133,0.14787958562374115,0.0332336463034153,0.41039109230041504,27.72983870967742,0.19889298903509242,0.2627129946133597,Lombrics_valid_4_grid6,1
32,0.12710674107074738,0.6875593662261963,0.6903799772262573,0.14610353112220764,0.7094546556472778,0.348425954580307,0.7158266305923462,0.21455031633377075,0.15186475217342377,0.0020855178590863943,0.4316532611846924,28.49624060150376,0.203587953806532,0.24702885688466034,Lombrics_valid_4_grid6,2
33,0.15595951676368713,0.729468584060669,0.7615223526954651,0.19291837513446808,0.7418688535690308,0.37491375207901,0.7520978450775146,0.25697752833366394,0.1850580871105194,0.025391824543476105,0.5041956901550293,24.44578313253012,0.1648283370441457,0.29258387573132816,Lombrics_valid_4_grid6,3
34,0.14415781199932098,0.7063196897506714,0.7240035533905029,0.16565729677677155,0.7143483757972717,0.37165695428848267,0.7330960035324097,0.2394454926252365,0.1714491993188858,0.0211351178586483,0.46619200706481934,27.232558139534884,0.18743357324023827,0.276903137235292,Lombrics_valid_4_grid6,4
35,0.13666121661663055,0.6761133670806885,0.7189401388168335,0.14695532619953156,0.7038295865058899,0.34293824434280396,0.7143813371658325,0.22736555337905884,0.1626095324754715,0.031982891261577606,0.42876267433166504,28.061433447098977,0.19245207782300677,0.25596156950286364,Lombrics_valid_4_grid7,0
36,0.11578548699617386,0.6424816250801086,0.739778995513916,0.1271989792585373,0.7115052938461304,0.3431865870952606,0.6926654577255249,0.19621066749095917,0.13849222660064697,0.02612379938364029,0.3853309154510498,29.947580645161292,0.2248742322891194,0.23138156354088807,Lombrics_valid_4_grid7,1
37,0.10363579541444778,0.6334282755851746,0.635111391544342,0.11843138933181763,0.6783624291419983,0.32435041666030884,0.6682505011558533,0.17812791466712952,0.12445423007011414,0.02706802263855934,0.33650100231170654,33.14661654135338,0.25061079039743756,0.22409555438583287,Lombrics_valid_4_grid7,2
38,0.13748276233673096,0.6743961572647095,0.7207291126251221,0.17025244235992432,0.7079187631607056,0.34916141629219055,0.7164846658706665,0.22840313613414764,0.16351966559886932,0.010736603289842606,0.432969331741333,26.919678714859437,0.1900934885646443,0.2544768283422006,Lombrics_valid_4_grid7,3
39,0.1259489357471466,0.678438663482666,0.6803382039070129,0.1559659093618393,0.6891911625862122,0.34315168857574463,0.7044135928153992,0.2124563604593277,0.15045343339443207,0.019304560497403145,0.40882718563079834,30.05426356589147,0.2204714298739199,0.23049738500391886,Lombrics_valid_4_grid7,4
