,precision,recall,rocauc,prauc,wrocauc,wprauc,balacc,microf1,microf2,mcc,tss,coverage,lr,lrap,conf,cvblock
0,0.1655372679233551,0.692307710647583,0.7291103005409241,0.20726795494556427,0.7263392210006714,0.3865966796875,0.7451034784317017,0.2671875059604645,0.19525006413459778,0.05085507780313492,0.4902069568634033,26.668941979522184,0.1610535905985399,0.32743818180212325,Lombrics_valid_4_grid0,0
1,0.12874606251716614,0.6711202263832092,0.7209342122077942,0.16569235920906067,0.7184840440750122,0.35845616459846497,0.7136431932449341,0.2160463184118271,0.15356756746768951,0.027747420594096184,0.42728638648986816,30.850806451612904,0.21070953019932295,0.28169631438603543,Lombrics_valid_4_grid0,1
2,0.16546259820461273,0.6531738638877869,0.7289060354232788,0.2080998420715332,0.7298420071601868,0.392726868391037,0.7342693209648132,0.26403868198394775,0.19450989365577698,0.04665181040763855,0.46853864192962646,26.285714285714285,0.16395077757338067,0.3329172320493889,Lombrics_valid_4_grid0,2
3,0.1837310791015625,0.6773888468742371,0.7344275116920471,0.23610574007034302,0.7442188858985901,0.4145467281341553,0.750899076461792,0.2890593409538269,0.21507960557937622,0.03592607378959656,0.501798152923584,25.1285140562249,0.1566073158539108,0.3325833065651998,Lombrics_valid_4_grid0,3
4,0.14812377095222473,0.6540697813034058,0.7302016019821167,0.178091898560524,0.7101275324821472,0.36586812138557434,0.7239766120910645,0.2415459156036377,0.1752336621284485,0.03215283155441284,0.4479532241821289,28.124031007751938,0.183560902204744,0.32741309983826133,Lombrics_valid_4_grid0,4
5,0.1615951657295227,0.692307710647583,0.72071373462677,0.17774376273155212,0.7138415575027466,0.35960444808006287,0.7421493530273438,0.2620288133621216,0.19085673987865448,0.013823242858052254,0.4842987060546875,27.72354948805461,0.17352117341738937,0.29926028543913746,Lombrics_valid_4_grid1,0
6,0.11243432760238647,0.6598150134086609,0.6968271136283875,0.15605078637599945,0.6934573650360107,0.3381032347679138,0.6900851726531982,0.19212928414344788,0.13480031490325928,0.025152400135993958,0.3801703453063965,34.63306451612903,0.2436715552728304,0.23805398476698325,Lombrics_valid_4_grid1,1
7,0.15961582958698273,0.6421343088150024,0.7325007319450378,0.18522953987121582,0.7269018292427063,0.38553813099861145,0.7263262271881104,0.2556776702404022,0.18784649670124054,0.06113513186573982,0.4526524543762207,26.7406015037594,0.16864678748027268,0.32271549034979713,Lombrics_valid_4_grid1,2
8,0.16058564186096191,0.6537370085716248,0.7160451412200928,0.20573759078979492,0.7332549691200256,0.3958462178707123,0.727177619934082,0.2578358054161072,0.1891181915998459,0.029819417744874954,0.45435523986816406,27.59437751004016,0.1787000355783683,0.29989248252859746,Lombrics_valid_4_grid1,3
9,0.13879293203353882,0.661821722984314,0.7139272689819336,0.19763408601284027,0.6986982226371765,0.36814141273498535,0.7184015512466431,0.22946412861347198,0.1648484170436859,0.03984440118074417,0.43680310249328613,29.837209302325583,0.1967361924528416,0.2854908940712702,Lombrics_valid_4_grid1,4
10,0.18579235672950745,0.6882591247558594,0.7318434119224548,0.19385600090026855,0.7313136458396912,0.37646037340164185,0.756794810295105,0.29259899258613586,0.21755823493003845,0.03038041479885578,0.51358962059021,23.003412969283275,0.13798338879061336,0.32926771810042316,Lombrics_valid_4_grid2,0
11,0.1818716824054718,0.6351490020751953,0.7270846962928772,0.18141961097717285,0.7288693785667419,0.3749840557575226,0.7408763766288757,0.28277283906936646,0.2121524065732956,0.04697953164577484,0.48175275325775146,23.120967741935484,0.14412192745961266,0.33551164748122586,Lombrics_valid_4_grid2,1
12,0.1751002073287964,0.6430543065071106,0.7196298241615295,0.19021236896514893,0.731712281703949,0.3923727571964264,0.7366341352462769,0.27525103092193604,0.20492525398731232,0.04904123768210411,0.4732682704925537,23.928571428571427,0.14982642844246546,0.3236263373587236,Lombrics_valid_4_grid2,2
13,0.195986807346344,0.6745505928993225,0.7264149188995361,0.21857501566410065,0.7507768273353577,0.4169887900352478,0.7565455436706543,0.3037273585796356,0.22839386761188507,0.023016035556793213,0.5130910873413086,23.248995983935743,0.1464321561972453,0.32915471505045574,Lombrics_valid_4_grid2,3
14,0.1732262372970581,0.626937985420227,0.7311246395111084,0.2034020721912384,0.7195583581924438,0.38690629601478577,0.7314895987510681,0.2714495360851288,0.20254193246364594,0.0334680937230587,0.46297919750213623,23.155038759689923,0.1492077988443057,0.3237249219014029,Lombrics_valid_4_grid2,4
15,0.19331631064414978,0.6744939088821411,0.711770236492157,0.1930330991744995,0.7278764843940735,0.38029277324676514,0.7557501792907715,0.30050504207611084,0.2254885882139206,0.02766413986682892,0.511500358581543,22.918088737201366,0.13593055784069982,0.3237761520156542,Lombrics_valid_4_grid3,0
16,0.18803419172763824,0.6557040214538574,0.7230017185211182,0.16745927929878235,0.7319791913032532,0.3707250654697418,0.7518436312675476,0.2922583818435669,0.21931935846805573,0.037596073001623154,0.5036872625350952,22.79032258064516,0.14351177376172974,0.3236617775693585,Lombrics_valid_4_grid3,1
17,0.18859295547008514,0.6448941826820374,0.7038143873214722,0.1739531308412552,0.728216290473938,0.3850148618221283,0.7446950674057007,0.291840136051178,0.21968036890029907,0.03299512714147568,0.48939013481140137,22.56390977443609,0.14039535564191202,0.32001120019071855,Lombrics_valid_4_grid3,2
18,0.2064327448606491,0.6679280996322632,0.7240021228790283,0.2177451252937317,0.7485407590866089,0.4171299934387207,0.759057879447937,0.3153897523880005,0.23953314125537872,0.04501406103372574,0.518115758895874,22.052208835341364,0.1379510815763579,0.3308766932101096,Lombrics_valid_4_grid3,3
19,0.18311433494091034,0.6346899271011353,0.7196776866912842,0.1854071021080017,0.7162572145462036,0.38125017285346985,0.7397724986076355,0.28422650694847107,0.21349412202835083,0.03837805986404419,0.479544997215271,22.310077519379846,0.14393739445860007,0.31633855077064005,Lombrics_valid_4_grid3,4
20,0.158121258020401,0.6842105388641357,0.717976450920105,0.20438405871391296,0.7037031054496765,0.36434635519981384,0.7366237044334412,0.25687795877456665,0.1868559569120407,0.04871363937854767,0.4732474088668823,26.955631399317404,0.16715882043093797,0.3072257684920823,Lombrics_valid_4_grid4,0
21,0.05789978429675102,0.49640288949012756,0.5616009831428528,0.07861457020044327,0.5478692054748535,0.24082253873348236,0.5313774943351746,0.10370370000600815,0.07032410800457001,0.007316525559872389,0.06275498867034912,50.26209677419355,0.4124526300317828,0.11382826123614935,Lombrics_valid_4_grid4,1
22,0.1540684700012207,0.637534499168396,0.7201645970344543,0.1915206015110016,0.7129573225975037,0.36652055382728577,0.720674991607666,0.24816471338272095,0.1816132813692093,0.043389663100242615,0.44134998321533203,26.296992481203006,0.172405157007629,0.31369303732504494,Lombrics_valid_4_grid4,2
23,0.16001763939857483,0.6868495941162109,0.7287553548812866,0.21525900065898895,0.7292448878288269,0.3894900381565094,0.7382415533065796,0.2595638334751129,0.1890132874250412,0.011665942147374153,0.4764831066131592,26.73895582329317,0.1744454516881378,0.29833826755734827,Lombrics_valid_4_grid4,3
24,0.14599482715129852,0.6569767594337463,0.7197554111480713,0.16296996176242828,0.6926681995391846,0.33884721994400024,0.7232000827789307,0.23890061676502228,0.1728886067867279,0.04656273126602173,0.44640016555786133,28.434108527131784,0.182874440379244,0.30255750765354433,Lombrics_valid_4_grid4,4
25,0.14810751378536224,0.6558704376220703,0.7055585980415344,0.1825498789548874,0.684350848197937,0.3416101932525635,0.7187023162841797,0.24164676666259766,0.17524121701717377,0.02525835670530796,0.4374046325683594,28.27986348122867,0.18521270900908157,0.275367674274325,Lombrics_valid_4_grid5,0
26,0.057507216930389404,0.49126413464546204,0.5363947749137878,0.07042773067951202,0.5415332317352295,0.2430783063173294,0.5294978618621826,0.10296175628900528,0.06984015554189682,0.0034530076663941145,0.058995723724365234,53.88709677419355,0.4476823110872385,0.0944961145170179,Lombrics_valid_4_grid5,1
27,0.15393207967281342,0.6338546276092529,0.712839663028717,0.19429484009742737,0.7025431394577026,0.3672316074371338,0.7192990779876709,0.24770806729793549,0.18140171468257904,0.007848369888961315,0.4385981559753418,26.26691729323308,0.17099550694381296,0.29676901252865584,Lombrics_valid_4_grid5,2
28,0.16674472391605377,0.6736045479774475,0.7214353084564209,0.23011140525341034,0.7239265441894531,0.38210245966911316,0.738601803779602,0.26731744408607483,0.19628383219242096,0.017896315082907677,0.4772036075592041,25.397590361445783,0.16626414398133926,0.28659330701047936,Lombrics_valid_4_grid5,3
29,0.12168516218662262,0.626937985420227,0.6990041136741638,0.17004698514938354,0.6672133207321167,0.3346382677555084,0.6894910931587219,0.2038116306066513,0.1450672596693039,0.046990133821964264,0.37898218631744385,32.674418604651166,0.22378378954088468,0.260544487920596,Lombrics_valid_4_grid5,4
30,0.16032658517360687,0.6995951533317566,0.7280778288841248,0.1791074424982071,0.7036411166191101,0.3561822772026062,0.743706464767456,0.260869562625885,0.18954850733280182,0.01218709908425808,0.4874129295349121,25.129692832764505,0.16153447108618874,0.2884409129200344,Lombrics_valid_4_grid6,0
31,0.09879349172115326,0.5806783437728882,0.6232198476791382,0.115674689412117,0.654138445854187,0.31287896633148193,0.6481441855430603,0.1688583344221115,0.11845359951257706,0.03732352703809738,0.2962883710861206,34.71774193548387,0.2583921855051273,0.22158413568496294,Lombrics_valid_4_grid6,1
32,0.14486174285411835,0.6458141803741455,0.7105035185813904,0.16761301457881927,0.7094925045967102,0.35800331830978394,0.7160754203796387,0.2366425096988678,0.1714620739221573,0.039939336478710175,0.43215084075927734,26.25187969924812,0.17791918122716613,0.2878023610584699,Lombrics_valid_4_grid6,2
33,0.15118877589702606,0.7038788795471191,0.7214366793632507,0.19720417261123657,0.7200913429260254,0.38128548860549927,0.7366546392440796,0.24891266226768494,0.17935489118099213,0.008795992471277714,0.4733092784881592,27.160642570281123,0.18115498466304902,0.27914889088693484,Lombrics_valid_4_grid6,3
34,0.13111111521720886,0.6288759708404541,0.7150577902793884,0.1686219722032547,0.6883760690689087,0.3517862558364868,0.7002562284469604,0.21698428690433502,0.1557699739933014,0.023615894839167595,0.4005124568939209,27.643410852713178,0.1904399741370838,0.2791201604680452,Lombrics_valid_4_grid6,4
35,0.14405447244644165,0.6680161952972412,0.6981838345527649,0.1744724065065384,0.6809372901916504,0.3364613950252533,0.7190779447555542,0.23700085282325745,0.17085698246955872,0.004663845524191856,0.4381558895111084,28.061433447098977,0.18411158982964582,0.2640418870132456,Lombrics_valid_4_grid7,0
36,0.1072431206703186,0.5889003276824951,0.6391037702560425,0.12159940600395203,0.6626155972480774,0.32285138964653015,0.6628494262695312,0.1814439594745636,0.12821660935878754,0.024464210495352745,0.3256988525390625,32.01209677419355,0.23584470553515843,0.24022310947028208,Lombrics_valid_4_grid7,1
37,0.13545893132686615,0.6448941826820374,0.6983309388160706,0.1554817110300064,0.6920440793037415,0.34002888202667236,0.7071080803871155,0.22389012575149536,0.16087575256824493,0.02634618803858757,0.41421616077423096,28.834586466165412,0.19380701579226806,0.27592898834931845,Lombrics_valid_4_grid7,2
38,0.15690146386623383,0.6764427423477173,0.7226766347885132,0.20751266181468964,0.7246332764625549,0.3888658583164215,0.732182502746582,0.2547203302383423,0.18537724018096924,0.03221820294857025,0.46436500549316406,26.377510040160644,0.17710918128388917,0.27162926956968536,Lombrics_valid_4_grid7,3
39,0.11109154671430588,0.6114341020584106,0.6750005483627319,0.14837540686130524,0.646470844745636,0.3128212094306946,0.6716775894165039,0.1880214512348175,0.1328309178352356,0.0193291287869215,0.3433551788330078,30.91860465116279,0.23014717732166487,0.21371837050330794,Lombrics_valid_4_grid7,4
