,precision,recall,rocauc,prauc,wrocauc,wprauc,balacc,microf1,microf2,mcc,tss,coverage,lr,lrap,conf,cvblock
0,0.6112469434738159,0.2024291455745697,0.6964670419692993,0.17082273960113525,0.7135878205299377,0.3803378641605377,0.5974867343902588,0.3041362464427948,0.43538838624954224,0.07487157732248306,0.19497346878051758,20.610921501706486,0.09590223675630474,0.5117794177536865,Lombrics_valid_4_grid0,0
1,0.5300859808921814,0.19013360142707825,0.6965198516845703,0.15766756236553192,0.7086169719696045,0.3605160117149353,0.5905421376228333,0.2798789441585541,0.3904601037502289,0.06442230194807053,0.1810842752456665,20.201612903225808,0.0986744529916863,0.5093670849111513,Lombrics_valid_4_grid0,1
2,0.580281674861908,0.18951241672039032,0.6780462861061096,0.15160615742206573,0.7079634070396423,0.37166205048561096,0.5909150242805481,0.2857142686843872,0.41084960103034973,0.10812514275312424,0.1818300485610962,20.42105263157895,0.09808037967515645,0.5212837493388149,Lombrics_valid_4_grid0,2
3,0.6189188957214355,0.21665090322494507,0.6896039247512817,0.20395635068416595,0.7267751097679138,0.3991038501262665,0.6044338941574097,0.32095304131507874,0.45132046937942505,0.12766198813915253,0.20886778831481934,19.795180722891565,0.09240787186128983,0.5392741995839321,Lombrics_valid_4_grid0,3
4,0.6169590353965759,0.2044573575258255,0.6864088773727417,0.16656707227230072,0.7065590620040894,0.3768822252750397,0.5987509489059448,0.30713245272636414,0.43958330154418945,0.17333565652370453,0.19750189781188965,21.275193798449614,0.10405853998951978,0.5212353450071295,Lombrics_valid_4_grid0,4
5,0.5502008199691772,0.22186234593391418,0.6716180443763733,0.1458950638771057,0.696049690246582,0.35060515999794006,0.6056793928146362,0.3162146806716919,0.42454293370246887,0.10096855461597443,0.21135878562927246,21.61433447098976,0.10417170810734788,0.492978566966673,Lombrics_valid_4_grid1,0
6,0.48175182938575745,0.2034943401813507,0.6997292637825012,0.1391398310661316,0.7027745246887207,0.342962384223938,0.5958706736564636,0.28612715005874634,0.37829577922821045,0.07115669548511505,0.19174134731292725,20.923387096774192,0.10261129916875802,0.49391595143305433,Lombrics_valid_4_grid1,1
7,0.5577395558357239,0.20883165299892426,0.6924955248832703,0.17195287346839905,0.7148144245147705,0.3763149678707123,0.5997754335403442,0.3038822114467621,0.4180479049682617,0.1347900629043579,0.19955086708068848,20.24812030075188,0.09571681315860678,0.5239432876862097,Lombrics_valid_4_grid1,2
8,0.5445783138275146,0.2138126790523529,0.6786300539970398,0.16607847809791565,0.7089322209358215,0.37909135222435,0.6016899347305298,0.3070652186870575,0.4158998727798462,0.14699818193912506,0.20337986946105957,21.783132530120483,0.10549579208446921,0.5145964039483535,Lombrics_valid_4_grid1,3
9,0.5469879508018494,0.2199612408876419,0.6926708221435547,0.17221935093402863,0.6963529586791992,0.3710832893848419,0.6049896478652954,0.31375259160995483,0.42161962389945984,0.12622782588005066,0.20997929573059082,21.100775193798448,0.10350173672853603,0.508609662816453,Lombrics_valid_4_grid1,4
10,0.45264846086502075,0.22834007441997528,0.6229357123374939,0.12152030318975449,0.6030747294425964,0.287337064743042,0.6061750650405884,0.30355218052864075,0.3783203363418579,0.044550567865371704,0.21235013008117676,25.744027303754265,0.13293656009187602,0.4393617002776136,Lombrics_valid_4_grid2,0
11,0.42124542593955994,0.23638232052326202,0.6436755657196045,0.13242274522781372,0.6307386159896851,0.2885715961456299,0.6094729900360107,0.3028307855129242,0.364269882440567,0.044924862682819366,0.21894598007202148,23.608870967741936,0.12420312296655024,0.4467130264485661,Lombrics_valid_4_grid2,1
12,0.48962655663490295,0.21711131930351257,0.6428295969963074,0.15527932345867157,0.6395940780639648,0.31785574555397034,0.6022137999534607,0.3008285462856293,0.39137646555900574,0.030463939532637596,0.2044275999069214,22.477443609022558,0.11395409408965006,0.4655603861321122,Lombrics_valid_4_grid2,2
13,0.48583877086639404,0.21097445487976074,0.6367121338844299,0.13186269998550415,0.6363115310668945,0.31377094984054565,0.5989736318588257,0.2941952347755432,0.3854130506515503,0.09738534688949585,0.19794726371765137,24.21285140562249,0.12606561806365327,0.462798736266295,Lombrics_valid_4_grid2,3
14,0.4009983241558075,0.23352713882923126,0.6362579464912415,0.14120891690254211,0.6115305423736572,0.28949111700057983,0.607206404209137,0.29516229033470154,0.3506985008716583,0.09838353097438812,0.21441280841827393,24.186046511627907,0.12753710249049238,0.4607912734935762,Lombrics_valid_4_grid2,4
15,0.3177257478237152,0.3076923191547394,0.6060962677001953,0.10305092483758926,0.5453195571899414,0.2575286328792572,0.6347146034240723,0.3126285672187805,0.315667062997818,-0.006529931910336018,0.26942920684814453,37.648464163822524,0.21142136813642468,0.3841097145973438,Lombrics_valid_4_grid3,0
16,0.26862746477127075,0.28160327672958374,0.5721150636672974,0.07989631593227386,0.5513632893562317,0.24940571188926697,0.6202200651168823,0.2749623656272888,0.27112606167793274,0.0033815179485827684,0.24044013023376465,38.899193548387096,0.23975936341779963,0.3465390150632122,Lombrics_valid_4_grid3,1
17,0.1550104320049286,0.27322906255722046,0.4553673565387726,0.06114037707448006,0.49031949043273926,0.22782304883003235,0.5948770046234131,0.19780218601226807,0.16969488561153412,0.03824372589588165,0.18975400924682617,39.85338345864662,0.2642617921257197,0.2500714958805141,Lombrics_valid_4_grid3,2
18,0.35280641913414,0.29139071702957153,0.6319136619567871,0.14013643562793732,0.5939244031906128,0.2809239625930786,0.6301014423370361,0.3191709816455841,0.33853593468666077,0.048300229012966156,0.26020288467407227,34.11244979919679,0.17739134272751228,0.4112965227159685,Lombrics_valid_4_grid3,3
19,0.2847985327243805,0.30135658383369446,0.5580940246582031,0.09772200137376785,0.5464406609535217,0.25785359740257263,0.6299445033073425,0.29284369945526123,0.28796297311782837,0.041118260473012924,0.25988900661468506,39.01162790697674,0.23621850284034632,0.3674410964123647,Lombrics_valid_4_grid3,4
20,0.6000000238418579,0.208906888961792,0.7020593881607056,0.17522791028022766,0.7118521928787231,0.37557452917099,0.6004208326339722,0.3099099397659302,0.43654826283454895,0.12300173938274384,0.20084166526794434,19.5358361774744,0.09201400453479976,0.5255620106522647,Lombrics_valid_4_grid4,0
21,0.5952380895614624,0.17985612154006958,0.6808329820632935,0.1557910293340683,0.713588297367096,0.37126967310905457,0.5866449475288391,0.27624309062957764,0.40716612339019775,0.07257271558046341,0.17328989505767822,20.81451612903226,0.1032478345648853,0.5180595557935512,Lombrics_valid_4_grid4,1
22,0.6038338541984558,0.17387305200099945,0.6604170203208923,0.14620885252952576,0.7011433243751526,0.36460041999816895,0.5837398171424866,0.27000001072883606,0.4040188193321228,0.08660238981246948,0.16747963428497314,20.51127819548872,0.10095753220166685,0.5089992762128549,Lombrics_valid_4_grid4,2
23,0.6517857313156128,0.2071901559829712,0.6704542636871338,0.18112745881080627,0.709468424320221,0.39336833357810974,0.6003658771514893,0.31442928314208984,0.4560600221157074,0.13779637217521667,0.20073175430297852,21.674698795180724,0.10488964414313845,0.5212222204971426,Lombrics_valid_4_grid4,3
24,0.5850746035575867,0.1899224817752838,0.6904133558273315,0.14976586401462555,0.6841762065887451,0.3473566770553589,0.5912711024284363,0.28675931692123413,0.41315343976020813,0.1037963405251503,0.18254220485687256,20.5,0.10833616068176191,0.49990695841285965,Lombrics_valid_4_grid4,4
25,0.6144859790802002,0.21295545995235443,0.6692094802856445,0.13911859691143036,0.7056072950363159,0.35986948013305664,0.6026092171669006,0.3162958323955536,0.4462164342403412,0.06737949699163437,0.20521843433380127,20.78839590443686,0.10122977308415841,0.5103870524256833,Lombrics_valid_4_grid5,0
26,0.565079391002655,0.18293936550617218,0.642657458782196,0.136612668633461,0.6925967335700989,0.33973225951194763,0.5876899361610413,0.2763975262641907,0.39856696128845215,0.0426773838698864,0.17537987232208252,22.923387096774192,0.12018962560973241,0.49526086284742654,Lombrics_valid_4_grid5,1
27,0.5589123964309692,0.17019319534301758,0.6223732829093933,0.11530636250972748,0.6593571901321411,0.31856775283813477,0.5813327431678772,0.2609308958053589,0.3836582601070404,0.11541853100061417,0.1626654863357544,23.26691729323308,0.11737779340093593,0.4897927707730772,Lombrics_valid_4_grid5,2
28,0.6372239589691162,0.1911069005727768,0.6541479825973511,0.15783198177814484,0.7050160765647888,0.37900784611701965,0.5923794507980347,0.2940320074558258,0.4344085454940796,0.13336263597011566,0.18475890159606934,21.630522088353413,0.10543103322427388,0.51830736223221,Lombrics_valid_4_grid5,3
29,0.5977961421012878,0.21027131378650665,0.6585518717765808,0.1353478729724884,0.681839644908905,0.3472083508968353,0.601259708404541,0.31111112236976624,0.43679550290107727,0.14054352045059204,0.20251941680908203,22.228682170542637,0.11515081424774637,0.5136065368730128,Lombrics_valid_4_grid5,4
30,0.5069307088851929,0.20728744566440582,0.5308143496513367,0.0861751139163971,0.5898045897483826,0.29358145594596863,0.5978057980537415,0.294252872467041,0.39324116706848145,0.06074288859963417,0.1956115961074829,27.67235494880546,0.14783525647378482,0.42922813056896536,Lombrics_valid_4_grid6,0
31,0.3744680881500244,0.18088386952877045,0.5572830438613892,0.07748650759458542,0.5632182359695435,0.2514157295227051,0.5823307037353516,0.24393625557422638,0.3084472715854645,-0.010107826441526413,0.16466140747070312,26.91532258064516,0.15158005919877235,0.41418118341633897,Lombrics_valid_4_grid6,1
32,0.5107526779174805,0.17479300498962402,0.5659617781639099,0.10495921224355698,0.5984516739845276,0.2827175259590149,0.5827045440673828,0.26045235991477966,0.36893200874328613,0.06510934233665466,0.16540908813476562,24.23308270676692,0.13170457208047143,0.4473106640680211,Lombrics_valid_4_grid6,2
33,0.4921466112136841,0.17786186933517456,0.5342942476272583,0.08445250242948532,0.5540995597839355,0.2818501591682434,0.5835765600204468,0.26129254698753357,0.3636363744735718,-0.0035517823416739702,0.16715312004089355,28.91566265060241,0.15980911416637203,0.42718887263001676,Lombrics_valid_4_grid6,3
34,0.45501285791397095,0.17151163518428802,0.5184749960899353,0.08378931879997253,0.5352593660354614,0.24879132211208344,0.5801277160644531,0.2491203248500824,0.34196290373802185,-0.0005107742035761476,0.16025543212890625,27.906976744186046,0.15365480167551757,0.42560680891947145,Lombrics_valid_4_grid6,4
35,0.3106796145439148,0.31093117594718933,0.5562781691551208,0.08462344110012054,0.5479786992073059,0.2611387073993683,0.6354900002479553,0.31080538034439087,0.3107299208641052,0.027732929214835167,0.27098000049591064,29.563139931740615,0.1575174478327899,0.3974495105673633,Lombrics_valid_4_grid7,0
36,0.3258928656578064,0.2250770777463913,0.6029714345932007,0.10710339993238449,0.5803304314613342,0.265012264251709,0.60004061460495,0.26626136898994446,0.2990986108779907,-0.02046067640185356,0.2000812292098999,24.153225806451612,0.13644601622243388,0.4084794161527664,Lombrics_valid_4_grid7,1
37,0.3565310537815094,0.3063477575778961,0.5986456871032715,0.1108533963561058,0.5885529518127441,0.27396857738494873,0.637680172920227,0.32953983545303345,0.34522080421447754,0.06991500407457352,0.2753603458404541,24.541353383458645,0.1325423906031105,0.42444196502280995,Lombrics_valid_4_grid7,2
38,0.37662336230278015,0.2469252645969391,0.6119500398635864,0.13839603960514069,0.5710728764533997,0.280636191368103,0.6115394830703735,0.29828572273254395,0.3408200442790985,-0.0465170182287693,0.22307896614074707,25.08433734939759,0.14059037189582002,0.40232980055226414,Lombrics_valid_4_grid7,3
39,0.35748791694641113,0.21511627733707428,0.6020911335945129,0.09231220930814743,0.5846596360206604,0.26419326663017273,0.5969656109809875,0.26860255002975464,0.31569966673851013,0.12427497655153275,0.1939312219619751,25.41860465116279,0.1454325622164453,0.41699116010875914,Lombrics_valid_4_grid7,4
