,precision,recall,rocauc,prauc,wrocauc,wprauc,balacc,microf1,microf2,mcc,tss,coverage,lr,lrap,conf,cvblock
0,0.42442747950553894,0.22510121762752533,0.5951431393623352,0.11075486987829208,0.6438839435577393,0.31499215960502625,0.6037116050720215,0.29417991638183594,0.3605706989765167,0.0910506322979927,0.20742321014404297,28.266211604095563,0.14930038620779063,0.41737287143879637,Lombrics_valid_4_grid0,0
1,0.4528301954269409,0.2219938337802887,0.6628378629684448,0.12876099348068237,0.6847265362739563,0.3247610926628113,0.603796124458313,0.297931045293808,0.37486982345581055,0.06700265407562256,0.20759224891662598,22.326612903225808,0.11389680263576712,0.47118155084271085,Lombrics_valid_4_grid0,1
2,0.46422019600868225,0.23275068402290344,0.5834035277366638,0.11952579766511917,0.6631396412849426,0.3391056954860687,0.6088476181030273,0.31004902720451355,0.3872053921222687,0.025295112282037735,0.2176952362060547,28.55263157894737,0.14810246915063696,0.4357404923312909,Lombrics_valid_4_grid0,2
3,0.433453232049942,0.22800378501415253,0.5988144874572754,0.10360854119062424,0.6484817266464233,0.3204721510410309,0.605307936668396,0.2988220751285553,0.36726605892181396,0.05886567384004593,0.210615873336792,28.21285140562249,0.15607344016784372,0.4363681474129144,Lombrics_valid_4_grid0,3
4,0.4285714328289032,0.22093023359775543,0.5972809791564941,0.11116378009319305,0.6454960703849792,0.32532310485839844,0.6023946404457092,0.2915600836277008,0.3607594966888428,0.0454910472035408,0.20478928089141846,27.7984496124031,0.15558966059951324,0.42029131917982554,Lombrics_valid_4_grid0,4
5,0.39203861355781555,0.2631579041481018,0.642113447189331,0.11582440137863159,0.6578255891799927,0.3265818655490875,0.6197624206542969,0.3149224817752838,0.3570643961429596,0.08580414950847626,0.23952484130859375,25.085324232081913,0.1355603014687782,0.4255363280557069,Lombrics_valid_4_grid1,0
6,0.40740740299224854,0.2374100685119629,0.6640888452529907,0.14523795247077942,0.6881079077720642,0.3476642072200775,0.6094350814819336,0.29999998211860657,0.3563714623451233,0.11510375142097473,0.2188701629638672,23.116935483870968,0.120595370295688,0.45064354317355126,Lombrics_valid_4_grid1,1
7,0.35531628131866455,0.2428702861070633,0.630707323551178,0.10912060737609863,0.655949056148529,0.3187006413936615,0.6090866327285767,0.2885245978832245,0.3252032399177551,0.09169203042984009,0.21817326545715332,26.477443609022558,0.1489469140322617,0.39222056960026885,Lombrics_valid_4_grid1,2
8,0.375158429145813,0.28003785014152527,0.6047555208206177,0.12291865795850754,0.6478410959243774,0.330670028924942,0.6264121532440186,0.32069337368011475,0.3512936234474182,0.08256589621305466,0.2528243064880371,26.538152610441767,0.14642257838129566,0.41072315836098194,Lombrics_valid_4_grid1,3
9,0.3980169892311096,0.2722868323326111,0.6429515480995178,0.13196006417274475,0.6726786494255066,0.344341903924942,0.6248606443405151,0.3233601748943329,0.3643672466278076,0.09256613254547119,0.24972128868103027,25.38372093023256,0.13347948476042992,0.43983617406151976,Lombrics_valid_4_grid1,4
10,0.44164037704467773,0.2267206460237503,0.707190752029419,0.17244501411914825,0.6974720358848572,0.35306262969970703,0.6050605773925781,0.2996254861354828,0.3712543547153473,0.09281789511442184,0.21012115478515625,19.880546075085324,0.09602578558798165,0.48231719340008444,Lombrics_valid_4_grid2,0
11,0.42114385962486267,0.24974305927753448,0.7016359567642212,0.15916097164154053,0.7204862236976624,0.3669459819793701,0.6156567335128784,0.31354835629463196,0.3703139126300812,0.05535394325852394,0.23131346702575684,18.806451612903224,0.09315293520850776,0.477395130424019,Lombrics_valid_4_grid2,1
12,0.4680483639240265,0.24931003153324127,0.6990301012992859,0.16641424596309662,0.7116724252700806,0.36539730429649353,0.6167148351669312,0.32533013820648193,0.3981781005859375,0.0819760262966156,0.2334296703338623,19.293233082706767,0.09552050689309216,0.48741251030792415,Lombrics_valid_4_grid2,2
13,0.4639866054058075,0.2620624303817749,0.7087767124176025,0.19216233491897583,0.710381031036377,0.37412187457084656,0.6221992373466492,0.33494555950164795,0.40203192830085754,0.09875206649303436,0.24439847469329834,19.734939759036145,0.1000392070364928,0.47466540539702445,Lombrics_valid_4_grid2,3
14,0.4278768301010132,0.25581395626068115,0.6975100636482239,0.17342722415924072,0.695191502571106,0.35301879048347473,0.6185356378555298,0.3201940655708313,0.37714287638664246,0.0965837612748146,0.23707127571105957,19.782945736434108,0.103228790406168,0.47216573671015194,Lombrics_valid_4_grid2,4
15,0.37112298607826233,0.2809716463088989,0.6645368337631226,0.13129478693008423,0.6968843936920166,0.357323557138443,0.6266998052597046,0.31981566548347473,0.3487437069416046,0.04600333049893379,0.2533996105194092,21.034129692832764,0.10410269142017409,0.4454516816239385,Lombrics_valid_4_grid3,0
16,0.3775216042995453,0.26927030086517334,0.698340892791748,0.18107205629348755,0.712843120098114,0.3645874857902527,0.6227166056632996,0.3143371045589447,0.3494264781475067,0.13778294622898102,0.24543321132659912,19.133064516129032,0.10056558553440145,0.46131826743604026,Lombrics_valid_4_grid3,1
17,0.3521634638309479,0.2695492208003998,0.6748129725456238,0.1561979204416275,0.695616602897644,0.3508579134941101,0.6208792924880981,0.3053673803806305,0.33182334899902344,0.08820752799510956,0.2417585849761963,19.642857142857142,0.10360333289690826,0.4558214243956241,Lombrics_valid_4_grid3,2
18,0.4242819845676422,0.3074739873409271,0.6935043334960938,0.2076726108789444,0.720967173576355,0.3919404447078705,0.6415654420852661,0.35655513405799866,0.3943217694759369,0.08250214159488678,0.2831308841705322,20.72690763052209,0.10120063610830203,0.4734810303814449,Lombrics_valid_4_grid3,3
19,0.37931033968925476,0.2877906858921051,0.6682614088058472,0.16516771912574768,0.6925753355026245,0.3638981580734253,0.630993127822876,0.3272727131843567,0.3566282391548157,0.08807378262281418,0.26198625564575195,20.98062015503876,0.11137549725294413,0.45069543864643097,Lombrics_valid_4_grid3,4
20,0.6149870753288269,0.19271254539489746,0.6601427793502808,0.1286109834909439,0.6956005692481995,0.34974297881126404,0.5928628444671631,0.2934648394584656,0.4275960624217987,0.14350485801696777,0.18572568893432617,21.252559726962456,0.10536463166869504,0.5015928005627053,Lombrics_valid_4_grid4,0
21,0.4613095223903656,0.15930113196372986,0.5598151683807373,0.0783940777182579,0.6021102666854858,0.2715405225753784,0.5746569037437439,0.2368220090866089,0.3344842493534088,0.052056994289159775,0.1493138074874878,27.846774193548388,0.15422174529398028,0.4305739225953815,Lombrics_valid_4_grid4,1
22,0.5025125741958618,0.1839926391839981,0.5732251405715942,0.09554087370634079,0.6155656576156616,0.2962823212146759,0.5868918895721436,0.2693602740764618,0.3732735812664032,0.0903664082288742,0.1737837791442871,26.7406015037594,0.14405003496545207,0.4452851370135934,Lombrics_valid_4_grid4,2
23,0.6037735939025879,0.1816461682319641,0.6444557309150696,0.16261720657348633,0.6783118844032288,0.35374993085861206,0.5873454809188843,0.27927273511886597,0.41219404339790344,0.07698873430490494,0.17469096183776855,22.473895582329316,0.11219188006834721,0.4906176226991682,Lombrics_valid_4_grid4,3
24,0.45501285791397095,0.17151163518428802,0.5067006945610046,0.07801520824432373,0.5616832375526428,0.26648572087287903,0.5801277160644531,0.2491203248500824,0.34196290373802185,0.04636364430189133,0.16025543212890625,30.325581395348838,0.1700838833641872,0.4406093016719133,Lombrics_valid_4_grid4,4
25,0.49622642993927,0.21295545995235443,0.5930489301681519,0.11138160526752472,0.623137891292572,0.30992749333381653,0.6002177596092224,0.2980169951915741,0.3919523060321808,0.07907642424106598,0.20043551921844482,25.150170648464165,0.13325989587006784,0.44738949363853586,Lombrics_valid_4_grid5,0
26,0.5,0.17060637474060059,0.6116518974304199,0.09338574856519699,0.6314760446548462,0.2922413945198059,0.5807234048843384,0.2544061243534088,0.3607127368450165,0.0502869114279747,0.16144680976867676,25.423387096774192,0.14796639680255574,0.4399901378360412,Lombrics_valid_4_grid5,1
27,0.5714285969734192,0.1987120509147644,0.5927113890647888,0.10852383822202682,0.6344398856163025,0.3062119483947754,0.5951796770095825,0.29488053917884827,0.41554445028305054,0.10484044998884201,0.19035935401916504,26.041353383458645,0.1357778486495941,0.464903645406056,Lombrics_valid_4_grid5,2
28,0.5801749229431152,0.18826869130134583,0.6005409359931946,0.11968518793582916,0.6532766819000244,0.3408825993537903,0.5901599526405334,0.2842857241630554,0.409633606672287,0.09231013804674149,0.1803199052810669,24.783132530120483,0.12634168038094187,0.4796266777084788,Lombrics_valid_4_grid5,3
29,0.4905149042606354,0.17538759112358093,0.5341641306877136,0.08159944415092468,0.5875831842422485,0.27368253469467163,0.5827028155326843,0.25838688015937805,0.36084532737731934,0.03044341504573822,0.16540563106536865,27.228682170542637,0.1541266758280068,0.4312970845124361,Lombrics_valid_4_grid5,4
30,0.419921875,0.17408907413482666,0.6362749338150024,0.13556279242038727,0.6447815895080566,0.3112293481826782,0.5800812244415283,0.24613623321056366,0.3274444043636322,0.07658430933952332,0.16016244888305664,22.25938566552901,0.11546514448543507,0.4322047488355634,Lombrics_valid_4_grid6,0
31,0.4840182662010193,0.21788284182548523,0.6958978772163391,0.14394569396972656,0.719845175743103,0.3558582067489624,0.602706253528595,0.30049610137939453,0.3889908492565155,0.08282609283924103,0.20541250705718994,18.97983870967742,0.09842085680473607,0.5009146147802195,Lombrics_valid_4_grid6,1
32,0.48523205518722534,0.21159154176712036,0.6535892486572266,0.13937915861606598,0.6776645183563232,0.33095914125442505,0.5995054841041565,0.29468289017677307,0.3855179250240326,0.07243700325489044,0.199010968208313,20.75187969924812,0.10541961333037815,0.47964096192050476,Lombrics_valid_4_grid6,2
33,0.4833005964756012,0.23273415863513947,0.6452676057815552,0.13152655959129333,0.6686167120933533,0.3395153284072876,0.6091083288192749,0.3141762614250183,0.3976721465587616,0.02564230002462864,0.2182166576385498,23.265060240963855,0.12498319650923105,0.4607059205977402,Lombrics_valid_4_grid6,3
34,0.46997928619384766,0.2199612408876419,0.652237057685852,0.13677555322647095,0.6597100496292114,0.3334714472293854,0.6031844019889832,0.2996699810028076,0.3829285204410553,0.08545154333114624,0.2063688039779663,21.166666666666668,0.1120286218040668,0.476913070038239,Lombrics_valid_4_grid6,4
35,0.44586893916130066,0.25344130396842957,0.6546348333358765,0.13087612390518188,0.6687859892845154,0.3315419554710388,0.6176003217697144,0.3231801986694336,0.387088805437088,0.043368399143218994,0.2352006435394287,21.484641638225256,0.1073659228566873,0.46540529969504923,Lombrics_valid_4_grid7,0
36,0.36276084184646606,0.23227132856845856,0.6327052116394043,0.13049829006195068,0.6609219312667847,0.31837716698646545,0.6051827669143677,0.28320804238319397,0.3261183500289917,0.09660819172859192,0.21036553382873535,23.06451612903226,0.12499014804331315,0.4368239837958939,Lombrics_valid_4_grid7,1
37,0.44901609420776367,0.2309107631444931,0.6432181000709534,0.13474038243293762,0.6829999685287476,0.3488664925098419,0.6075151562690735,0.3049817681312561,0.3776707649230957,0.06488678604364395,0.21503031253814697,22.860902255639097,0.11800028684221825,0.4621462399428999,Lombrics_valid_4_grid7,2
38,0.39210525155067444,0.28192999958992004,0.6312732100486755,0.12425903230905533,0.663043737411499,0.340872585773468,0.6282138228416443,0.32801321148872375,0.36368075013160706,0.07423417270183563,0.2564276456832886,23.85542168674699,0.1218469565701584,0.45344283425049264,Lombrics_valid_4_grid7,3
39,0.3673740029335022,0.268410861492157,0.6198721528053284,0.11346261203289032,0.6384061574935913,0.3020929992198944,0.6215421557426453,0.3101903796195984,0.34214431047439575,0.0297996886074543,0.24308431148529053,23.558139534883722,0.1295002168972948,0.4170332379952591,Lombrics_valid_4_grid7,4
