,precision,recall,rocauc,prauc,wrocauc,wprauc,balacc,microf1,microf2,mcc,tss,coverage,lr,lrap,conf,cvblock
0,0.6171875,0.19190283119678497,0.733856201171875,0.1814342588186264,0.7274959087371826,0.38159140944480896,0.5925049185752869,0.2927733361721039,0.42764347791671753,0.13675640523433685,0.18500983715057373,17.44368600682594,0.08312069798401246,0.5367920809982251,Lombrics_valid_4_grid0,0
1,0.5667752623558044,0.17882835865020752,0.7249837517738342,0.1875007003545761,0.7321014404296875,0.3780653476715088,0.5857447981834412,0.2718749940395355,0.3952748775482178,0.05707542970776558,0.17148959636688232,17.721774193548388,0.08558660296563005,0.5273208184308642,Lombrics_valid_4_grid0,1
2,0.6192052960395813,0.17203311622142792,0.7283977270126343,0.19719438254833221,0.7351412177085876,0.39119547605514526,0.583051860332489,0.2692584693431854,0.4074074327945709,0.11673785001039505,0.16610372066497803,17.25187969924812,0.0829610863449244,0.5383186840461935,Lombrics_valid_4_grid0,2
3,0.6380367875099182,0.19678334891796112,0.7258800864219666,0.21764467656612396,0.7385445237159729,0.4015783965587616,0.5951348543167114,0.3007953464984894,0.44049131870269775,0.0913483202457428,0.19026970863342285,17.670682730923694,0.08316802248541164,0.5452937982285306,Lombrics_valid_4_grid0,3
4,0.6160990595817566,0.1928294599056244,0.7192966341972351,0.21433459222316742,0.7192687392234802,0.38064518570899963,0.5931228399276733,0.29372695088386536,0.42814114689826965,0.09125997871160507,0.18624567985534668,18.089147286821706,0.09007475608923526,0.5210049483588505,Lombrics_valid_4_grid0,4
5,0.6190476417541504,0.1894736886024475,0.7382428050041199,0.18034027516841888,0.7275190353393555,0.38123005628585815,0.5913606882095337,0.29014259576797485,0.42591920495033264,0.12342006713151932,0.18272137641906738,17.1740614334471,0.0821120380434463,0.5355011631571942,Lombrics_valid_4_grid1,0
6,0.5663082599639893,0.16238437592983246,0.7184807658195496,0.17082907259464264,0.7283502221107483,0.3681066632270813,0.5778538584709167,0.2523961663246155,0.37817132472991943,0.05915815383195877,0.1557077169418335,17.983870967741936,0.08632184858711926,0.5228573542757721,Lombrics_valid_4_grid1,1
7,0.6237288117408752,0.1692732274532318,0.7354791164398193,0.20525845885276794,0.7409970164299011,0.3948676884174347,0.5817750692367554,0.26628077030181885,0.40582266449928284,0.13049286603927612,0.16355013847351074,16.93984962406015,0.08096617034296545,0.5465052027468776,Lombrics_valid_4_grid1,2
8,0.6477987170219421,0.19489119946956635,0.7225631475448608,0.23073184490203857,0.7381693124771118,0.4091114401817322,0.5943543910980225,0.2996363341808319,0.4422498643398285,0.09232963621616364,0.18870878219604492,17.666666666666668,0.0838318678375636,0.5462349050504365,Lombrics_valid_4_grid1,3
9,0.6178343892097473,0.18798449635505676,0.7239736318588257,0.1931845247745514,0.7194262742996216,0.37756064534187317,0.5908065438270569,0.2882615029811859,0.42395102977752686,0.09933377057313919,0.18161308765411377,17.914728682170544,0.08895814728331679,0.5245874342066781,Lombrics_valid_4_grid1,4
10,0.633152186870575,0.18866397440433502,0.7378532886505127,0.18884478509426117,0.7297191023826599,0.3821307420730591,0.5911668539047241,0.2907049357891083,0.4303657114505768,0.14645837247371674,0.18233370780944824,17.450511945392492,0.08227589444038255,0.5385351573606919,Lombrics_valid_4_grid2,0
11,0.5896551609039307,0.17574511468410492,0.7301604747772217,0.19160188734531403,0.7346649169921875,0.38141024112701416,0.584589421749115,0.27078384160995483,0.40084385871887207,0.09672686457633972,0.16917884349822998,17.512096774193548,0.08620061649545034,0.528675357255528,Lombrics_valid_4_grid2,1
12,0.6442952752113342,0.17663294076919556,0.7203204035758972,0.21153438091278076,0.7386182546615601,0.400053471326828,0.5855838060379028,0.2772563099861145,0.42123740911483765,0.11310358345508575,0.17116761207580566,17.214285714285715,0.08163434283485188,0.5417922864431108,Lombrics_valid_4_grid2,2
13,0.6719242930412292,0.20151372253894806,0.7303930521011353,0.2358560860157013,0.7383285164833069,0.40531474351882935,0.5978865027427673,0.31004366278648376,0.4580645263195038,0.1294393688440323,0.19577300548553467,17.429718875502008,0.08231880934902334,0.5471464933010497,Lombrics_valid_4_grid2,3
14,0.6163522005081177,0.1899224817752838,0.718072772026062,0.1952372044324875,0.7194517850875854,0.3808434009552002,0.5917224287986755,0.290370374917984,0.4253472089767456,0.1168365329504013,0.18344485759735107,18.310077519379846,0.09127500125203375,0.5208009961300357,Lombrics_valid_4_grid2,4
15,0.6223958134651184,0.19352227449417114,0.7163242697715759,0.1912883222103119,0.7265499830245972,0.3843258023262024,0.593361496925354,0.2952439785003662,0.43125227093696594,0.10690522193908691,0.186722993850708,17.27645051194539,0.08149003966259204,0.5323754334246237,Lombrics_valid_4_grid3,0
16,0.5888158082962036,0.18396711349487305,0.6946818232536316,0.18036779761314392,0.7325716614723206,0.3833424746990204,0.5885348916053772,0.28034457564353943,0.40886253118515015,0.07291702181100845,0.1770697832107544,17.173387096774192,0.08222789429712943,0.5328660480603552,Lombrics_valid_4_grid3,1
17,0.6406779885292053,0.17387305200099945,0.718122124671936,0.21197094023227692,0.7391179800033569,0.39790770411491394,0.584203839302063,0.2735166549682617,0.4168505072593689,0.1360020786523819,0.16840767860412598,16.80827067669173,0.0805873721294356,0.5426811313067201,Lombrics_valid_4_grid3,2
18,0.6857143044471741,0.20435194671154022,0.7273631691932678,0.24295645952224731,0.7408729791641235,0.41462621092796326,0.5994435548782349,0.3148688077926636,0.46612000465393066,0.1143476814031601,0.19888710975646973,17.377510040160644,0.08192618545384034,0.552262728022032,Lombrics_valid_4_grid3,3
19,0.5940298438072205,0.1928294599056244,0.7171055674552917,0.20145288109779358,0.7236793041229248,0.38265788555145264,0.5928042531013489,0.29114851355552673,0.419477254152298,0.12189597636461258,0.18560850620269775,17.662790697674417,0.08683092130533383,0.5253712094181812,Lombrics_valid_4_grid3,4
20,0.6342856884002686,0.17975708842277527,0.7158087491989136,0.1716875284910202,0.7203572988510132,0.3803488314151764,0.5868775248527527,0.28012615442276,0.4212523400783539,0.08579623699188232,0.17375504970550537,17.907849829351537,0.08450928278707054,0.5385233895312377,Lombrics_valid_4_grid4,0
21,0.5947712659835815,0.18705035746097565,0.7041630148887634,0.1628178209066391,0.7261596322059631,0.37388330698013306,0.5901041030883789,0.28459736704826355,0.41420117020606995,0.08108482509851456,0.1802082061767578,18.391129032258064,0.09053473874462305,0.5282357790312241,Lombrics_valid_4_grid4,1
22,0.6336633563041687,0.17663294076919556,0.7139224410057068,0.17216888070106506,0.7282078266143799,0.3813129663467407,0.5854549407958984,0.27625900506973267,0.41757285594940186,0.11301453411579132,0.17090988159179688,17.68421052631579,0.08468036000193228,0.5295667667199301,Lombrics_valid_4_grid4,2
23,0.637982189655304,0.20340587198734283,0.731773316860199,0.21312624216079712,0.7441345453262329,0.4016836881637573,0.5983357429504395,0.3084648549556732,0.4469854533672333,0.10978519916534424,0.1966714859008789,17.21285140562249,0.0815241170153798,0.5458676989051788,Lombrics_valid_4_grid4,3
24,0.6225806474685669,0.18701550364494324,0.7111120223999023,0.1927860528230667,0.7121991515159607,0.37418854236602783,0.5904016494750977,0.2876304090023041,0.4247359335422516,0.09106393903493881,0.1808032989501953,18.174418604651162,0.09116921382455295,0.5234422764821671,Lombrics_valid_4_grid4,4
25,0.6312848925590515,0.18299594521522522,0.7094370126724243,0.1769144982099533,0.7262393832206726,0.38098177313804626,0.5884031653404236,0.2837413549423218,0.4236970543861389,0.1676521599292755,0.17680633068084717,17.962457337883958,0.08538582347463487,0.5368970961183142,Lombrics_valid_4_grid5,0
26,0.59375,0.17574511468410492,0.7245111465454102,0.1771613359451294,0.724883496761322,0.37163597345352173,0.584644615650177,0.2712132930755615,0.402352899312973,0.05952262133359909,0.169289231300354,18.012096774193548,0.08664464474155638,0.5239223600782209,Lombrics_valid_4_grid5,1
27,0.6257861852645874,0.18307267129421234,0.7261690497398376,0.1981714814901352,0.7349669337272644,0.3963756263256073,0.5884685516357422,0.2832740247249603,0.42178890109062195,0.09419626742601395,0.17693710327148438,17.424812030075188,0.08412074021049201,0.5303868472458567,Lombrics_valid_4_grid5,2
28,0.6336336135864258,0.19962157309055328,0.7212663888931274,0.22017744183540344,0.7431749701499939,0.4086390733718872,0.5964435935020447,0.3035971224308014,0.44160741567611694,0.10410600155591965,0.19288718700408936,17.582329317269075,0.08160436528887469,0.5442771681852838,Lombrics_valid_4_grid5,3
29,0.6346153616905212,0.19186046719551086,0.7010822892189026,0.17769472301006317,0.7107289433479309,0.36399567127227783,0.5929037928581238,0.294642835855484,0.43421053886413574,0.13508199155330658,0.18580758571624756,18.31782945736434,0.09449679703882045,0.5246254450020822,Lombrics_valid_4_grid5,4
30,0.6356589198112488,0.19919028878211975,0.7365761995315552,0.17745527625083923,0.7303064465522766,0.3919474482536316,0.596289336681366,0.3033292293548584,0.4419691264629364,0.13859662413597107,0.19257867336273193,17.46075085324232,0.083071222428882,0.5345058830766948,Lombrics_valid_4_grid6,0
31,0.5734767317771912,0.1644398719072342,0.6970310211181641,0.16461801528930664,0.729148805141449,0.37554672360420227,0.5789368152618408,0.2555910646915436,0.3829583525657654,0.07691486924886703,0.15787363052368164,18.08467741935484,0.08745455806739247,0.5353020043231883,Lombrics_valid_4_grid6,1
32,0.624605655670166,0.18215271830558777,0.7229651808738708,0.1985340118408203,0.7375079989433289,0.39695829153060913,0.5880085825920105,0.28205129504203796,0.42038217186927795,0.12177128344774246,0.176017165184021,17.150375939849624,0.08257873357305312,0.529518223707259,Lombrics_valid_4_grid6,2
33,0.6580645442008972,0.19299905002117157,0.7257157564163208,0.2285182774066925,0.7478693127632141,0.4206847846508026,0.5935739278793335,0.2984637916088104,0.4440574645996094,0.1616465002298355,0.187147855758667,17.08835341365462,0.07924458373359122,0.5511921657607217,Lombrics_valid_4_grid6,3
34,0.5949008464813232,0.20348836481571198,0.6960617303848267,0.18023958802223206,0.7226173281669617,0.37404704093933105,0.5979478359222412,0.3032490909099579,0.4296235740184784,0.12643007934093475,0.19589567184448242,17.844961240310077,0.08955087816839029,0.5306044398794515,Lombrics_valid_4_grid6,4
35,0.637333333492279,0.19352227449417114,0.7272735834121704,0.1780456304550171,0.7287933826446533,0.378335565328598,0.5935724973678589,0.2968944013118744,0.4369286894798279,0.10595883429050446,0.18714499473571777,17.450511945392492,0.08337703506587764,0.537290413625208,Lombrics_valid_4_grid7,0
36,0.5921052694320679,0.1849948614835739,0.7101953625679016,0.1714509129524231,0.7278440594673157,0.3789623975753784,0.5890763401985168,0.2819107174873352,0.4111466705799103,0.10932350903749466,0.1781526803970337,17.616935483870968,0.08599086581486495,0.5319714834107774,Lombrics_valid_4_grid7,1
37,0.6173633337020874,0.17663294076919556,0.713702380657196,0.19789333641529083,0.7284294962882996,0.3904564380645752,0.5852487087249756,0.274678111076355,0.41184040904045105,0.08559896051883698,0.17049741744995117,16.902255639097746,0.07975640044825989,0.5364304422787379,Lombrics_valid_4_grid7,2
38,0.64371258020401,0.20340587198734283,0.7194848656654358,0.22133448719978333,0.7354942560195923,0.40190833806991577,0.5984185338020325,0.30913016200065613,0.4492269456386566,0.0909133180975914,0.19683706760406494,17.40562248995984,0.08183723077141905,0.5470818145737674,Lombrics_valid_4_grid7,3
39,0.6178343892097473,0.18798449635505676,0.6876336336135864,0.17499303817749023,0.7048628330230713,0.36333993077278137,0.5908065438270569,0.2882615029811859,0.42395102977752686,0.10365675389766693,0.18161308765411377,18.802325581395348,0.09573559655425067,0.5205143235503112,Lombrics_valid_4_grid7,4
