,precision,recall,rocauc,prauc,wrocauc,wprauc,balacc,microf1,microf2,mcc,tss,coverage,lr,lrap,conf,cvblock
0,0.16924266517162323,0.7093117237091064,0.7407222986221313,0.19454775750637054,0.7235003709793091,0.3760877251625061,0.7538399696350098,0.2732802927494049,0.19964447617530823,0.020512916147708893,0.5076799392700195,25.860068259385667,0.1605654072338895,0.3161778543414931,Lombrics_valid_4_grid0,0
1,0.1319528967142105,0.6680369973182678,0.718913733959198,0.17825540900230408,0.7258709669113159,0.3624500334262848,0.7160468697547913,0.22037632763385773,0.15717945992946625,0.037549279630184174,0.4320937395095825,28.919354838709676,0.195914643156405,0.28307680316347533,Lombrics_valid_4_grid0,1
2,0.15501520037651062,0.6568537354469299,0.7270522713661194,0.18186578154563904,0.7237661480903625,0.3805276155471802,0.7280917167663574,0.2508343756198883,0.182973712682724,0.04437704011797905,0.45618343353271484,26.81203007518797,0.17067098697945074,0.31324393225853686,Lombrics_valid_4_grid0,2
3,0.15814872086048126,0.6821191906929016,0.7298679351806641,0.2233271598815918,0.7356077432632446,0.40095198154449463,0.7351311445236206,0.2567663788795471,0.18685533106327057,0.03434717282652855,0.4702622890472412,26.662650602409638,0.17108049083241333,0.30168572685596473,Lombrics_valid_4_grid0,3
4,0.13961641490459442,0.6560077667236328,0.7307233214378357,0.18675963580608368,0.7076380848884583,0.3581448197364807,0.7172467708587646,0.23023293912410736,0.1657039225101471,0.04052073881030083,0.4344935417175293,28.68217054263566,0.18871027639850851,0.30243311015779295,Lombrics_valid_4_grid0,4
5,0.1675686091184616,0.7020242810249329,0.7440375685691833,0.18795526027679443,0.7203563451766968,0.36975908279418945,0.7500321269035339,0.2705570161342621,0.19766539335250854,0.02175041101872921,0.5000642538070679,26.03071672354949,0.16197140370303817,0.3095395222069065,Lombrics_valid_4_grid1,0
6,0.11349999904632568,0.6998972296714783,0.7068436145782471,0.14075809717178345,0.7102705240249634,0.3441179692745209,0.703201413154602,0.1953248232603073,0.13634726405143738,0.012592644430696964,0.4064028263092041,32.28629032258065,0.22827124196072615,0.22147693536352553,Lombrics_valid_4_grid1,1
7,0.14760448038578033,0.6660533547401428,0.7116932272911072,0.1847398579120636,0.7244911789894104,0.38750141859054565,0.7252411842346191,0.24165554344654083,0.17482011020183563,0.04886174947023392,0.4504823684692383,27.86842105263158,0.17823239559982523,0.30427488983918094,Lombrics_valid_4_grid1,2
8,0.1661680042743683,0.6830652952194214,0.7333211898803711,0.2182590365409851,0.7390542030334473,0.40765613317489624,0.7415381669998169,0.26730841398239136,0.19580191373825073,0.04743323102593422,0.4830763339996338,25.417670682730925,0.16251383855567791,0.31378202101347497,Lombrics_valid_4_grid1,3
9,0.13108614087104797,0.6443798542022705,0.730657696723938,0.19953258335590363,0.6976537108421326,0.3593226373195648,0.7051675319671631,0.21785421669483185,0.15592758357524872,0.015682414174079895,0.41033506393432617,28.96124031007752,0.1939416011434983,0.2807799791938413,Lombrics_valid_4_grid1,4
10,0.1810579150915146,0.7012145519256592,0.7375792860984802,0.199600487947464,0.7226128578186035,0.37127721309661865,0.7587710618972778,0.2878032326698303,0.21259881556034088,0.03408767655491829,0.5175421237945557,23.62457337883959,0.14817012459137527,0.31743034370042056,Lombrics_valid_4_grid2,0
11,0.1587778627872467,0.651593029499054,0.7320911288261414,0.16623030602931976,0.7305092811584473,0.3641892373561859,0.7331242561340332,0.25533628463745117,0.18707582354545593,0.015139393508434296,0.4662485122680664,25.088709677419356,0.16437341636930355,0.2971667162331978,Lombrics_valid_4_grid2,1
12,0.1632896363735199,0.6301748156547546,0.7206636667251587,0.19065509736537933,0.7248651385307312,0.38339731097221375,0.7246001958847046,0.25937148928642273,0.1916942000389099,0.03623317554593086,0.4492003917694092,24.56015037593985,0.1585426172088116,0.3080941285820303,Lombrics_valid_4_grid2,2
13,0.18255728483200073,0.7010406851768494,0.7389607429504395,0.23508508503437042,0.7500644326210022,0.42522716522216797,0.7589437961578369,0.2896794378757477,0.21424855291843414,0.03910486772656441,0.5178875923156738,24.100401606425702,0.15265388860860712,0.3260600622176677,Lombrics_valid_4_grid2,3
14,0.15689493715763092,0.6482558250427246,0.7330582737922668,0.18317535519599915,0.7136617302894592,0.3702244460582733,0.7286888360977173,0.25264349579811096,0.1849292367696762,0.013574215583503246,0.45737767219543457,24.910852713178294,0.16228595702581214,0.30006731435514344,Lombrics_valid_4_grid2,4
15,0.18607135117053986,0.7052631378173828,0.741671085357666,0.19050100445747375,0.7299944162368774,0.375927597284317,0.7633039951324463,0.29445570707321167,0.218197301030159,0.026376167312264442,0.5266079902648926,22.679180887372013,0.14072674668606866,0.3272703096493725,Lombrics_valid_4_grid3,0
16,0.17772714793682098,0.6413155198097229,0.7364258170127869,0.19458988308906555,0.7321402430534363,0.3782721757888794,0.7410075664520264,0.2783229351043701,0.20776452124118805,0.031968116760253906,0.48201513290405273,22.842741935483872,0.14635728214239685,0.31101611698051645,Lombrics_valid_4_grid3,1
17,0.15627822279930115,0.6366145610809326,0.7140508890151978,0.19744470715522766,0.7200751304626465,0.3821605443954468,0.7219938039779663,0.2509519159793854,0.18405233323574066,0.03425974026322365,0.4439876079559326,25.19924812030075,0.16819686430295816,0.2927673460687507,Lombrics_valid_4_grid3,2
18,0.17572815716266632,0.6849574446678162,0.7364838123321533,0.21828019618988037,0.7482421398162842,0.4203525185585022,0.7487494349479675,0.2796986699104309,0.20642071962356567,0.03110971301794052,0.49749886989593506,24.413654618473895,0.16087755531796144,0.303219833415157,Lombrics_valid_4_grid3,3
19,0.15673606097698212,0.6346899271011353,0.7180174589157104,0.1718774288892746,0.7065194249153137,0.36595505475997925,0.7237907648086548,0.2513912618160248,0.18452781438827515,0.004857098683714867,0.44758152961730957,24.74418604651163,0.164472730352749,0.28065365181200336,Lombrics_valid_4_grid3,4
20,0.14912432432174683,0.6963562965393066,0.7216710448265076,0.18170690536499023,0.6982757449150085,0.35332566499710083,0.7331308126449585,0.24564409255981445,0.17693288624286652,0.01641993597149849,0.466261625289917,26.79863481228669,0.17240550925994452,0.2908669457717444,Lombrics_valid_4_grid4,0
21,0.09838935732841492,0.577595055103302,0.6662047505378723,0.12432581186294556,0.6752112507820129,0.32694128155708313,0.6467128992080688,0.16813762485980988,0.11796314269304276,0.008213701657950878,0.2934257984161377,37.354838709677416,0.27468251850559827,0.20279378754531857,Lombrics_valid_4_grid4,1
22,0.14549559354782104,0.6522539258003235,0.7231526374816895,0.1748548448085785,0.7033647298812866,0.35366711020469666,0.7187796831130981,0.23791946470737457,0.1722629815340042,0.012592123821377754,0.4375593662261963,27.172932330827066,0.18257062877994024,0.2724669880805555,Lombrics_valid_4_grid4,2
23,0.15173712372779846,0.6859034895896912,0.716842532157898,0.20626263320446014,0.7121623754501343,0.3741937279701233,0.7310892939567566,0.24850042164325714,0.17973126471042633,0.017187386751174927,0.4621785879135132,27.67871485943775,0.18555846722869015,0.26619380163091383,Lombrics_valid_4_grid4,3
24,0.12514029443264008,0.6482558250427246,0.6907996535301208,0.15366962552070618,0.6696659922599792,0.329971581697464,0.699964165687561,0.2097836434841156,0.14922378957271576,0.028787991032004356,0.39992833137512207,30.46511627906977,0.21263736356465202,0.2559399352114692,Lombrics_valid_4_grid4,4
25,0.1475672721862793,0.6704453229904175,0.7178860902786255,0.16849474608898163,0.7058676481246948,0.3552192449569702,0.7230825424194336,0.24189306795597076,0.17483845353126526,0.0116621945053339,0.4461650848388672,27.1740614334471,0.17465120905524767,0.27869225679118687,Lombrics_valid_4_grid5,0
26,0.06854616105556488,0.5097635984420776,0.5637097358703613,0.08601097017526627,0.5978161096572876,0.2648291289806366,0.5689302682876587,0.12084297090768814,0.08289601653814316,0.0028584524989128113,0.13786053657531738,48.86693548387097,0.3838146272723163,0.14588316325831388,Lombrics_valid_4_grid5,1
27,0.14742015302181244,0.6623734831809998,0.7160840034484863,0.14491623640060425,0.7050855159759521,0.3467380404472351,0.723839521408081,0.2411656230688095,0.17456237971782684,0.027445806190371513,0.4476790428161621,26.484962406015036,0.17975724126203016,0.2665633686176068,Lombrics_valid_4_grid5,2
28,0.14604462683200836,0.6811731457710266,0.71100914478302,0.18590350449085236,0.7012019157409668,0.36773231625556946,0.724390983581543,0.2405211478471756,0.17326851189136505,0.033638011664152145,0.44878196716308594,28.265060240963855,0.19295149853706955,0.266013205920679,Lombrics_valid_4_grid5,3
29,0.12952271103858948,0.6521317958831787,0.6906589865684509,0.16380520164966583,0.6701248288154602,0.3237738013267517,0.7059904932975769,0.21612074971199036,0.1542445719242096,0.016872169449925423,0.4119809865951538,29.209302325581394,0.19959563904489366,0.25348337185561154,Lombrics_valid_4_grid5,4
30,0.1468755304813385,0.7060728669166565,0.7263960242271423,0.1642327904701233,0.7047513127326965,0.35367465019226074,0.7342846393585205,0.24316786229610443,0.1745186597108841,0.027295606210827827,0.468569278717041,26.98976109215017,0.17749365971738,0.2851445604909625,Lombrics_valid_4_grid6,0
31,0.09035449475049973,0.5632065534591675,0.564041256904602,0.0896797701716423,0.6040800213813782,0.2790961265563965,0.6293933391571045,0.15572606027126312,0.10858797281980515,-0.0029075394850224257,0.258786678314209,35.33467741935484,0.27299850839847706,0.21349288117377932,Lombrics_valid_4_grid6,1
32,0.1354888379573822,0.647654116153717,0.6970861554145813,0.1653960794210434,0.6914031505584717,0.3380032777786255,0.7080240249633789,0.22409678995609283,0.16094371676445007,0.019394341856241226,0.4160480499267578,28.097744360902254,0.19277145198231216,0.2581912118840076,Lombrics_valid_4_grid6,2
33,0.14868256449699402,0.6726584434509277,0.7334026098251343,0.2086556851863861,0.7267393469810486,0.38548794388771057,0.7239699959754944,0.2435348629951477,0.17612089216709137,0.020397869870066643,0.44793999195098877,26.586345381526105,0.1799634541477202,0.2684582513303683,Lombrics_valid_4_grid6,3
34,0.11260009557008743,0.6676356792449951,0.6845649480819702,0.15596885979175568,0.6689512133598328,0.33043694496154785,0.6896636486053467,0.1927003264427185,0.13505567610263824,0.02460181713104248,0.37932729721069336,31.5968992248062,0.22690303728361647,0.24486839494163656,Lombrics_valid_4_grid6,4
35,0.1300787329673767,0.6688259243965149,0.6881429553031921,0.1417684555053711,0.6725937724113464,0.3281015157699585,0.7048996686935425,0.21779827773571014,0.1550591140985489,0.016824251040816307,0.40979933738708496,29.522184300341298,0.20379419698859902,0.2465654314274301,Lombrics_valid_4_grid7,0
36,0.09687817841768265,0.586844801902771,0.6438188552856445,0.10995107144117355,0.6711498498916626,0.30849719047546387,0.6465648412704468,0.1663026064634323,0.11629800498485565,0.0012745516141876578,0.29312968254089355,35.193548387096776,0.26403615382536505,0.20830281114134716,Lombrics_valid_4_grid7,1
37,0.13658632338047028,0.6412143707275391,0.7041154503822327,0.1562933772802353,0.6979048252105713,0.3478245139122009,0.7070212364196777,0.22520194947719574,0.16210055351257324,0.025816386565566063,0.41404247283935547,27.530075187969924,0.19193921163829303,0.26681985657955803,Lombrics_valid_4_grid7,2
38,0.13677172362804413,0.6773888468742371,0.7133951187133789,0.17512741684913635,0.7103854417800903,0.36305150389671326,0.713970422744751,0.22759059071540833,0.16274946928024292,0.0370427742600441,0.42794084548950195,28.76305220883534,0.20186782398504075,0.2509161964651713,Lombrics_valid_4_grid7,3
39,0.12863150238990784,0.6521317958831787,0.6960394978523254,0.14611412584781647,0.6776613593101501,0.32221075892448425,0.7050347924232483,0.21487869322299957,0.15323315560817719,0.033707741647958755,0.4100695848464966,28.488372093023255,0.20197129306608788,0.2526323997840817,Lombrics_valid_4_grid7,4
