,precision,recall,rocauc,prauc,wrocauc,wprauc,balacc,microf1,microf2,mcc,tss,coverage,lr,lrap,conf,cvblock
0,0.6214098930358887,0.19271254539489746,0.7028189897537231,0.1576942503452301,0.7247557640075684,0.3681589961051941,0.5929566621780396,0.29419034719467163,0.43006864190101624,0.1525181382894516,0.1859133243560791,21.35494880546075,0.10440274999889168,0.510733895269047,Lombrics_valid_4_grid0,0
1,0.5772870779037476,0.19242902100086212,0.7003432512283325,0.14938680827617645,0.7227090001106262,0.3625459671020508,0.5925220251083374,0.2886435389518738,0.4123478829860687,0.12781879305839539,0.1850440502166748,19.70967741935484,0.09543369539388617,0.5137054972492953,Lombrics_valid_4_grid0,1
2,0.5953757166862488,0.19563153386116028,0.6808018088340759,0.17184333503246307,0.7411420941352844,0.38980621099472046,0.5942128896713257,0.2944960594177246,0.4226508140563965,0.13539911806583405,0.18842577934265137,18.80075187969925,0.09289292239997388,0.5250155029038441,Lombrics_valid_4_grid0,2
3,0.6076695919036865,0.19903381168842316,0.7335303425788879,0.21670183539390564,0.7420715093612671,0.3939589858055115,0.5958505868911743,0.29985442757606506,0.4307820796966553,0.11792352050542831,0.19170117378234863,19.971887550200805,0.10202826657054233,0.5208564217230527,Lombrics_valid_4_grid0,3
4,0.5901639461517334,0.20074349641799927,0.7065924406051636,0.19837525486946106,0.718133807182312,0.3794366121292114,0.5963802337646484,0.29958391189575195,0.4251968562602997,0.15125934779644012,0.19276046752929688,20.550387596899224,0.0956236599012995,0.5169746442608949,Lombrics_valid_4_grid0,4
5,0.5794979333877563,0.22429150342941284,0.7256491780281067,0.1861492246389389,0.733601987361908,0.3774718642234802,0.6074331998825073,0.32340922951698303,0.4401017129421234,0.12630251049995422,0.21486639976501465,20.071672354948806,0.09647191042198026,0.5049030695421798,Lombrics_valid_4_grid1,0
6,0.5380577445030212,0.21556256711483002,0.7347461581230164,0.1560828983783722,0.7267106771469116,0.36827218532562256,0.6029314398765564,0.3078078031539917,0.4141414165496826,0.17939399182796478,0.2058628797531128,18.455645161290324,0.09252122555699466,0.516092434373753,Lombrics_valid_4_grid1,1
7,0.5399060845375061,0.21842354536056519,0.6849425435066223,0.175028458237648,0.7232980132102966,0.36902254819869995,0.6041677594184875,0.31102094054222107,0.4171200394630432,0.0999869778752327,0.2083355188369751,19.93609022556391,0.09949957185744862,0.5129792775066667,Lombrics_valid_4_grid1,2
8,0.590452253818512,0.22705313563346863,0.7177542448043823,0.20774702727794647,0.7325654625892639,0.38449299335479736,0.6090332269668579,0.3279832601547241,0.44727823138237,0.13622106611728668,0.21806645393371582,21.3574297188755,0.11061577856064583,0.5079671344329141,Lombrics_valid_4_grid1,3
9,0.54347825050354,0.20910780131816864,0.6622802019119263,0.1561339795589447,0.7063313722610474,0.3634026050567627,0.5995246171951294,0.3020133972167969,0.41178619861602783,0.08074190467596054,0.1990492343902588,22.670542635658915,0.10951486365583532,0.498223523127486,Lombrics_valid_4_grid1,4
10,0.5039123892784119,0.26072874665260315,0.6615934371948242,0.15608534216880798,0.6544618010520935,0.3209976255893707,0.6229321360588074,0.3436499536037445,0.4246900975704193,0.11579657346010208,0.24586427211761475,24.33447098976109,0.12597910203834478,0.46515673027063625,Lombrics_valid_4_grid2,0
11,0.4398496150970459,0.24605678021907806,0.678417980670929,0.13701742887496948,0.6337100863456726,0.30664142966270447,0.6148167252540588,0.3155765235424042,0.3799934685230255,0.08805409073829651,0.22963345050811768,22.370967741935484,0.12220099022703398,0.45311881651183833,Lombrics_valid_4_grid2,1
12,0.48520711064338684,0.23361822962760925,0.6145362257957458,0.15596210956573486,0.6548360586166382,0.3277021050453186,0.6100923418998718,0.3153845965862274,0.3992210626602173,0.06502605974674225,0.22018468379974365,22.860902255639097,0.11903560101025852,0.46110680203661886,Lombrics_valid_4_grid2,2
13,0.4868154227733612,0.23188406229019165,0.6360378265380859,0.15786555409431458,0.6504178047180176,0.31465086340904236,0.6089677214622498,0.3141361474990845,0.39906883239746094,0.09967878460884094,0.2179354429244995,25.823293172690764,0.1418111549235422,0.45591438132140893,Lombrics_valid_4_grid2,3
14,0.5010183453559875,0.22862453758716583,0.6919838786125183,0.16888894140720367,0.6793288588523865,0.33524200320243835,0.607792854309082,0.3139757513999939,0.40460526943206787,0.09690408408641815,0.21558570861816406,21.32170542635659,0.10629284191275154,0.4861425542656389,Lombrics_valid_4_grid2,4
15,0.287937730550766,0.2995951473712921,0.6531665325164795,0.12949766218662262,0.5740343332290649,0.25696131587028503,0.6283448934555054,0.2936507761478424,0.290196031332016,0.03890120983123779,0.25668978691101074,38.42662116040955,0.22091270016679018,0.3560666684968168,Lombrics_valid_4_grid3,0
16,0.309359610080719,0.33017876744270325,0.6325628757476807,0.09919575601816177,0.5734906196594238,0.25928816199302673,0.6457727551460266,0.31943029165267944,0.3133107125759125,0.020753968507051468,0.2915455102920532,36.29032258064516,0.2153504040898077,0.3911306590087782,Lombrics_valid_4_grid3,1
17,0.33141762018203735,0.3285849988460541,0.5995749235153198,0.10573399811983109,0.5908288955688477,0.2675848603248596,0.6463296413421631,0.3299952447414398,0.3308471739292145,0.014379093423485756,0.29265928268432617,37.225563909774436,0.21038976480015842,0.38230653930159714,Lombrics_valid_4_grid3,2
18,0.2948090136051178,0.29082125425338745,0.5665196180343628,0.09692885726690292,0.5793061852455139,0.2658771872520447,0.6255627870559692,0.29280155897140503,0.2940027415752411,0.052570927888154984,0.2511255741119385,41.261044176706825,0.2500066988124588,0.34632166161255745,Lombrics_valid_4_grid3,3
19,0.3407767117023468,0.3262081742286682,0.621806800365448,0.1254851073026657,0.5841731429100037,0.2686429023742676,0.645035982131958,0.3333333432674408,0.3377598524093628,-0.019363105297088623,0.290071964263916,35.48449612403101,0.1936435585534246,0.39331949649544945,Lombrics_valid_4_grid3,4
20,0.625668466091156,0.1894736886024475,0.6877407431602478,0.1336432844400406,0.7229987382888794,0.3609500825405121,0.5914545059204102,0.29086390137672424,0.4284144937992096,0.1564643532037735,0.1829090118408203,21.33447098976109,0.10391846145321616,0.5089608618282283,Lombrics_valid_4_grid4,0
21,0.5542168617248535,0.19348055124282837,0.7025807499885559,0.15015947818756104,0.7226179242134094,0.36041688919067383,0.59266197681427,0.28682777285575867,0.4036858379840851,0.07354076206684113,0.18532395362854004,19.41532258064516,0.09625000929051403,0.5122368553737091,Lombrics_valid_4_grid4,1
22,0.5899999737739563,0.16809116303920746,0.5661545991897583,0.09490304440259933,0.6509532928466797,0.3125832974910736,0.5808802247047424,0.2616407871246338,0.39280956983566284,0.05434983968734741,0.16176044940948486,24.842105263157894,0.1317994714660234,0.4706719136115272,Lombrics_valid_4_grid4,2
23,0.6366459727287292,0.19806763529777527,0.7180494070053101,0.1630498766899109,0.7368854880332947,0.3840491771697998,0.5958085656166077,0.3021370768547058,0.4412398040294647,0.11799297481775284,0.19161713123321533,21.630522088353413,0.11301107280422519,0.5081513446951856,Lombrics_valid_4_grid4,3
24,0.6330274939537048,0.1923791766166687,0.6556857228279114,0.15073171257972717,0.6977898478507996,0.3565590977668762,0.59299635887146,0.2950819432735443,0.4341442286968231,0.1235969066619873,0.18599271774291992,22.786821705426355,0.11425424173793684,0.5045170930919118,Lombrics_valid_4_grid4,4
25,0.5990338325500488,0.20080971717834473,0.6967988610267639,0.15612992644309998,0.7183549404144287,0.37134888768196106,0.5965129137039185,0.30078837275505066,0.4289173483848572,0.10459016263484955,0.19302582740783691,21.53924914675768,0.1071034772295956,0.5073035311555131,Lombrics_valid_4_grid5,0
26,0.6380367875099182,0.21871714293956757,0.7296388149261475,0.155002161860466,0.7252858281135559,0.3780556619167328,0.6061069965362549,0.3257634937763214,0.4611973464488983,0.11443062871694565,0.21221399307250977,18.838709677419356,0.09375233486269743,0.5296521889784124,Lombrics_valid_4_grid5,1
27,0.5668789744377136,0.16904082894325256,0.5962328910827637,0.10296431183815002,0.6563907861709595,0.31661322712898254,0.5810204744338989,0.26042428612709045,0.38544827699661255,0.05296606943011284,0.16204094886779785,23.93609022556391,0.12679802157398706,0.4646551119790847,Lombrics_valid_4_grid5,2
28,0.6118980050086975,0.208695650100708,0.7148727178573608,0.19848600029945374,0.7421202659606934,0.39388883113861084,0.6005712151527405,0.31123918294906616,0.44135674834251404,0.14301620423793793,0.20114243030548096,21.092369477911646,0.1078299665395589,0.5164647299498513,Lombrics_valid_4_grid5,3
29,0.5806451439857483,0.20074349641799927,0.6632976531982422,0.15459541976451874,0.698381245136261,0.3551899492740631,0.5962206125259399,0.2983425259590149,0.42121684551239014,0.12735964357852936,0.19244122505187988,21.54263565891473,0.10769415998715023,0.501311295789846,Lombrics_valid_4_grid5,4
30,0.47311827540397644,0.1781376451253891,0.5986223816871643,0.09192286431789398,0.6130662560462952,0.277435302734375,0.583324670791626,0.25882354378700256,0.35541197657585144,0.030521826818585396,0.16664934158325195,25.965870307167236,0.13972946726218413,0.4404652085835793,Lombrics_valid_4_grid6,0
31,0.4089887738227844,0.19137749075889587,0.6285862326622009,0.08761855959892273,0.6204879283905029,0.27935266494750977,0.5884415507316589,0.26074498891830444,0.3332112729549408,0.06698065251111984,0.17688310146331787,23.97983870967742,0.1324501302999948,0.4333687710775003,Lombrics_valid_4_grid6,1
32,0.4593175947666168,0.16619183123111725,0.5275338888168335,0.07816178351640701,0.5766603946685791,0.2760230600833893,0.5777945518493652,0.24407252669334412,0.33954209089279175,0.01372233871370554,0.15558910369873047,27.627819548872182,0.1563752882921922,0.41934377857018623,Lombrics_valid_4_grid6,2
33,0.522522509098053,0.16811594367027283,0.5837342143058777,0.085804283618927,0.595754086971283,0.2785489559173584,0.5796748995780945,0.25438597798347473,0.36755385994911194,0.057011984288692474,0.15934979915618896,27.269076305220885,0.1568048435664551,0.4172168080760653,Lombrics_valid_4_grid6,3
34,0.519444465637207,0.1737918257713318,0.5763332843780518,0.10520903021097183,0.6004927158355713,0.30250728130340576,0.5822924375534058,0.2604457139968872,0.37162163853645325,0.03549320995807648,0.16458487510681152,25.74031007751938,0.1388356490074197,0.45430623454137026,Lombrics_valid_4_grid6,4
35,0.35014837980270386,0.19109311699867249,0.6403645873069763,0.11194831132888794,0.5788150429725647,0.2639943063259125,0.5852773785591125,0.24724985659122467,0.3001781105995178,0.02506319247186184,0.1705547571182251,25.747440273037544,0.1431812491674567,0.38901590376067385,Lombrics_valid_4_grid7,0
36,0.31271877884864807,0.28180861473083496,0.670045793056488,0.11555404216051102,0.5746088624000549,0.2581501603126526,0.6246739625930786,0.29646018147468567,0.30600592494010925,0.0500711165368557,0.24934792518615723,24.879032258064516,0.14049637511341959,0.39573926005277754,Lombrics_valid_4_grid7,1
37,0.38273194432258606,0.28205129504203796,0.627777636051178,0.12283992767333984,0.6308242082595825,0.30348891019821167,0.6286987066268921,0.3247676193714142,0.3572287857532501,0.05875915288925171,0.2573974132537842,23.76691729323308,0.12863940658555345,0.42669867922891763,Lombrics_valid_4_grid7,2
38,0.3552631437778473,0.2869565188884735,0.6430609822273254,0.13305506110191345,0.6134012341499329,0.2889679968357086,0.6286199688911438,0.3174772560596466,0.33911848068237305,0.03834583982825279,0.2572399377822876,24.83132530120482,0.1368952552262019,0.41756450637484266,Lombrics_valid_4_grid7,3
39,0.36263737082481384,0.306691437959671,0.6354092359542847,0.12186169624328613,0.6011057496070862,0.27537402510643005,0.6379119753837585,0.3323262631893158,0.34987276792526245,-0.025181686505675316,0.2758239507675171,25.100775193798448,0.1361057571042304,0.42976631202830295,Lombrics_valid_4_grid7,4
