,precision,recall,rocauc,prauc,wrocauc,wprauc,balacc,microf1,microf2,mcc,tss,coverage,lr,lrap,conf,cvblock
0,0.17830730974674225,0.7028340101242065,0.7464860081672668,0.21905554831027985,0.7377440333366394,0.38733989000320435,0.7576347589492798,0.2844502627849579,0.20959094166755676,0.05308007448911667,0.5152695178985596,24.713310580204777,0.14761777478534277,0.3491208469041149,Lombrics_valid_4_grid0,0
1,0.13493530452251434,0.6752312183380127,0.729732096195221,0.17361898720264435,0.7216474413871765,0.35989558696746826,0.7214096784591675,0.22492296993732452,0.1606435477733612,0.07366806268692017,0.44281935691833496,29.608870967741936,0.20013118497365082,0.30679019775155936,Lombrics_valid_4_grid0,1
2,0.171817347407341,0.6853725910186768,0.7323029041290283,0.20916227996349335,0.7439908981323242,0.39907440543174744,0.7501108646392822,0.27475565671920776,0.20210514962673187,0.04561696946620941,0.5002217292785645,25.041353383458645,0.15744009922461966,0.3420307931717258,Lombrics_valid_4_grid0,2
3,0.17210820317268372,0.6982024312019348,0.7246520519256592,0.21102243661880493,0.7355707287788391,0.3932647109031677,0.7511215209960938,0.27614590525627136,0.20264704525470734,0.03842758759856224,0.5022430419921875,26.634538152610443,0.16792404781195472,0.33088947927878126,Lombrics_valid_4_grid0,3
4,0.15683585405349731,0.6647287011146545,0.7352247834205627,0.1955261528491974,0.7240687012672424,0.37762078642845154,0.7344563007354736,0.25379207730293274,0.1851252168416977,0.061219826340675354,0.46891260147094727,26.724806201550386,0.1733434038168258,0.3254530651343098,Lombrics_valid_4_grid0,4
5,0.172258198261261,0.7109311819076538,0.7345929741859436,0.17248797416687012,0.7348213791847229,0.38397255539894104,0.7565487623214722,0.27732154726982117,0.20302456617355347,0.031079009175300598,0.5130975246429443,26.01023890784983,0.15625287308342453,0.32050490635046375,Lombrics_valid_4_grid1,0
6,0.1227836012840271,0.6618704795837402,0.6949540972709656,0.18858538568019867,0.7027050256729126,0.3489547073841095,0.7039971351623535,0.20714056491851807,0.14667698740959167,0.021486902609467506,0.40799427032470703,32.556451612903224,0.222072398936242,0.2640633705065599,Lombrics_valid_4_grid1,1
7,0.15945181250572205,0.6743330359458923,0.7259883880615234,0.1953158676624298,0.7399259209632874,0.389383465051651,0.7375532388687134,0.25791695713996887,0.18818999826908112,0.05651340261101723,0.47510647773742676,26.383458646616543,0.17063969683955932,0.31465763635234123,Lombrics_valid_4_grid1,2
8,0.16475972533226013,0.6811731457710266,0.7220512628555298,0.2186555564403534,0.7299953103065491,0.3949897885322571,0.7398468852043152,0.2653399705886841,0.19420617818832397,0.025427015498280525,0.47969377040863037,26.987951807228917,0.17465920817781921,0.3115661447328465,Lombrics_valid_4_grid1,3
9,0.14957544207572937,0.6656976938247681,0.7220064997673035,0.17268897593021393,0.7172530889511108,0.374056875705719,0.7291533946990967,0.24426665902137756,0.17702534794807434,0.05266431346535683,0.45830678939819336,27.833333333333332,0.18100481507773336,0.30057182715620345,Lombrics_valid_4_grid1,4
10,0.19562742114067078,0.695546567440033,0.7218919396400452,0.16815835237503052,0.734404444694519,0.3797966241836548,0.7649635672569275,0.30536794662475586,0.2284696102142334,0.0518421046435833,0.529927134513855,22.795221843003414,0.1330951015804351,0.3471087252204779,Lombrics_valid_4_grid2,0
11,0.18166188895702362,0.651593029499054,0.7120091915130615,0.17932333052158356,0.7333475351333618,0.3757398724555969,0.7470016479492188,0.2841138243675232,0.21228154003620148,0.06533505767583847,0.4940032958984375,23.157258064516128,0.14614090753618322,0.34206073515547414,Lombrics_valid_4_grid2,1
12,0.1817724108695984,0.6642134189605713,0.7144433856010437,0.20739209651947021,0.7423554062843323,0.39430442452430725,0.7483222484588623,0.2854319214820862,0.21266567707061768,0.04348890855908394,0.4966444969177246,23.018796992481203,0.14575562813338475,0.3330084290162577,Lombrics_valid_4_grid2,2
13,0.1955154538154602,0.6764427423477173,0.722348153591156,0.2138427346944809,0.7398490309715271,0.3998125493526459,0.7570224404335022,0.3033517003059387,0.22792476415634155,0.03935569152235985,0.5140448808670044,23.253012048192772,0.14476198046646313,0.3313307606721213,Lombrics_valid_4_grid2,3
14,0.177389457821846,0.6492248177528381,0.7247353792190552,0.1794382631778717,0.7296196818351746,0.38346508145332336,0.7421286106109619,0.2786442041397095,0.20755885541439056,0.0456402450799942,0.48425722122192383,23.065891472868216,0.14431605603333383,0.3233509130442345,Lombrics_valid_4_grid2,4
15,0.20150521397590637,0.6720647811889648,0.704732358455658,0.18602041900157928,0.7274522185325623,0.3790525794029236,0.7589199542999268,0.31004855036735535,0.23431764543056488,0.02357451617717743,0.5178399085998535,22.498293515358363,0.13144094965547165,0.3242337850295697,Lombrics_valid_4_grid3,0
16,0.19504447281360626,0.6310380101203918,0.6983126997947693,0.18774090707302094,0.7270548939704895,0.3780476748943329,0.745607852935791,0.2979859411716461,0.22631773352622986,0.05238102003931999,0.49121570587158203,21.93548387096774,0.13656202287064267,0.34089331223152475,Lombrics_valid_4_grid3,1
17,0.19845645129680634,0.6623734831809998,0.7014281749725342,0.175484299659729,0.7404506206512451,0.38663360476493835,0.7562189698219299,0.3054082691669464,0.23078402876853943,0.03058326244354248,0.5124379396438599,22.086466165413533,0.13577275207737838,0.3321161783010202,Lombrics_valid_4_grid3,2
18,0.19988462328910828,0.6556291580200195,0.7152758240699768,0.19810228049755096,0.7342649102210999,0.3909948468208313,0.7512524127960205,0.3063660264015198,0.2321607917547226,0.026320645585656166,0.502504825592041,22.686746987951807,0.14308793584296603,0.31812961255813466,Lombrics_valid_4_grid3,3
19,0.18406979739665985,0.6337209343910217,0.7027750611305237,0.16638509929180145,0.7165907621383667,0.373182475566864,0.7398985624313354,0.2852780818939209,0.21451061964035034,0.042874813079833984,0.4797971248626709,22.472868217054263,0.14079991702328554,0.31487730062837366,Lombrics_valid_4_grid3,4
20,0.1644199788570404,0.7012145519256592,0.7399780750274658,0.20719723403453827,0.7244467735290527,0.38188639283180237,0.7474234104156494,0.26637956500053406,0.19414429366588593,0.031976670026779175,0.49484682083129883,24.822525597269625,0.15543209007526376,0.32073732256493837,Lombrics_valid_4_grid4,0
21,0.09047006070613861,0.577595055103302,0.6453605890274048,0.12657400965690613,0.6347998380661011,0.30353763699531555,0.6329182386398315,0.15643702447414398,0.10882614552974701,0.05421242117881775,0.2658364772796631,41.07258064516129,0.30324621271709906,0.2090404162029932,Lombrics_valid_4_grid4,1
22,0.16439859569072723,0.6890524625778198,0.731266438961029,0.20557817816734314,0.7392780780792236,0.39230072498321533,0.7463823556900024,0.26546165347099304,0.19393092393875122,0.03912918642163277,0.4927647113800049,23.99624060150376,0.15485436804856195,0.3157061341286386,Lombrics_valid_4_grid4,2
23,0.16433177888393402,0.6991485357284546,0.7370134592056274,0.2293541431427002,0.7200837731361389,0.38689833879470825,0.7458537817001343,0.2661145329475403,0.19401419162750244,0.04472589120268822,0.49170756340026855,25.895582329317268,0.1657140351777303,0.31640113469296405,Lombrics_valid_4_grid4,3
24,0.14676889777183533,0.6492248177528381,0.7229145765304565,0.19947391748428345,0.712306559085846,0.36908650398254395,0.7212089896202087,0.23941399157047272,0.17364712059497833,0.047069158405065536,0.4424179792404175,25.569767441860463,0.16982965898239455,0.31579599384130547,Lombrics_valid_4_grid4,4
25,0.16283084452152252,0.6874493956565857,0.7269019484519958,0.18889878690242767,0.7203701734542847,0.37131214141845703,0.7413848638534546,0.26329663395881653,0.1921597123146057,0.057659078389406204,0.4827697277069092,25.269624573378838,0.15956059882191995,0.31928220847677086,Lombrics_valid_4_grid5,0
26,0.10272213816642761,0.6166495084762573,0.6570928692817688,0.13808080554008484,0.6382476091384888,0.303432434797287,0.6637294888496399,0.1761080026626587,0.12326909601688385,0.015738165006041527,0.3274589776992798,37.38306451612903,0.27604729843808334,0.20662435137118826,Lombrics_valid_4_grid5,1
27,0.15095476806163788,0.6908923387527466,0.7255573868751526,0.18620993196964264,0.721200704574585,0.3680044412612915,0.7365521192550659,0.24777300655841827,0.17892026901245117,0.06462547928094864,0.47310423851013184,26.236842105263158,0.17144013680184936,0.3132465345068306,Lombrics_valid_4_grid5,2
28,0.15356451272964478,0.6745505928993225,0.7234441637992859,0.21403169631958008,0.7150530219078064,0.3666408658027649,0.7288076877593994,0.25017544627189636,0.1816190481185913,0.026853159070014954,0.45761537551879883,25.971887550200805,0.17301544867986296,0.3010417648872328,Lombrics_valid_4_grid5,3
29,0.14061224460601807,0.6676356792449951,0.7042319178581238,0.16213279962539673,0.6877272129058838,0.34570860862731934,0.7220253348350525,0.23229940235614777,0.16697365045547485,0.021323148161172867,0.444050669670105,27.868217054263567,0.1884061860389672,0.2770361088010813,Lombrics_valid_4_grid5,4
30,0.14240026473999023,0.6850202679634094,0.7142851948738098,0.17015211284160614,0.7078098058700562,0.36653709411621094,0.7230550050735474,0.23578594624996185,0.16920676827430725,0.02575904317200184,0.4461100101470947,28.16382252559727,0.18481555303363945,0.28570477290984625,Lombrics_valid_4_grid6,0
31,0.11424832046031952,0.6279547810554504,0.6603657007217407,0.1235978752374649,0.680160641670227,0.33377164602279663,0.6832871437072754,0.19332385063171387,0.13659736514091492,0.04672376066446304,0.3665742874145508,31.431451612903224,0.22859000717943068,0.2694361004982838,Lombrics_valid_4_grid6,1
32,0.1543816477060318,0.6936522722244263,0.7165682911872864,0.17760339379310608,0.7321473956108093,0.3695639967918396,0.740355372428894,0.2525539994239807,0.182805597782135,0.023348955437541008,0.4807107448577881,25.7593984962406,0.16667876663125333,0.30685798192287367,Lombrics_valid_4_grid6,2
33,0.14646567404270172,0.6802270412445068,0.7210607528686523,0.17561578750610352,0.7108688354492188,0.3631691634654999,0.7244699001312256,0.24103251099586487,0.17373023927211761,0.027865469455718994,0.44893980026245117,26.662650602409638,0.1848302238413906,0.280769015246396,Lombrics_valid_4_grid6,3
34,0.1296330839395523,0.6744186282157898,0.699201226234436,0.15922215580940247,0.6913594603538513,0.3449687957763672,0.713151752948761,0.21746604144573212,0.15461169183254242,0.05877316743135452,0.426303505897522,27.988372093023255,0.1955304238843674,0.26588542158716827,Lombrics_valid_4_grid6,4
35,0.1364315301179886,0.6655870676040649,0.7046824097633362,0.1662341207265854,0.6982091665267944,0.34724628925323486,0.7108062505722046,0.22644628584384918,0.16222618520259857,0.029497859999537468,0.4216125011444092,28.12286689419795,0.18783328717738462,0.2716545959121485,Lombrics_valid_4_grid7,0
36,0.10909418016672134,0.623843789100647,0.6355224251747131,0.12143273651599884,0.6676376461982727,0.3239622712135315,0.6751619577407837,0.1857120841741562,0.13065564632415771,0.030560115352272987,0.3503239154815674,31.79032258064516,0.23638485079137891,0.24582408848636497,Lombrics_valid_4_grid7,1
37,0.14083954691886902,0.660533607006073,0.7022606134414673,0.17282480001449585,0.7107720375061035,0.3581154942512512,0.7173510789871216,0.23217462003231049,0.16713999211788177,0.031017523258924484,0.43470215797424316,27.17669172932331,0.18052489316993195,0.28488989336940806,Lombrics_valid_4_grid7,2
38,0.15105803310871124,0.6821191906929016,0.7256476879119873,0.20634470880031586,0.7175778746604919,0.37340208888053894,0.7292247414588928,0.2473413497209549,0.1789170801639557,0.04682006686925888,0.45844948291778564,26.502008032128515,0.17933942352805876,0.2866627493187761,Lombrics_valid_4_grid7,3
39,0.1281757354736328,0.6501938104629517,0.692842423915863,0.1492632031440735,0.6808732151985168,0.33280766010284424,0.70393306016922,0.21413755416870117,0.15269432961940765,0.040100496262311935,0.40786612033843994,28.531007751937985,0.20022681754692523,0.25677096369028396,Lombrics_valid_4_grid7,4
