,precision,recall,rocauc,prauc,wrocauc,wprauc,balacc,microf1,microf2,mcc,tss,coverage,lr,lrap,conf,cvblock
0,0.4095562994480133,0.19433198869228363,0.6075348854064941,0.10469509661197662,0.6262792944908142,0.2976114749908447,0.5890538096427917,0.2635914385318756,0.3352891802787781,0.10364174842834473,0.1781076192855835,27.358361774744026,0.14841765460384324,0.42609939804150415,Lombrics_valid_4_grid0,0
1,0.3954918086528778,0.19835560023784637,0.6002674698829651,0.1035102903842926,0.6297840476036072,0.29124507308006287,0.5910389423370361,0.2642025947570801,0.32991451025009155,0.07524731010198593,0.18207788467407227,27.387096774193548,0.15032354732274192,0.42653979710281004,Lombrics_valid_4_grid0,1
2,0.4435318410396576,0.1987120509147644,0.6216756105422974,0.11596677452325821,0.644585132598877,0.30952438712120056,0.5923696756362915,0.27445998787879944,0.35584843158721924,0.0731009766459465,0.184739351272583,25.954887218045112,0.1396508649534648,0.4316480471618881,Lombrics_valid_4_grid0,2
3,0.46038544178009033,0.20340587198734283,0.5763406753540039,0.10147292912006378,0.6382067799568176,0.31794753670692444,0.59474778175354,0.2821522355079651,0.36752134561538696,0.13256560266017914,0.18949556350708008,28.180722891566266,0.14927760917595112,0.44040536367009164,Lombrics_valid_4_grid0,3
4,0.4601941704750061,0.22965116798877716,0.6168316602706909,0.11000315845012665,0.6366150379180908,0.3061365485191345,0.6074452996253967,0.30639949440956116,0.38324710726737976,0.06460312008857727,0.21489059925079346,25.81782945736434,0.1394535925371542,0.4550504056730338,Lombrics_valid_4_grid0,4
5,0.36088475584983826,0.2510121464729309,0.6033594608306885,0.11527895927429199,0.6331425905227661,0.30263400077819824,0.6126344203948975,0.29608404636383057,0.33183470368385315,0.05718693882226944,0.22526884078979492,26.733788395904437,0.14193568059213232,0.41542457000125216,Lombrics_valid_4_grid1,0
6,0.39593908190727234,0.2404933124780655,0.6655485033988953,0.10917547345161438,0.6503751277923584,0.302619069814682,0.6103972792625427,0.29923272132873535,0.3506143093109131,0.03772518038749695,0.22079455852508545,23.467741935483872,0.12761772223579698,0.4287013076060948,Lombrics_valid_4_grid1,1
7,0.38193345069885254,0.22171112895011902,0.6402551531791687,0.10952944308519363,0.6494482755661011,0.31000980734825134,0.600801408290863,0.2805587649345398,0.33370256423950195,0.10701801627874374,0.20160281658172607,25.81954887218045,0.14198283329194436,0.4173075766961101,Lombrics_valid_4_grid1,2
8,0.32992327213287354,0.24408704042434692,0.6158255934715271,0.10832968354225159,0.635800302028656,0.31756824254989624,0.6075811386108398,0.2805872857570648,0.3082437217235565,0.10445437580347061,0.2151622772216797,27.473895582329316,0.15464174569777647,0.3976956060237119,Lombrics_valid_4_grid1,3
9,0.3664233684539795,0.24321705102920532,0.6321812868118286,0.10468413680791855,0.6252603530883789,0.2973686456680298,0.6100867986679077,0.29237040877342224,0.3327147364616394,0.09219078719615936,0.22017359733581543,25.72093023255814,0.14257044809394054,0.4205627610885682,Lombrics_valid_4_grid1,4
10,0.2857142984867096,0.3238866329193115,0.5613318681716919,0.09622690081596375,0.5576657652854919,0.2748364210128784,0.6384977698326111,0.303605318069458,0.29261156916618347,0.014169495552778244,0.27699553966522217,30.170648464163822,0.1748635860026888,0.3710521112993227,Lombrics_valid_4_grid2,0
11,0.2699275314807892,0.30626925826072693,0.5597898960113525,0.0734226331114769,0.5450297594070435,0.24065685272216797,0.6308977007865906,0.28695231676101685,0.27648913860321045,0.029720252379775047,0.26179540157318115,27.205645161290324,0.16587314062678243,0.383556582423999,Lombrics_valid_4_grid2,1
12,0.2807794511318207,0.29162833094596863,0.5697205066680908,0.09194904565811157,0.5695805549621582,0.26555463671684265,0.6248809099197388,0.2861010730266571,0.2828841805458069,0.06276402622461319,0.24976181983947754,29.015037593984964,0.16899202002729047,0.37444433657951637,Lombrics_valid_4_grid2,2
13,0.3034420311450958,0.316934734582901,0.6243087649345398,0.10544662922620773,0.5975173711776733,0.279588907957077,0.6372430324554443,0.3100416660308838,0.30604788661003113,-0.005376038607209921,0.27448606491088867,26.473895582329316,0.14739693867929365,0.39741840827907143,Lombrics_valid_4_grid2,3
14,0.2370723932981491,0.28875967860221863,0.6187790632247925,0.09180492907762527,0.5480559468269348,0.23920239508152008,0.6189205646514893,0.2603757083415985,0.24587459862232208,-0.031068570911884308,0.23784112930297852,25.26356589147287,0.14914197608014193,0.36413383042189706,Lombrics_valid_4_grid2,4
15,0.20419764518737793,0.37813764810562134,0.5641146898269653,0.09605497121810913,0.5553617477416992,0.2587674856185913,0.6463979482650757,0.2651902139186859,0.22488683462142944,0.03419693559408188,0.29279589653015137,40.54948805460751,0.2589763297714826,0.34520265796304433,Lombrics_valid_4_grid3,0
16,0.16787941753864288,0.3319630026817322,0.5564558506011963,0.08465549349784851,0.5175901055335999,0.2264150083065033,0.6218111515045166,0.2229893058538437,0.1862959861755371,-0.05374504253268242,0.2436223030090332,36.12903225806452,0.23219840104366354,0.3265004740197412,Lombrics_valid_4_grid3,1
17,0.16217565536499023,0.2989880442619324,0.46525782346725464,0.06239395588636398,0.49353328347206116,0.22608992457389832,0.6062096357345581,0.210287943482399,0.1785125881433487,-0.019509870558977127,0.2124192714691162,36.86466165413534,0.2464076404149862,0.2580592009746532,Lombrics_valid_4_grid3,2
18,0.2349570244550705,0.3878902494907379,0.584925651550293,0.12170272320508957,0.5825758576393127,0.28175029158592224,0.6570992469787598,0.2926481068134308,0.255070298910141,0.06532721221446991,0.31419849395751953,37.57831325301205,0.2240806887572259,0.35701528277890476,Lombrics_valid_4_grid3,3
19,0.18569329380989075,0.3672480583190918,0.5788469910621643,0.09793557226657867,0.5622788071632385,0.25875911116600037,0.639501690864563,0.24666450917720795,0.20606786012649536,0.06814271956682205,0.279003381729126,37.565891472868216,0.23086077246436637,0.33465057946866733,Lombrics_valid_4_grid3,4
20,0.5830815434455872,0.15627530217170715,0.5319316983222961,0.07877185940742493,0.5655682682991028,0.2647866904735565,0.5749021768569946,0.2464878410100937,0.37710040807724,0.07379607111215591,0.14980435371398926,28.33447098976109,0.156538646732303,0.45259773675034987,Lombrics_valid_4_grid4,0
21,0.43916913866996765,0.1521068811416626,0.5086267590522766,0.07010739296674728,0.5813249349594116,0.2620358467102051,0.5708390474319458,0.22595417499542236,0.3188280761241913,0.03881967067718506,0.1416780948638916,31.544354838709676,0.18493704789790685,0.398464516950236,Lombrics_valid_4_grid4,1
22,0.495356023311615,0.14719411730766296,0.525363564491272,0.07719665765762329,0.5725592374801636,0.259782075881958,0.5693949460983276,0.22695036232471466,0.33627575635910034,-0.0017184042371809483,0.13878989219665527,27.041353383458645,0.14730116529993245,0.4371614904568943,Lombrics_valid_4_grid4,2
23,0.614814817905426,0.15704825520515442,0.554947018623352,0.09661738574504852,0.6104715466499329,0.3019404411315918,0.5756537318229675,0.250188410282135,0.38839495182037354,0.08567055314779282,0.15130746364593506,27.83132530120482,0.15128611675945167,0.47729158140909844,Lombrics_valid_4_grid4,3
24,0.4872521162033081,0.1666666716337204,0.5330888032913208,0.08436647057533264,0.6065933704376221,0.2762252390384674,0.5785281658172607,0.24837546050548553,0.3518821895122528,0.10260633379220963,0.15705633163452148,27.294573643410853,0.14928365126526075,0.46353474716790666,Lombrics_valid_4_grid4,4
25,0.48812663555145264,0.14979757368564606,0.5058053731918335,0.07520006597042084,0.5462576150894165,0.25875145196914673,0.5703503489494324,0.22924411296844482,0.33624133467674255,0.0037829470820724964,0.14070069789886475,34.24232081911263,0.19321579182591817,0.39146008527908177,Lombrics_valid_4_grid5,0
26,0.36385542154312134,0.1551901400089264,0.5307530760765076,0.0754646435379982,0.5657994151115417,0.2604062855243683,0.5703114867210388,0.21757924556732178,0.2867451310157776,0.0765717476606369,0.14062297344207764,31.616935483870968,0.17734200656795668,0.3838167648957303,Lombrics_valid_4_grid5,1
27,0.5353845953941345,0.16007359325885773,0.5390489101409912,0.0841045007109642,0.5775559544563293,0.2707189917564392,0.5761440396308899,0.24645891785621643,0.36447420716285706,0.06317156553268433,0.15228807926177979,27.853383458646615,0.15541986732616941,0.4395952378150009,Lombrics_valid_4_grid5,2
28,0.44836270809173584,0.16840113699436188,0.5323877930641174,0.08129087090492249,0.5705637335777283,0.26918232440948486,0.5781561732292175,0.2448418140411377,0.336483895778656,0.06444907933473587,0.15631234645843506,28.63855421686747,0.16064191691816204,0.4453493946195239,Lombrics_valid_4_grid5,3
29,0.5603715181350708,0.17538759112358093,0.5375003814697266,0.08033466339111328,0.56403648853302,0.2545146942138672,0.5839239954948425,0.2671586573123932,0.38941478729248047,0.08604543656110764,0.16784799098968506,26.58139534883721,0.1503516874965128,0.4524477865086968,Lombrics_valid_4_grid5,4
30,0.22674813866615295,0.2704453468322754,0.4831889271736145,0.06753277778625488,0.5118221640586853,0.24435755610466003,0.6085181832313538,0.2466765195131302,0.23432020843029022,-0.01052410714328289,0.21703636646270752,31.44368600682594,0.18790314082468673,0.3426815288600983,Lombrics_valid_4_grid6,0
31,0.22204214334487915,0.28160327672958374,0.5259788036346436,0.06857987493276596,0.5332202315330505,0.23098118603229523,0.6143159866333008,0.24830086529254913,0.23184974491596222,-0.015439370647072792,0.22863197326660156,30.205645161290324,0.1856730209801954,0.3404140940999222,Lombrics_valid_4_grid6,1
32,0.2452642023563385,0.22631095349788666,0.5316944122314453,0.10069671273231506,0.5296242833137512,0.24837805330753326,0.593640148639679,0.23540671169757843,0.2412237823009491,0.00857565551996231,0.1872802972793579,30.097744360902254,0.1797419826448253,0.3441936301805469,Lombrics_valid_4_grid6,2
33,0.23000898957252502,0.24219489097595215,0.513353168964386,0.07624956965446472,0.5169891715049744,0.25187787413597107,0.5974442958831787,0.2359447032213211,0.23234707117080688,-0.05225794017314911,0.19488859176635742,34.51004016064257,0.21752421943835346,0.3061838836331868,Lombrics_valid_4_grid6,3
34,0.20716510713100433,0.2577519416809082,0.5166616439819336,0.06877786666154861,0.5193160176277161,0.23992519080638885,0.6018503904342651,0.22970637679100037,0.21562905609607697,-0.004353996366262436,0.20370078086853027,32.007751937984494,0.19505921863689626,0.3383901596561419,Lombrics_valid_4_grid6,4
35,0.21221864223480225,0.3740890622138977,0.5344300270080566,0.06896094232797623,0.5438847541809082,0.25995051860809326,0.6468353867530823,0.2708089053630829,0.2323242425918579,0.04937291517853737,0.29367077350616455,34.44027303754266,0.19731095386764305,0.3860382664032534,Lombrics_valid_4_grid7,0
36,0.20984315872192383,0.3987666964530945,0.5391210317611694,0.07046990841627121,0.5510860681533813,0.2490016222000122,0.6590754389762878,0.2749822735786438,0.2318078577518463,0.052695345133543015,0.3181508779525757,34.21370967741935,0.19622698678506925,0.398629642887263,Lombrics_valid_4_grid7,1
37,0.20508401095867157,0.4379024803638458,0.4566097557544708,0.0612778402864933,0.5103373527526855,0.22712497413158417,0.6713874340057373,0.2793427109718323,0.22948606312274933,0.0,0.3427748680114746,40.70676691729323,0.2335142993693897,0.40559489507000407,Lombrics_valid_4_grid7,2
38,0.2626325786113739,0.3982970714569092,0.5618428587913513,0.09238038212060928,0.5943937301635742,0.3024426996707916,0.6665254831314087,0.3165413439273834,0.2818315625190735,0.024890514090657234,0.3330509662628174,32.200803212851405,0.1807517429987849,0.38613269655555665,Lombrics_valid_4_grid7,3
39,0.2194373458623886,0.4156976640224457,0.5482597351074219,0.07196272164583206,0.5375338196754456,0.24943174421787262,0.6673370003700256,0.2872447371482849,0.24231812357902527,0.07200547307729721,0.33467400074005127,32.224806201550386,0.18869628015120024,0.4188122599228312,Lombrics_valid_4_grid7,4
