,precision,recall,rocauc,prauc,wrocauc,wprauc,balacc,microf1,microf2,mcc,tss,coverage,lr,lrap,conf,cvblock
0,0.4714038074016571,0.2202429175376892,0.6207828521728516,0.10768000036478043,0.6570112109184265,0.32277777791023254,0.6029706001281738,0.3002207577228546,0.3838554918766022,0.13360166549682617,0.20594120025634766,28.55631399317406,0.1514495060526042,0.44265590732260024,Lombrics_valid_4_grid0,0
1,0.43648961186408997,0.19873817265033722,0.630539059638977,0.09805046766996384,0.6568804383277893,0.3046972453594208,0.5926454663276672,0.2731213867664337,0.3522176444530487,0.04746546223759651,0.18529093265533447,24.81048387096774,0.1373629688118315,0.4497540447124915,Lombrics_valid_4_grid0,1
2,0.40607210993766785,0.2032288759946823,0.5959714651107788,0.10095300525426865,0.6433500051498413,0.296827107667923,0.5935594439506531,0.270886093378067,0.3385004997253418,0.052979476749897,0.18711888790130615,26.50375939849624,0.14461919094534625,0.4340415305078405,Lombrics_valid_4_grid0,2
3,0.4681818187236786,0.19903381168842316,0.6072156429290771,0.1198689192533493,0.6529611349105835,0.31966710090637207,0.593066394329071,0.2793220281600952,0.3685151934623718,0.13239505887031555,0.1861327886581421,29.092369477911646,0.16118897681885588,0.45570347270798045,Lombrics_valid_4_grid0,3
4,0.434959352016449,0.1988847553730011,0.6100212335586548,0.11699964106082916,0.6415943503379822,0.31056010723114014,0.5920448303222656,0.2729591727256775,0.3515111804008484,0.0776110291481018,0.18408966064453125,26.709302325581394,0.13664626705137958,0.43565536590941095,Lombrics_valid_4_grid0,4
5,0.41570141911506653,0.26153847575187683,0.6385894417762756,0.12482396513223648,0.6553296446800232,0.31252866983413696,0.6201249361038208,0.3210735619068146,0.3718627691268921,0.05167337507009506,0.2402498722076416,25.699658703071673,0.13762081036679114,0.4244775919332786,Lombrics_valid_4_grid1,0
6,0.32132965326309204,0.24395373463630676,0.6069821715354919,0.09880147129297256,0.6326280236244202,0.29255297780036926,0.6084745526313782,0.27734607458114624,0.3021620213985443,0.057108569890260696,0.21694910526275635,27.693548387096776,0.15797756399739105,0.37861465507454145,Lombrics_valid_4_grid1,1
7,0.364632248878479,0.2212725579738617,0.6172577738761902,0.12427270412445068,0.6374040842056274,0.2988645136356354,0.6001879572868347,0.27541372179985046,0.32280412316322327,0.028558487072587013,0.20037591457366943,24.296992481203006,0.13581614856220217,0.4147503411122746,Lombrics_valid_4_grid1,2
8,0.3315649926662445,0.2415459007024765,0.6447744369506836,0.11190249770879745,0.6368733048439026,0.29619356989860535,0.606879472732544,0.2794857621192932,0.30856582522392273,0.03368404135107994,0.2137589454650879,27.847389558232933,0.1553193773248725,0.3970405080181794,Lombrics_valid_4_grid1,3
9,0.46481481194496155,0.23327137529850006,0.6270855069160461,0.14186452329158783,0.6463589072227478,0.31849220395088196,0.6089454293251038,0.3106435537338257,0.38782447576522827,0.08374795317649841,0.21789085865020752,25.488372093023255,0.129735262790338,0.45928340550373775,Lombrics_valid_4_grid1,4
10,0.2690984308719635,0.31659919023513794,0.5943801999092102,0.09833315759897232,0.5540401935577393,0.24310815334320068,0.6334004402160645,0.290922611951828,0.27742302417755127,0.03262850642204285,0.2668008804321289,29.918088737201366,0.1682157943691432,0.3674736176621067,Lombrics_valid_4_grid2,0
11,0.27696526050567627,0.3186119794845581,0.5856794118881226,0.09870520234107971,0.570798933506012,0.2586338222026825,0.6375093460083008,0.2963325083255768,0.28440022468566895,0.04041525721549988,0.27501869201660156,27.431451612903224,0.15761274657582097,0.3923622294435807,Lombrics_valid_4_grid2,1
12,0.28723403811454773,0.3076923191547394,0.5841969847679138,0.09231214970350266,0.5922704339027405,0.2696387767791748,0.6331554651260376,0.2971114218235016,0.29110512137413025,0.0819937214255333,0.2663109302520752,26.31203007518797,0.1535492821356748,0.39657707343783943,Lombrics_valid_4_grid2,2
13,0.28322017192840576,0.2821255922317505,0.5532183051109314,0.09396510571241379,0.5309774279594421,0.2355877310037613,0.620691180229187,0.28267183899879456,0.2830005884170532,-0.03416050225496292,0.24138236045837402,31.57831325301205,0.19403393441993852,0.3508802908598507,Lombrics_valid_4_grid2,3
14,0.285594642162323,0.31691449880599976,0.6153683066368103,0.10880988091230392,0.6008944511413574,0.2780027985572815,0.6357589960098267,0.3004405200481415,0.29135337471961975,0.0549299456179142,0.2715179920196533,26.069767441860463,0.1482084446623075,0.39623553878764445,Lombrics_valid_4_grid2,4
15,0.21263259649276733,0.3570850193500519,0.5704454779624939,0.07624626904726028,0.5505646467208862,0.246426060795784,0.6402559280395508,0.26654577255249023,0.23135033249855042,-0.009419525042176247,0.28051185607910156,42.77815699658703,0.27203118232507423,0.32450836721481957,Lombrics_valid_4_grid3,0
16,0.18405215442180634,0.3859095573425293,0.572422206401825,0.08861997723579407,0.553348958492279,0.25708529353141785,0.6481214761734009,0.24923598766326904,0.20555618405342102,0.00262986752204597,0.29624295234680176,34.064516129032256,0.21528113622763737,0.3317258771688842,Lombrics_valid_4_grid3,1
17,0.1463996171951294,0.291547954082489,0.4632416367530823,0.06620278209447861,0.48927655816078186,0.21727748215198517,0.5997087955474854,0.1949206441640854,0.1625887155532837,0.0006900508305989206,0.1994175910949707,36.402255639097746,0.24144971886621397,0.2677179966496839,Lombrics_valid_4_grid3,2
18,0.1742386370897293,0.33719807863235474,0.5175868272781372,0.07246744632720947,0.511983335018158,0.23316143453121185,0.6230041980743408,0.2297564297914505,0.19288161396980286,-0.0693826824426651,0.24600839614868164,37.855421686746986,0.24500193093334366,0.31050106825796286,Lombrics_valid_4_grid3,3
19,0.15043839812278748,0.30297398567199707,0.4738326668739319,0.06644029170274734,0.5224105715751648,0.23969918489456177,0.6024981737136841,0.20104840397834778,0.16728243231773376,-0.003483707085251808,0.20499634742736816,40.2093023255814,0.2638040458682981,0.24760384246346062,Lombrics_valid_4_grid3,4
20,0.5245901346206665,0.15546558797359467,0.5660884380340576,0.09097179025411606,0.5809734463691711,0.2661844789981842,0.5736532807350159,0.23985008895397186,0.35568732023239136,0.003017265349626541,0.14730656147003174,28.218430034129693,0.15360465656855066,0.42938832808648225,Lombrics_valid_4_grid4,0
21,0.5351170301437378,0.16824395954608917,0.5771001577377319,0.08027573674917221,0.5849623680114746,0.2625163495540619,0.580291748046875,0.25600001215934753,0.37261292338371277,0.0644712969660759,0.16058349609375,26.294354838709676,0.14693058651390237,0.4257966560061401,Lombrics_valid_4_grid4,1
22,0.5100864768028259,0.16809116303920746,0.5295313000679016,0.09689021110534668,0.578571081161499,0.2655058205127716,0.5796706676483154,0.25285711884498596,0.3625563383102417,0.031167250126600266,0.15934133529663086,27.263157894736842,0.15666718090063556,0.4278765223070425,Lombrics_valid_4_grid4,2
23,0.5283687710762024,0.1439613550901413,0.560083270072937,0.09104162454605103,0.6177831888198853,0.2815391719341278,0.5683143138885498,0.2262718230485916,0.34442901611328125,0.012335218489170074,0.1366286277770996,30.437751004016064,0.16571846266111512,0.44057709207932544,Lombrics_valid_4_grid4,3
24,0.5043988227844238,0.1598512977361679,0.5556272268295288,0.08118613064289093,0.5678128600120544,0.2650032937526703,0.5754285454750061,0.2427663952112198,0.35245898365974426,0.04704154282808304,0.1508570909500122,31.612403100775193,0.17978824693961537,0.4027803555656606,Lombrics_valid_4_grid4,4
25,0.4401622712612152,0.17570850253105164,0.5308082103729248,0.07608029991388321,0.5836331844329834,0.2599096894264221,0.5813832879066467,0.25115740299224854,0.33832240104675293,0.07046648114919662,0.16276657581329346,30.761092150170647,0.17333295340115684,0.41680295260482025,Lombrics_valid_4_grid5,0
26,0.44675925374031067,0.20294426381587982,0.5456870198249817,0.07994334399700165,0.5790870785713196,0.2694600224494934,0.594886302947998,0.2791033983230591,0.36020898818969727,-0.007574073970317841,0.1897726058959961,29.677419354838708,0.17043519295393236,0.4044715091282723,Lombrics_valid_4_grid5,1
27,0.47340425848960876,0.16904082894325256,0.5450924634933472,0.08151347190141678,0.5854648351669312,0.2576485276222229,0.5794249176979065,0.24912524223327637,0.348064124584198,0.06417039781808853,0.158849835395813,25.507518796992482,0.14191107772815817,0.4362642014712717,Lombrics_valid_4_grid5,2
28,0.4984709620475769,0.1574879288673401,0.5219649076461792,0.07581526786088943,0.5513420701026917,0.25334545969963074,0.5742230415344238,0.23935391008853912,0.347844660282135,0.10255459696054459,0.14844608306884766,32.57831325301205,0.1948625770764208,0.39223098038983184,Lombrics_valid_4_grid5,3
29,0.5271084308624268,0.16263940930366516,0.5203325152397156,0.07643570750951767,0.5645063519477844,0.26418596506118774,0.5771419405937195,0.24857954680919647,0.36397668719291687,-0.003718701424077153,0.15428388118743896,30.73643410852713,0.16927045476625785,0.4224899838257615,Lombrics_valid_4_grid5,4
30,0.27386540174484253,0.2834008038043976,0.5096281170845032,0.06886644661426544,0.5432062745094299,0.2486761510372162,0.6199429035186768,0.27855151891708374,0.2757208049297333,0.08549356460571289,0.23988580703735352,32.27303754266212,0.1926528493055199,0.3427214531052266,Lombrics_valid_4_grid6,0
31,0.25745949149131775,0.31756046414375305,0.5469697117805481,0.07159258425235748,0.5269725322723389,0.23170430958271027,0.634779155254364,0.2843691110610962,0.26758813858032227,-0.028901908546686172,0.269558310508728,30.27016129032258,0.17864427707712938,0.3595968042850372,Lombrics_valid_4_grid6,1
32,0.20196238160133362,0.23456789553165436,0.5207523703575134,0.06804759800434113,0.5229672789573669,0.2307208627462387,0.5921668410301208,0.21704743802547455,0.20773757994174957,0.081047922372818,0.1843336820602417,30.022556390977442,0.1850206750180143,0.33038090411362253,Lombrics_valid_4_grid6,2
33,0.22635135054588318,0.25893720984458923,0.546826958656311,0.08761712163686752,0.5391721725463867,0.24025987088680267,0.6042177677154541,0.2415502518415451,0.23219545185565948,0.006984780542552471,0.2084355354309082,31.092369477911646,0.1899345890384466,0.3317772330084356,Lombrics_valid_4_grid6,3
34,0.24624060094356537,0.2434944212436676,0.5581638813018799,0.0842808410525322,0.5462368726730347,0.2604573965072632,0.6004060506820679,0.24485981464385986,0.24568642675876617,0.010623433627188206,0.20081210136413574,30.531007751937985,0.18866321755808976,0.350882200062989,Lombrics_valid_4_grid6,4
35,0.20852017402648926,0.37651821970939636,0.5408693552017212,0.06980384141206741,0.506697952747345,0.23064053058624268,0.6468777060508728,0.268398255109787,0.22895126044750214,-0.06941268593072891,0.2937554121017456,42.12627986348123,0.2423689232064183,0.3466532009686019,Lombrics_valid_4_grid7,0
36,0.20370370149612427,0.3817034661769867,0.5721944570541382,0.07454364746809006,0.5322283506393433,0.2333054393529892,0.6517500281333923,0.2656421661376953,0.22465650737285614,-0.03170608729124069,0.30350005626678467,31.455645161290324,0.1884409039118002,0.39309993924492287,Lombrics_valid_4_grid7,1
37,0.22529223561286926,0.4026590585708618,0.5599552392959595,0.07372946292161942,0.5556347370147705,0.2374688982963562,0.663808286190033,0.28892675042152405,0.24705743789672852,0.012630675919353962,0.3276165723800659,32.57142857142857,0.1868193262231368,0.38438817423272664,Lombrics_valid_4_grid7,2
38,0.24482108652591705,0.37681159377098083,0.5654222965240479,0.09929800033569336,0.5481254458427429,0.2459901124238968,0.6552433967590332,0.29680365324020386,0.2632644772529602,-0.010267715901136398,0.3104867935180664,34.23293172690763,0.20339691651610103,0.3530109699404626,Lombrics_valid_4_grid7,3
39,0.2568448483943939,0.3661710023880005,0.5312365889549255,0.07360505312681198,0.5507523417472839,0.2534348964691162,0.6527502536773682,0.3019156754016876,0.2731558382511139,0.028617078438401222,0.30550050735473633,36.15503875968992,0.20477661683033577,0.38981954896403925,Lombrics_valid_4_grid7,4
