,precision,recall,rocauc,prauc,wrocauc,wprauc,balacc,microf1,microf2,mcc,tss,coverage,lr,lrap,conf,cvblock
0,0.5885167717933655,0.19919028878211975,0.7475296854972839,0.20887143909931183,0.739129900932312,0.3955925703048706,0.5955625176429749,0.2976406514644623,0.42311662435531616,0.11990640312433243,0.1911250352859497,17.054607508532424,0.07882343689557827,0.5372163266811518,Lombrics_valid_4_grid0,0
1,0.5744680762290955,0.1942446082830429,0.7440565824508667,0.22731278836727142,0.7415099740028381,0.40388748049736023,0.5932598114013672,0.29032257199287415,0.4128440320491791,0.12761709094047546,0.18651962280273438,17.282258064516128,0.08154743890615239,0.538512697117205,Lombrics_valid_4_grid0,1
2,0.6124260425567627,0.1904323846101761,0.7417272329330444,0.22236880660057068,0.7485606074333191,0.4116343855857849,0.5918390154838562,0.2905263304710388,0.4243542551994324,0.18499550223350525,0.1836780309677124,16.883458646616543,0.078552019829572,0.5612510749610862,Lombrics_valid_4_grid0,2
3,0.6337209343910217,0.2062440812587738,0.723817765712738,0.2675796449184418,0.7408539056777954,0.4185222089290619,0.5996444225311279,0.31120631098747253,0.4480065703392029,0.13400410115718842,0.19928884506225586,17.477911646586346,0.08206271783541323,0.5463600154848518,Lombrics_valid_4_grid0,3
4,0.6085714101791382,0.20639534294605255,0.7380338311195374,0.2113516926765442,0.7366268634796143,0.40122276544570923,0.5995606184005737,0.308248907327652,0.43791112303733826,0.14820480346679688,0.19912123680114746,18.27906976744186,0.08844069633723978,0.5339890173463374,Lombrics_valid_4_grid0,4
5,0.618686854839325,0.19838055968284607,0.7492614984512329,0.2227170318365097,0.7422269582748413,0.3978603184223175,0.5956500172615051,0.30042919516563416,0.43455129861831665,0.1270984560251236,0.19130003452301025,17.15358361774744,0.08010549168978247,0.5384538806879087,Lombrics_valid_4_grid1,0
6,0.5754716992378235,0.1880781054496765,0.7307803630828857,0.2107713669538498,0.7373169660568237,0.3962513506412506,0.590314507484436,0.28350117802619934,0.4075724184513092,0.0985855981707573,0.18062901496887207,17.818548387096776,0.0853645780875486,0.5352402039204468,Lombrics_valid_4_grid1,1
7,0.6283987760543823,0.19135235249996185,0.735672116279602,0.2234249860048294,0.7465476393699646,0.41119930148124695,0.5925052762031555,0.29337093234062195,0.4313563108444214,0.17371860146522522,0.18501055240631104,17.0,0.07955450683410663,0.5595856054698594,Lombrics_valid_4_grid1,2
8,0.6282420754432678,0.2062440812587738,0.7205914855003357,0.25370094180107117,0.7395313382148743,0.41221633553504944,0.5995616316795349,0.3105413317680359,0.4458077549934387,0.12740811705589294,0.19912326335906982,17.72289156626506,0.08358285355827258,0.5433365491077662,Lombrics_valid_4_grid1,3
9,0.6106194853782654,0.2005814015865326,0.729955792427063,0.19713985919952393,0.7314746975898743,0.3886122405529022,0.596786379814148,0.30196937918663025,0.43341711163520813,0.13278664648532867,0.1935727596282959,17.825581395348838,0.0881047102034351,0.5277973399282255,Lombrics_valid_4_grid1,4
10,0.6171284914016724,0.19838055968284607,0.7336774468421936,0.2046879678964615,0.7403063178062439,0.3963225483894348,0.5956265330314636,0.300245076417923,0.4339355230331421,0.11136206239461899,0.19125306606292725,17.53924914675768,0.0810573839924224,0.5360406079307438,Lombrics_valid_4_grid2,0
11,0.5849056839942932,0.1911613494157791,0.711430013179779,0.21097584068775177,0.7375285625457764,0.39151671528816223,0.5919389128684998,0.2881487309932709,0.41425392031669617,0.08560094237327576,0.1838778257369995,17.318548387096776,0.08149868923890674,0.536449079041323,Lombrics_valid_4_grid2,1
12,0.6302250623703003,0.18031278252601624,0.7228869199752808,0.22842110693454742,0.7451698184013367,0.40792420506477356,0.5871917009353638,0.2804005742073059,0.42042040824890137,0.16301417350769043,0.17438340187072754,17.206766917293233,0.07965783620287507,0.5574635756596368,Lombrics_valid_4_grid2,2
13,0.6445783376693726,0.20245979726314545,0.7231115102767944,0.2461899071931839,0.7412948608398438,0.41306108236312866,0.597973108291626,0.30813533067703247,0.44863733649253845,0.10819254070520401,0.19594621658325195,17.61847389558233,0.08179176865199914,0.5488891457253672,Lombrics_valid_4_grid2,3
14,0.6076695919036865,0.19961240887641907,0.7262195944786072,0.2203235924243927,0.7312633991241455,0.39421284198760986,0.5962753295898438,0.30051058530807495,0.43132326006889343,0.12110123783349991,0.1925506591796875,17.37984496124031,0.08502015965485121,0.5342168218294234,Lombrics_valid_4_grid2,4
15,0.6119791865348816,0.19028340280056,0.6985412240028381,0.1819181591272354,0.7317838668823242,0.3860183656215668,0.591648280620575,0.29030266404151917,0.4240346848964691,0.11351895332336426,0.1832965612411499,18.02047781569966,0.08281977133353909,0.5365529157804764,Lombrics_valid_4_grid3,0
16,0.5840978622436523,0.19630010426044464,0.7034721970558167,0.21443426609039307,0.7359411120414734,0.3920581638813019,0.5943979024887085,0.29384616017341614,0.4186760485172272,0.05185675621032715,0.188795804977417,17.475806451612904,0.08353326173349869,0.5355399496191864,Lombrics_valid_4_grid3,1
17,0.6414473652839661,0.17939282953739166,0.7026883959770203,0.21155984699726105,0.7396975755691528,0.403739333152771,0.5868864059448242,0.28037384152412415,0.4233608543872833,0.1185397282242775,0.17377281188964844,17.469924812030076,0.08145529054870165,0.5507264384389782,Lombrics_valid_4_grid3,2
18,0.649350643157959,0.1892147660255432,0.7120741009712219,0.24504540860652924,0.7404234409332275,0.4194256663322449,0.5916265845298767,0.29304030537605286,0.4368719756603241,0.0853164866566658,0.18325316905975342,18.08433734939759,0.08379077157977821,0.5443364174717092,Lombrics_valid_4_grid3,3
19,0.6109422445297241,0.19476744532585144,0.7049509882926941,0.20953765511512756,0.7241635322570801,0.38580819964408875,0.5939856171607971,0.29537102580070496,0.4280238449573517,0.11971033364534378,0.18797123432159424,18.2015503875969,0.08961869723872797,0.5227553352811637,Lombrics_valid_4_grid3,4
20,0.6216216087341309,0.20485830307006836,0.7367015480995178,0.1864936202764511,0.7423686385154724,0.4032837152481079,0.5988185405731201,0.30816081166267395,0.44184425473213196,0.10726557672023773,0.19763708114624023,17.389078498293514,0.08144673630492907,0.5372349926516417,Lombrics_valid_4_grid4,0
21,0.5877193212509155,0.2065775990486145,0.7198244333267212,0.21401073038578033,0.7374654412269592,0.40580564737319946,0.5993987321853638,0.30570343136787415,0.42930370569229126,0.12905579805374146,0.19879746437072754,17.375,0.08217033236281371,0.5406247340455983,Lombrics_valid_4_grid4,1
22,0.6198347210884094,0.20699171721935272,0.7353723049163818,0.2183244377374649,0.750926673412323,0.417218416929245,0.5999382138252258,0.3103448152542114,0.4430878460407257,0.12529639899730682,0.19987642765045166,16.210526315789473,0.07722807010154357,0.5486048507744499,Lombrics_valid_4_grid4,2
23,0.647230327129364,0.21002838015556335,0.7414120435714722,0.2811521887779236,0.7442682981491089,0.43474623560905457,0.6016746163368225,0.31714287400245667,0.4569782018661499,0.13863763213157654,0.20334923267364502,16.95983935742972,0.08024363011110255,0.5471581472549999,Lombrics_valid_4_grid4,3
24,0.5968169569969177,0.21802325546741486,0.7266221046447754,0.23160810768604279,0.7440825700759888,0.4174952208995819,0.6049763560295105,0.3193754553794861,0.44291338324546814,0.22707413136959076,0.209952712059021,17.27906976744186,0.08353373299632742,0.5462313787364736,Lombrics_valid_4_grid4,4
25,0.6057007312774658,0.20647773146629333,0.7389280796051025,0.2001771628856659,0.7324837446212769,0.38625389337539673,0.5993468761444092,0.3079710006713867,0.4367934465408325,0.14239351451396942,0.19869375228881836,17.47098976109215,0.0821986387758345,0.5364420597982669,Lombrics_valid_4_grid5,0
26,0.5740740895271301,0.1911613494157791,0.7330567240715027,0.22698739171028137,0.7443283796310425,0.4030768871307373,0.5917733907699585,0.28681573271751404,0.4098722040653229,0.11053374409675598,0.183546781539917,17.383064516129032,0.08215537902788729,0.5503473205195342,Lombrics_valid_4_grid5,1
27,0.6264705657958984,0.1959521621465683,0.7187354564666748,0.21114382147789001,0.7474263310432434,0.41332632303237915,0.5947020053863525,0.29852837324142456,0.43522676825523376,0.10229255259037018,0.18940401077270508,16.804511278195488,0.07911537611920696,0.5410578949036556,Lombrics_valid_4_grid5,2
28,0.6432584524154663,0.21665090322494507,0.7065494656562805,0.24623417854309082,0.7376258969306946,0.4115850031375885,0.6048202514648438,0.3241330683231354,0.4615074694156647,0.12528423964977264,0.2096405029296875,18.598393574297187,0.08642396578865144,0.5439054730010665,Lombrics_valid_4_grid5,3
29,0.5785123705863953,0.20348836481571198,0.7164517045021057,0.21886290609836578,0.7179254293441772,0.38947808742523193,0.5976824164390564,0.3010752499103546,0.4227052927017212,0.068898044526577,0.1953648328781128,17.643410852713178,0.08800515328893659,0.5225707676715907,Lombrics_valid_4_grid5,4
30,0.6172248721122742,0.208906888961792,0.7352058291435242,0.2210763394832611,0.7391195893287659,0.4032018184661865,0.600702166557312,0.3121597170829773,0.44375646114349365,0.12340628355741501,0.20140433311462402,16.860068259385667,0.07764612067546207,0.5387921547026471,Lombrics_valid_4_grid6,0
31,0.594427227973938,0.1973278522491455,0.7270649075508118,0.21789173781871796,0.7419373989105225,0.3979808986186981,0.5950497388839722,0.29629629850387573,0.42384102940559387,0.08439378440380096,0.19009947776794434,17.387096774193548,0.08406567143307345,0.534892254674463,Lombrics_valid_4_grid6,1
32,0.5989159941673279,0.20331186056137085,0.7277025580406189,0.2098020613193512,0.7465327382087708,0.4121720790863037,0.5978405475616455,0.3035714328289032,0.431135356426239,0.10645785927772522,0.19568109512329102,16.24812030075188,0.07457540271926717,0.5431856429033257,Lombrics_valid_4_grid6,2
33,0.6327077746391296,0.2232734113931656,0.7357344627380371,0.2796255946159363,0.7495918273925781,0.4294496774673462,0.607855498790741,0.3300699293613434,0.46292662620544434,0.17749954760074615,0.21571099758148193,17.02409638554217,0.07808532379393905,0.5606521487284566,Lombrics_valid_4_grid6,3
34,0.5841584205627441,0.22868217527866364,0.7168510556221008,0.2246537208557129,0.7275974154472351,0.40015551447868347,0.6098811030387878,0.3286908268928528,0.4456193745136261,0.141428142786026,0.21976220607757568,17.18217054263566,0.08360265264025551,0.5410945794573312,Lombrics_valid_4_grid6,4
35,0.5985401272773743,0.19919028878211975,0.7268579602241516,0.2096245288848877,0.7367507815361023,0.395031213760376,0.5957266092300415,0.2989064157009125,0.42723163962364197,0.10568157583475113,0.191453218460083,16.829351535836178,0.07720049024553755,0.5365272730017658,Lombrics_valid_4_grid7,0
36,0.5783132314682007,0.1973278522491455,0.7130838632583618,0.1948515772819519,0.7442893981933594,0.3983080983161926,0.5948014259338379,0.294252872467041,0.4172099232673645,0.1265641301870346,0.18960285186767578,17.524193548387096,0.08226051271469037,0.5375853512391929,Lombrics_valid_4_grid7,1
37,0.6033994555473328,0.1959521621465683,0.7284318208694458,0.24226368963718414,0.750062108039856,0.4216470420360565,0.5943669080734253,0.2958333194255829,0.4261704683303833,0.10204882174730301,0.18873381614685059,16.19924812030075,0.07608184269100321,0.5563138379151981,Lombrics_valid_4_grid7,2
38,0.6596385836601257,0.2071901559829712,0.7313523888587952,0.2386157512664795,0.7481265664100647,0.4260287880897522,0.6004762649536133,0.3153347671031952,0.4591194689273834,0.10215596109628677,0.20095252990722656,17.51004016064257,0.08196665404340507,0.5422015724862239,Lombrics_valid_4_grid7,3
39,0.6104651093482971,0.20348836481571198,0.7041304707527161,0.18347817659378052,0.7105115652084351,0.36742061376571655,0.5981867909431458,0.30523255467414856,0.4360464811325073,0.09533019363880157,0.1963735818862915,18.310077519379846,0.09058467024595565,0.5343082261009596,Lombrics_valid_4_grid7,4
