,precision,recall,rocauc,prauc,wrocauc,wprauc,balacc,microf1,microf2,mcc,tss,coverage,lr,lrap,conf,cvblock
0,0.35395190119743347,0.5838056802749634,0.7439945936203003,0.20001868903636932,0.7280769944190979,0.3791774809360504,0.7610484957695007,0.44070902466773987,0.3842054605484009,0.012971186079084873,0.5220969915390015,18.764505119453926,0.08821797670586551,0.5201737850841492,Lombrics_valid_4_grid0,0
1,0.34827378392219543,0.5909557938575745,0.7316626310348511,0.22109252214431763,0.7333964109420776,0.3925814628601074,0.7657918930053711,0.4382621645927429,0.37943777441978455,-0.022703805938363075,0.5315837860107422,18.717741935483872,0.09133694201903003,0.5283823796581218,Lombrics_valid_4_grid0,1
2,0.44111350178718567,0.37902483344078064,0.6491339206695557,0.14945727586746216,0.6938350796699524,0.3642488420009613,0.6760553121566772,0.4077189266681671,0.42712002992630005,-0.008243676275014877,0.3521106243133545,22.330827067669173,0.1091306002143738,0.508077485944859,Lombrics_valid_4_grid0,2
3,0.4261603355407715,0.4777672588825226,0.6595522165298462,0.17584316432476044,0.719904899597168,0.38789311051368713,0.7201156616210938,0.45049065351486206,0.4355701506137848,0.0954679623246193,0.4402313232421875,21.97590361445783,0.10965237663693723,0.525656712907669,Lombrics_valid_4_grid0,3
4,0.34978407621383667,0.5494186282157898,0.7379094362258911,0.1954798847436905,0.7222456932067871,0.3901633024215698,0.7467280030250549,0.4274406433105469,0.3771952986717224,-0.004444110207259655,0.49345600605010986,19.453488372093023,0.09776826739676278,0.5248928979699977,Lombrics_valid_4_grid0,4
5,0.3521888852119446,0.5797570943832397,0.7403318285942078,0.20975834131240845,0.7291742563247681,0.38348400592803955,0.7590007781982422,0.4381885230541229,0.38219282031059265,0.0240336824208498,0.5180015563964844,18.90443686006826,0.08864497367713683,0.5228927074566062,Lombrics_valid_4_grid1,0
6,0.34476640820503235,0.5991777777671814,0.719726026058197,0.19659052789211273,0.7320284843444824,0.38355115056037903,0.7690199613571167,0.4376876950263977,0.3767610192298889,-0.006757756229490042,0.5380399227142334,19.278225806451612,0.09275407008985295,0.5191496804786118,Lombrics_valid_4_grid1,1
7,0.4082396924495697,0.4011039435863495,0.6025827527046204,0.13137787580490112,0.6643853187561035,0.33271050453186035,0.6842591166496277,0.4046403467655182,0.4067922830581665,0.00533672608435154,0.36851823329925537,24.703007518796994,0.1191227678474112,0.4919296318782566,Lombrics_valid_4_grid1,2
8,0.3660826086997986,0.5534531474113464,0.7079111337661743,0.19555336236953735,0.7255133390426636,0.3946070969104767,0.7487678527832031,0.4406779706478119,0.3926701247692108,0.03786233440041542,0.49753570556640625,20.056224899598394,0.09963996037386141,0.5234524219436911,Lombrics_valid_4_grid1,3
9,0.3403487801551819,0.5484496355056763,0.7068475484848022,0.1689087599515915,0.7094951868057251,0.3781329393386841,0.7451019287109375,0.4200371205806732,0.3682977855205536,0.03550931438803673,0.490203857421875,20.51937984496124,0.10260501460735438,0.5172603536986125,Lombrics_valid_4_grid1,4
10,0.35771921277046204,0.5384615659713745,0.7067614197731018,0.19438306987285614,0.6818922162055969,0.3432759642601013,0.7412368059158325,0.4298642575740814,0.3834621012210846,0.056946441531181335,0.48247361183166504,20.406143344709896,0.09936476312404222,0.5068185428646202,Lombrics_valid_4_grid2,0
11,0.3295978903770447,0.5138745903968811,0.6961895823478699,0.17336320877075195,0.677760660648346,0.3341663181781769,0.7288790345191956,0.40160641074180603,0.35506317019462585,0.0422135554254055,0.4577580690383911,19.637096774193548,0.10148757943724675,0.4948834326424282,Lombrics_valid_4_grid2,1
12,0.3478810787200928,0.5059797763824463,0.6859244704246521,0.19242261350154877,0.6656180620193481,0.34564921259880066,0.7264108657836914,0.41229385137557983,0.3710700273513794,-0.027433253824710846,0.4528217315673828,20.097744360902254,0.09948548826654342,0.49142008274367366,Lombrics_valid_4_grid2,2
13,0.368630588054657,0.4380321800708771,0.6714131832122803,0.13666243851184845,0.627739429473877,0.3074502944946289,0.6971293687820435,0.40034589171409607,0.3806940019130707,0.13186194002628326,0.3942587375640869,22.859437751004016,0.12011622749904864,0.47986420711461875,Lombrics_valid_4_grid2,3
14,0.3333333432674408,0.5261628031730652,0.7014361619949341,0.1965860277414322,0.6712887287139893,0.3433322012424469,0.734250545501709,0.40811726450920105,0.35969796776771545,-0.002097898395732045,0.46850109100341797,19.87984496124031,0.1031294052931573,0.5075995343055762,Lombrics_valid_4_grid2,4
15,0.3153206706047058,0.4299595057964325,0.66041499376297,0.12332239001989365,0.5938765406608582,0.2843753397464752,0.6879470348358154,0.3638232350349426,0.3330824375152588,0.08311569690704346,0.37589406967163086,23.62457337883959,0.12446673913341245,0.44629854087552784,Lombrics_valid_4_grid3,0
16,0.3115220367908478,0.4501541554927826,0.651565670967102,0.1386289894580841,0.6034917235374451,0.27674371004104614,0.6983706951141357,0.3682219088077545,0.3319690227508545,0.01588641107082367,0.3967413902282715,23.024193548387096,0.12403944051577392,0.43207237592858294,Lombrics_valid_4_grid3,1
17,0.25658339262008667,0.34958600997924805,0.5669369101524353,0.09458748251199722,0.5443121790885925,0.2466263771057129,0.6464093923568726,0.29595014452934265,0.27100270986557007,0.021784843876957893,0.2928187847137451,31.345864661654137,0.1807542045154443,0.37532980414794676,Lombrics_valid_4_grid3,2
18,0.3344503939151764,0.47209081053733826,0.6573583483695984,0.20858928561210632,0.616934597492218,0.3200702667236328,0.7086386680603027,0.39152607321739197,0.3551601469516754,0.04641924798488617,0.41727733612060547,21.83132530120482,0.11183180009786979,0.4777164078124494,Lombrics_valid_4_grid3,3
19,0.2936726212501526,0.41375967860221863,0.6424664855003357,0.14554882049560547,0.5701410174369812,0.2605631947517395,0.679615318775177,0.3435237407684326,0.31176984310150146,-0.00992612075060606,0.359230637550354,23.864341085271317,0.13388675436078548,0.414992054677853,Lombrics_valid_4_grid3,4
20,0.35939928889274597,0.5619432926177979,0.7044928669929504,0.1542545109987259,0.7118330597877502,0.3722400963306427,0.7519694566726685,0.4384080767631531,0.38732001185417175,0.006374744698405266,0.5039389133453369,21.129692832764505,0.10317792833968664,0.5174365017069826,Lombrics_valid_4_grid4,0
21,0.35149863362312317,0.5303186178207397,0.6907281875610352,0.1659643054008484,0.6942256689071655,0.33495861291885376,0.7388943433761597,0.42277756333351135,0.37691745162010193,0.03503920137882233,0.47778868675231934,20.705645161290324,0.10667667861993513,0.5045434774853138,Lombrics_valid_4_grid4,1
22,0.34656795859336853,0.4737810492515564,0.5784893035888672,0.08931479603052139,0.6220660209655762,0.2902678847312927,0.7118582725524902,0.4003109037876129,0.36623522639274597,0.0,0.42371654510498047,24.590225563909776,0.13039751090001303,0.47964336097296134,Lombrics_valid_4_grid4,2
23,0.3331246078014374,0.503311276435852,0.5712909698486328,0.10247945040464401,0.6008504033088684,0.2883536219596863,0.7222617268562317,0.4009042978286743,0.3572867810726166,0.0,0.4445234537124634,26.365461847389557,0.13886705023517731,0.4895345916154317,Lombrics_valid_4_grid4,3
24,0.34285715222358704,0.5465116500854492,0.6961793899536133,0.1695992350578308,0.684259831905365,0.34864363074302673,0.7445577383041382,0.42136722803115845,0.3704676926136017,0.0726187452673912,0.48911547660827637,20.53875968992248,0.10782067913899743,0.5106484250078805,Lombrics_valid_4_grid4,4
25,0.3541666567325592,0.5368421077728271,0.6481983661651611,0.14457650482654572,0.663860023021698,0.34045344591140747,0.7400753498077393,0.42677825689315796,0.3800297677516937,0.05881071463227272,0.4801506996154785,22.467576791808874,0.11152560858781134,0.4989712605403831,Lombrics_valid_4_grid5,0
26,0.34304797649383545,0.5806783437728882,0.7132152318954468,0.2029651403427124,0.7168449759483337,0.37901583313941956,0.7604876160621643,0.4312977194786072,0.37362781167030334,0.04871916025876999,0.5209752321243286,19.18951612903226,0.09698591972374702,0.5107792327077616,Lombrics_valid_4_grid5,1
27,0.3384718596935272,0.4645814299583435,0.5674134492874146,0.0899742990732193,0.6091154217720032,0.2915065586566925,0.7068459987640381,0.39162468910217285,0.3579021990299225,0.04712870717048645,0.41369199752807617,24.860902255639097,0.13044251000515653,0.47575415674936633,Lombrics_valid_4_grid5,2
28,0.3571428656578064,0.5061494708061218,0.6226300597190857,0.12002292275428772,0.6586837768554688,0.33801814913749695,0.7264959812164307,0.4187867045402527,0.37948644161224365,-0.049024224281311035,0.45299196243286133,24.096385542168676,0.12992402768582506,0.494675489302878,Lombrics_valid_4_grid5,3
29,0.33870968222618103,0.5494186282157898,0.6758572459220886,0.15947069227695465,0.6743606328964233,0.3423776626586914,0.7453209757804871,0.41906875371932983,0.36684784293174744,0.03319359943270683,0.4906419515609741,20.992248062015506,0.10885185451704082,0.5111511314410695,Lombrics_valid_4_grid5,4
30,0.3553299605846405,0.5101214647293091,0.6950156688690186,0.14949068427085876,0.6733043789863586,0.338215172290802,0.7282624244689941,0.41888296604156494,0.37828749418258667,0.01815594546496868,0.4565248489379883,20.546075085324233,0.10276840908501772,0.49549699459410695,Lombrics_valid_4_grid6,0
31,0.3329024016857147,0.5292908549308777,0.6893932819366455,0.19418364763259888,0.7048704028129578,0.35724881291389465,0.7361733317375183,0.4087301790714264,0.359586626291275,0.0,0.4723466634750366,20.262096774193548,0.10407556637585172,0.505445721644497,Lombrics_valid_4_grid6,1
32,0.31402650475502014,0.41398343443870544,0.43688276410102844,0.05532613396644592,0.47589364647865295,0.20899827778339386,0.6816501617431641,0.357142835855484,0.3299604058265686,0.03391372784972191,0.3633003234863281,27.951127819548873,0.15437033304773953,0.44508410568357365,Lombrics_valid_4_grid6,2
33,0.33478260040283203,0.4370861053466797,0.5143927335739136,0.07667739689350128,0.5335122346878052,0.2573944926261902,0.6932063102722168,0.37915468215942383,0.3512239456176758,0.018932504579424858,0.3864126205444336,27.100401606425702,0.1516246645281838,0.45934322209275336,Lombrics_valid_4_grid6,3
34,0.3300066590309143,0.4806201457977295,0.6572198867797852,0.15508058667182922,0.638903021812439,0.3089424669742584,0.7135764956474304,0.3913215100765228,0.35207271575927734,-0.02258068136870861,0.42715299129486084,22.31782945736434,0.1199075171775552,0.48758174000571675,Lombrics_valid_4_grid6,4
35,0.3128381669521332,0.5149797797203064,0.663754940032959,0.15603479743003845,0.5814254879951477,0.2715456783771515,0.7247364521026611,0.3892289102077484,0.33948972821235657,0.018224263563752174,0.44947290420532227,20.58703071672355,0.10768920345607029,0.46248330636930074,Lombrics_valid_4_grid7,0
36,0.3033932149410248,0.4686536490917206,0.6658440828323364,0.15549466013908386,0.6025775074958801,0.2855512797832489,0.705440878868103,0.3683360517024994,0.32641375064849854,0.013150537386536598,0.41088175773620605,20.931451612903224,0.1131831816896693,0.46412102360402185,Lombrics_valid_4_grid7,1
37,0.30147531628608704,0.4323827028274536,0.6178202033042908,0.12704430520534515,0.5528421401977539,0.2507390081882477,0.6881171464920044,0.3552532196044922,0.32090675830841064,-0.021910838782787323,0.3762342929840088,22.25563909774436,0.1242111012605532,0.4230294659837363,Lombrics_valid_4_grid7,2
38,0.2850821614265442,0.4266792833805084,0.6131229996681213,0.12859667837619781,0.5660849213600159,0.27972012758255005,0.682124137878418,0.3417961299419403,0.305348664522171,-0.02213660255074501,0.36424827575683594,25.313253012048193,0.14397960119211112,0.373181973694652,Lombrics_valid_4_grid7,3
39,0.3041236996650696,0.5145348906517029,0.6567676663398743,0.16374972462654114,0.586785078048706,0.27707162499427795,0.725011944770813,0.38228940963745117,0.3312125504016876,0.058234333992004395,0.450023889541626,21.31782945736434,0.11619804795126848,0.4762877903006468,Lombrics_valid_4_grid7,4
